hdl/tb/cpu_log.vcd
$date
	Wed Sep 14 20:52:38 2022
$end
$version
	Icarus Verilog
$end
$timescale
	1s
$end
$scope module cpu_tb $end
$scope module DUT $end
$var wire 1 ! clk_ce $end
$var wire 32 " ex_res_dat [31:0] $end
$var wire 1 # i_clk $end
$var wire 32 $ i_data_in_i [31:0] $end
$var wire 32 % i_data_rd_d [31:0] $end
$var wire 1 & i_rst $end
$var wire 1 ' i_valid_d $end
$var wire 1 ( i_valid_i $end
$var wire 1 ) ma_rd_en $end
$var wire 4 * ma_wr_en [3:0] $end
$var wire 32 + o_addr_d [31:0] $end
$var wire 32 , o_addr_i [31:0] $end
$var wire 32 - o_data_wr_d [31:0] $end
$var wire 1 . o_rd_d $end
$var wire 4 / o_wr_d [3:0] $end
$var wire 2 0 wb_mux [1:0] $end
$var wire 1 1 wb_en $end
$var wire 1 2 system $end
$var wire 32 3 rs2_raw_d [31:0] $end
$var wire 32 4 rs2_d [31:0] $end
$var wire 5 5 rs2 [4:0] $end
$var wire 32 6 rs1_raw_d [31:0] $end
$var wire 32 7 rs1_d [31:0] $end
$var wire 5 8 rs1 [4:0] $end
$var wire 5 9 rd [4:0] $end
$var wire 32 : ma_wr_dat [31:0] $end
$var wire 4 ; ma_we [3:0] $end
$var wire 32 < ma_rd_dat [31:0] $end
$var wire 1 = jump $end
$var wire 32 > immediate [31:0] $end
$var wire 32 ? if_pc [31:0] $end
$var wire 32 @ id_ret [31:0] $end
$var wire 32 A id_pc [31:0] $end
$var wire 32 B id_ir [31:0] $end
$var wire 1 C hz_rs2 $end
$var wire 1 D hz_rs1 $end
$var wire 1 E hz_data $end
$var wire 1 F hz_br $end
$var wire 7 G funct7 [6:0] $end
$var wire 3 H funct3 [2:0] $end
$var wire 1 I d_wr $end
$var wire 1 J d_rd $end
$var wire 1 K clk_n $end
$var wire 1 L branch $end
$var wire 1 M br_en $end
$var wire 1 N alu_pc $end
$var wire 32 O alu_out [31:0] $end
$var wire 1 P alu_imm $end
$var wire 1 Q alu_en $end
$var wire 1 R alu_busy $end
$var wire 32 S alu_b_mux [31:0] $end
$var wire 32 T alu_a_mux [31:0] $end
$var reg 1 U ex_alu_en $end
$var reg 1 V ex_alu_imm $end
$var reg 1 W ex_alu_pc $end
$var reg 1 X ex_branch $end
$var reg 3 Y ex_funct3 [2:0] $end
$var reg 7 Z ex_funct7 [6:0] $end
$var reg 32 [ ex_imm [31:0] $end
$var reg 1 \ ex_jump $end
$var reg 1 ] ex_ma_rd $end
$var reg 1 ^ ex_ma_wr $end
$var reg 32 _ ex_pc [31:0] $end
$var reg 32 ` ex_ret [31:0] $end
$var reg 5 a ex_rs1 [4:0] $end
$var reg 32 b ex_rs1_d [31:0] $end
$var reg 32 c ex_rs2_d [31:0] $end
$var reg 1 d ex_system $end
$var reg 1 e ex_wb_en $end
$var reg 2 f ex_wb_mux [1:0] $end
$var reg 5 g ex_wb_reg [4:0] $end
$var reg 3 h ma_funct3 [2:0] $end
$var reg 1 ) ma_rd $end
$var reg 32 i ma_res [31:0] $end
$var reg 32 j ma_ret [31:0] $end
$var reg 32 k ma_rs2_d [31:0] $end
$var reg 1 l ma_wb_en $end
$var reg 2 m ma_wb_mux [1:0] $end
$var reg 5 n ma_wb_reg [4:0] $end
$var reg 1 o ma_wr $end
$var reg 32 p wb_dat_mux [31:0] $end
$var reg 32 q wb_wb_d [31:0] $end
$var reg 1 r wb_wb_en $end
$var reg 5 s wb_wb_reg [4:0] $end
$scope module alu_i $end
$var wire 1 U i_alu_en $end
$var wire 1 V i_alu_imm $end
$var wire 1 K i_clk_n $end
$var wire 3 t i_funct3 [2:0] $end
$var wire 7 u i_funct7 [6:0] $end
$var wire 32 v i_in_a [31:0] $end
$var wire 32 w i_in_b [31:0] $end
$var wire 1 & i_rst $end
$var wire 32 x logic_and [31:0] $end
$var wire 32 y logic_or [31:0] $end
$var wire 32 z logic_xor [31:0] $end
$var wire 1 { md_en $end
$var wire 1 R o_busy $end
$var wire 1 | op_subtract $end
$var wire 1 } shift_en $end
$var wire 32 ~ shift_result [31:0] $end
$var wire 1 !" shift_busy $end
$var wire 32 "" o_alu_out [31:0] $end
$var wire 32 #" md_result [31:0] $end
$var wire 1 $" md_busy $end
$var wire 1 %" funct7_5 $end
$var wire 1 &" funct7_0 $end
$var wire 32 '" comp_u [31:0] $end
$var wire 32 (" comp [31:0] $end
$var wire 32 )" adder_out [31:0] $end
$var wire 32 *" adder_in_b [31:0] $end
$var reg 32 +" mux [31:0] $end
$scope module muldiv_i $end
$var wire 1 ," a_se $end
$var wire 1 -" b_se $end
$var wire 1 ." div_en $end
$var wire 1 /" div_s $end
$var wire 1 0" div_se $end
$var wire 1 K i_clk_n $end
$var wire 3 1" i_funct3 [2:0] $end
$var wire 32 2" i_in_a [31:0] $end
$var wire 32 3" i_in_b [31:0] $end
$var wire 1 { i_md_en $end
$var wire 1 & i_rst $end
$var wire 1 4" md_en $end
$var wire 1 5" mul_a_se $end
$var wire 1 6" mul_en $end
$var wire 1 7" mul_s $end
$var wire 1 $" o_busy $end
$var wire 1 8" rem_s $end
$var wire 32 9" o_result [31:0] $end
$var wire 64 :" mul_q [63:0] $end
$var wire 1 ;" mul_busy $end
$var wire 1 <" mul_b_se $end
$var wire 32 =" mul [31:0] $end
$var wire 32 >" in_b_n [31:0] $end
$var wire 32 ?" in_b [31:0] $end
$var wire 32 @" in_a_n [31:0] $end
$var wire 32 A" in_a [31:0] $end
$var wire 32 B" div_sub [31:0] $end
$var wire 32 C" div_res [31:0] $end
$var wire 1 D" div_rem_s $end
$var wire 32 E" div_rem [31:0] $end
$var wire 32 F" div_div [31:0] $end
$var wire 1 G" div_cmp $end
$var wire 1 H" div_busy $end
$var wire 32 I" div [31:0] $end
$var wire 32 J" b_s [31:0] $end
$var wire 32 K" a_s [31:0] $end
$var reg 64 L" div_a [63:0] $end
$var reg 32 M" div_b [31:0] $end
$var reg 6 N" div_cnt [5:0] $end
$var reg 32 O" div_q [31:0] $end
$var reg 64 P" mul_a_reg [63:0] $end
$var reg 32 Q" mul_b_reg [31:0] $end
$var reg 64 R" mul_mul [63:0] $end
$upscope $end
$scope module shifter_i $end
$var wire 1 K i_clk_n $end
$var wire 3 S" i_funct3 [2:0] $end
$var wire 32 T" i_in_a [31:0] $end
$var wire 5 U" i_in_b [4:0] $end
$var wire 1 %" i_op_alt $end
$var wire 1 } i_shift_en $end
$var wire 32 V" o_result [31:0] $end
$var wire 1 W" op_shift $end
$var wire 1 X" op_sll $end
$var wire 1 Y" op_sra $end
$var wire 1 Z" op_srl $end
$var wire 32 [" shift_right [31:0] $end
$var wire 32 \" shift_left [31:0] $end
$var wire 1 !" o_busy $end
$var reg 5 ]" shift_amount [4:0] $end
$var reg 1 ^" shift_dir_left $end
$var reg 32 _" shift_result [31:0] $end
$upscope $end
$upscope $end
$scope module branch_i $end
$var wire 1 `" br_en $end
$var wire 1 a" condition $end
$var wire 1 X i_branch $end
$var wire 32 b" i_dat_a [31:0] $end
$var wire 32 c" i_dat_b [31:0] $end
$var wire 3 d" i_funct3 [2:0] $end
$var wire 1 \ i_jump $end
$var wire 1 M o_br_en $end
$var wire 1 e" lower_u $end
$var wire 1 f" lower $end
$var wire 1 g" equal $end
$var reg 1 h" condition_mux $end
$upscope $end
$scope module decoder_i $end
$var wire 1 i" alu_en $end
$var wire 1 j" alu_pc $end
$var wire 1 k" c_jal $end
$var wire 1 l" c_op_load $end
$var wire 1 m" c_op_op $end
$var wire 1 n" c_op_op_imm $end
$var wire 1 o" c_op_store $end
$var wire 1 p" format_b $end
$var wire 1 q" format_c16sp $end
$var wire 1 r" format_cb $end
$var wire 1 s" format_ci $end
$var wire 1 t" format_ciw $end
$var wire 1 u" format_cj $end
$var wire 1 v" format_cls $end
$var wire 1 w" format_clsp $end
$var wire 1 x" format_cssp $end
$var wire 1 y" format_cu $end
$var wire 1 z" format_i $end
$var wire 1 {" format_j $end
$var wire 1 |" format_r $end
$var wire 1 }" format_s $end
$var wire 1 ~" format_u $end
$var wire 1 !# funct3_001 $end
$var wire 1 "# funct3_010 $end
$var wire 1 ## funct3_100 $end
$var wire 1 $# funct3_101 $end
$var wire 1 %# funct3_110 $end
$var wire 1 &# funct3_111 $end
$var wire 1 '# funct3_normal $end
$var wire 1 (# funct7_5 $end
$var wire 1 )# funct7_normal $end
$var wire 1 *# hz_rs2 $end
$var wire 1 +# ma_rd $end
$var wire 1 ,# ma_wr $end
$var wire 1 Q o_alu_en $end
$var wire 1 P o_alu_imm $end
$var wire 1 N o_alu_pc $end
$var wire 1 L o_branch $end
$var wire 3 -# o_funct3 [2:0] $end
$var wire 7 .# o_funct7 [6:0] $end
$var wire 1 D o_hz_rs1 $end
$var wire 1 C o_hz_rs2 $end
$var wire 32 /# o_immediate [31:0] $end
$var wire 1 = o_jump $end
$var wire 1 J o_ma_rd $end
$var wire 1 I o_ma_wr $end
$var wire 5 0# o_rd [4:0] $end
$var wire 1 2 o_system $end
$var wire 1 1 o_wb_en $end
$var wire 2 1# o_wb_mux [1:0] $end
$var wire 1 2# op_auipc $end
$var wire 1 3# op_branch $end
$var wire 1 4# op_caddi $end
$var wire 1 5# op_caddi16sp $end
$var wire 1 6# op_caddi4spn $end
$var wire 1 7# op_calu $end
$var wire 1 8# op_cand $end
$var wire 1 9# op_candi $end
$var wire 1 :# op_caryth $end
$var wire 1 ;# op_cbeqz $end
$var wire 1 <# op_cbnez $end
$var wire 1 =# op_cj $end
$var wire 1 ># op_cjal $end
$var wire 1 ?# op_cjr_mv_add $end
$var wire 1 @# op_cli $end
$var wire 1 A# op_clui $end
$var wire 1 B# op_clui_a16sp $end
$var wire 1 C# op_clw $end
$var wire 1 D# op_clwsp $end
$var wire 1 E# op_cor $end
$var wire 1 F# op_cslli $end
$var wire 1 G# op_csrai $end
$var wire 1 H# op_csrli $end
$var wire 1 I# op_csub $end
$var wire 1 J# op_csw $end
$var wire 1 K# op_cswsp $end
$var wire 1 L# op_cxor $end
$var wire 1 M# op_jal $end
$var wire 1 N# op_jalr $end
$var wire 1 O# op_jump $end
$var wire 1 P# op_load $end
$var wire 1 Q# op_lui $end
$var wire 1 R# op_op $end
$var wire 1 S# op_op_imm $end
$var wire 1 T# op_store $end
$var wire 1 U# op_system $end
$var wire 1 V# opcode_valid $end
$var wire 1 W# rd_normal $end
$var wire 1 X# rd_rs1l $end
$var wire 1 Y# rd_rs1s $end
$var wire 1 Z# rd_rs2s $end
$var wire 5 [# rs1 [4:0] $end
$var wire 1 \# rs1_normal $end
$var wire 1 ]# rs1_rs1l $end
$var wire 1 ^# rs1_rs1s $end
$var wire 1 _# rs1_sp $end
$var wire 1 `# rs2_normal $end
$var wire 1 a# rs2_rs2s $end
$var wire 1 b# wb_en $end
$var wire 2 c# wb_mux [1:0] $end
$var wire 5 d# rs2cs [4:0] $end
$var wire 5 e# rs2cl [4:0] $end
$var wire 5 f# rs2 [4:0] $end
$var wire 5 g# rs1cs [4:0] $end
$var wire 5 h# rs1cl [4:0] $end
$var wire 5 i# rd [4:0] $end
$var wire 1 j# quad3 $end
$var wire 1 k# quad2 $end
$var wire 1 l# quad1 $end
$var wire 1 m# quad0 $end
$var wire 5 n# opcode [4:0] $end
$var wire 5 o# o_rs2 [4:0] $end
$var wire 5 p# o_rs1 [4:0] $end
$var wire 32 q# immediate_u [31:0] $end
$var wire 32 r# immediate_s [31:0] $end
$var wire 32 s# immediate_j [31:0] $end
$var wire 32 t# immediate_i [31:0] $end
$var wire 32 u# immediate_cu [31:0] $end
$var wire 32 v# immediate_cssp [31:0] $end
$var wire 32 w# immediate_clsp [31:0] $end
$var wire 32 x# immediate_cls [31:0] $end
$var wire 32 y# immediate_cj [31:0] $end
$var wire 32 z# immediate_ciw [31:0] $end
$var wire 32 {# immediate_ci [31:0] $end
$var wire 32 |# immediate_cb [31:0] $end
$var wire 32 }# immediate_c16sp [31:0] $end
$var wire 32 ~# immediate_b [31:0] $end
$var wire 32 !$ i_opcode_in [31:0] $end
$var wire 1 "$ hz_rs1 $end
$var wire 7 #$ funct7 [6:0] $end
$var wire 3 $$ funct3 [2:0] $end
$var wire 2 %$ funct2l [1:0] $end
$var wire 2 &$ funct2h [1:0] $end
$var wire 3 '$ copcode [2:0] $end
$var wire 1 ($ alu_imm $end
$var reg 3 )$ funct3_mux [2:0] $end
$var reg 7 *$ funct7_mux [6:0] $end
$var reg 32 +$ immediate_mux [31:0] $end
$var reg 5 ,$ rd_mux [4:0] $end
$var reg 5 -$ rs1_mux [4:0] $end
$var reg 5 .$ rs2_mux [4:0] $end
$upscope $end
$scope module fetch_i $end
$var wire 32 /$ data_t0 [31:0] $end
$var wire 32 0$ i_br_addr [31:0] $end
$var wire 1 M i_br_en $end
$var wire 1 # i_clk $end
$var wire 1 ! i_clk_ce $end
$var wire 32 1$ i_data_in [31:0] $end
$var wire 1 & i_rst $end
$var wire 32 2$ o_id_ir [31:0] $end
$var wire 32 3$ o_id_pc [31:0] $end
$var wire 32 4$ o_id_ret [31:0] $end
$var wire 32 5$ o_if_pc [31:0] $end
$var wire 1 6$ pc_next_c $end
$var wire 32 7$ pc_t0 [31:0] $end
$var wire 1 8$ t2_en $end
$var wire 1 9$ valid_o_t1 $end
$var wire 1 :$ valid_out $end
$var wire 1 ;$ valid_o_t2 $end
$var wire 32 <$ ret_out [31:0] $end
$var wire 32 =$ pc_out [31:0] $end
$var wire 32 >$ pc_next [31:0] $end
$var wire 32 ?$ pc_mux [31:0] $end
$var wire 1 F o_hz_br $end
$var wire 1 E i_hz_data $end
$var wire 1 @$ data_t0_cl $end
$var wire 1 A$ data_t0_ch $end
$var wire 32 B$ data_out [31:0] $end
$var wire 32 C$ data_o_t2 [31:0] $end
$var wire 32 D$ data_o_t1 [31:0] $end
$var wire 1 E$ c_data_t1_1 $end
$var reg 32 F$ data_t1 [31:0] $end
$var reg 32 G$ data_t2 [31:0] $end
$var reg 32 H$ if_pc [31:0] $end
$var reg 32 I$ pc_t1 [31:0] $end
$var reg 32 J$ pc_t2 [31:0] $end
$var reg 32 K$ ret_t1 [31:0] $end
$var reg 32 L$ ret_t2 [31:0] $end
$var reg 1 M$ t2_mode $end
$var reg 1 N$ valid_t1 $end
$var reg 1 ;$ valid_t2 $end
$upscope $end
$scope module hazard_i $end
$var wire 1 O$ hz_dat_rs1 $end
$var wire 1 P$ hz_dat_rs2 $end
$var wire 1 Q$ hz_data $end
$var wire 32 R$ i_ex_ret [31:0] $end
$var wire 1 e i_ex_wb_en $end
$var wire 2 S$ i_ex_wb_mux [1:0] $end
$var wire 5 T$ i_ex_wb_reg [4:0] $end
$var wire 1 D i_hz_rs1 $end
$var wire 1 C i_hz_rs2 $end
$var wire 32 U$ i_ma_res [31:0] $end
$var wire 32 V$ i_ma_ret [31:0] $end
$var wire 1 l i_ma_wb_en $end
$var wire 2 W$ i_ma_wb_mux [1:0] $end
$var wire 5 X$ i_ma_wb_reg [4:0] $end
$var wire 5 Y$ i_rs1 [4:0] $end
$var wire 5 Z$ i_rs2 [4:0] $end
$var wire 32 [$ i_wb_wb_d [31:0] $end
$var wire 1 r i_wb_wb_en $end
$var wire 5 \$ i_wb_wb_reg [4:0] $end
$var wire 1 E o_hz_data $end
$var wire 32 ]$ o_rs1_d [31:0] $end
$var wire 32 ^$ o_rs2_d [31:0] $end
$var wire 32 _$ rs1_d [31:0] $end
$var wire 32 `$ rs2_d [31:0] $end
$var wire 32 a$ i_rs2_raw_d [31:0] $end
$var wire 32 b$ i_rs1_raw_d [31:0] $end
$var wire 32 c$ i_ma_rd_dat [31:0] $end
$upscope $end
$scope module memory_i $end
$var wire 32 d$ data_rd_short [31:0] $end
$var wire 32 e$ data_rd_signed [31:0] $end
$var wire 32 f$ i_data_rd [31:0] $end
$var wire 32 g$ i_data_wr [31:0] $end
$var wire 2 h$ i_length [1:0] $end
$var wire 2 i$ i_shift [1:0] $end
$var wire 1 j$ i_signed_rd $end
$var wire 32 k$ o_data_rd [31:0] $end
$var wire 32 l$ o_data_wr [31:0] $end
$var wire 32 m$ sign_extension [31:0] $end
$var wire 1 n$ sign_bit $end
$var wire 4 o$ o_we [3:0] $end
$var reg 32 p$ data_rd_shift [31:0] $end
$var reg 32 q$ data_wr_shift [31:0] $end
$var reg 32 r$ length_mask [31:0] $end
$var reg 4 s$ we_lenght [3:0] $end
$var reg 4 t$ we_shifted [3:0] $end
$upscope $end
$scope module regs_i $end
$var wire 5 u$ i_addr_rd_a [4:0] $end
$var wire 5 v$ i_addr_rd_b [4:0] $end
$var wire 5 w$ i_addr_wr [4:0] $end
$var wire 1 ! i_ce $end
$var wire 1 K i_clk $end
$var wire 32 x$ i_dat_wr [31:0] $end
$var wire 1 r i_we $end
$var wire 32 y$ o_dat_rd_a [31:0] $end
$var wire 32 z$ o_dat_rd_b [31:0] $end
$var reg 32 {$ dat_rd_a_reg [31:0] $end
$var reg 32 |$ dat_rd_b_reg [31:0] $end
$scope begin $ivl_for_loop0 $end
$var integer 32 }$ i [31:0] $end
$upscope $end
$upscope $end
$upscope $end
$upscope $end
$enddefinitions $end
#0
$dumpvars
b100000 }$
b0 |$
bx {$
b0 z$
bx y$
bx x$
bx w$
b0 v$
b0x0 u$
bx t$
bx s$
bx r$
bx q$
b0 p$
bx o$
0n$
b0 m$
bx l$
b0 k$
xj$
bx i$
bx h$
bx g$
b0 f$
b0 e$
b0 d$
b0 c$
bx b$
b0 a$
b0 `$
bx _$
b0 ^$
bx ]$
bx \$
bx [$
b0 Z$
b0x0 Y$
bx X$
bx W$
bx V$
bx U$
bx T$
bx S$
bx R$
xQ$
0P$
xO$
xN$
xM$
bx L$
bx K$
bx J$
bx I$
bx H$
bx G$
bx F$
xE$
bx D$
bx C$
bx B$
xA$
x@$
bx ?$
bx >$
bx =$
bx <$
x;$
x:$
x9$
x8$
bx 7$
x6$
bx 5$
bx 4$
bx 3$
bx 2$
bx 1$
bx 0$
bx /$
b0 .$
b0x0 -$
b0x ,$
b0 +$
bx *$
bx )$
x($
bx '$
bx &$
bx %$
bx $$
bx #$
x"$
bx !$
bx0 ~#
bx0000 }#
bx0 |#
bx {#
b0xxxxxxxx00 z#
bx0 y#
bx00 x#
b0xxxxxx00 w#
b0xxxxxx00 v#
bx000000000000 u#
bx t#
bx0 s#
bx r#
bx000000000000 q#
b0x0 p#
b0 o#
bx n#
xm#
xl#
xk#
xj#
bx i#
bx h#
b1xxx g#
bx f#
bx e#
b1xxx d#
bx c#
xb#
xa#
x`#
x_#
x^#
x]#
x\#
bx [#
xZ#
xY#
xX#
xW#
xV#
xU#
xT#
xS#
xR#
xQ#
xP#
xO#
xN#
xM#
xL#
xK#
xJ#
xI#
xH#
xG#
xF#
xE#
xD#
xC#
xB#
xA#
x@#
x?#
x>#
x=#
x<#
x;#
x:#
x9#
x8#
x7#
x6#
x5#
x4#
x3#
x2#
bx 1#
b0x 0#
b0 /#
bx .#
bx -#
x,#
x+#
x*#
x)#
x(#
x'#
x&#
x%#
x$#
x##
x"#
x!#
x~"
x}"
x|"
x{"
xz"
xy"
xx"
xw"
xv"
xu"
xt"
xs"
xr"
xq"
xp"
xo"
xn"
xm"
xl"
xk"
xj"
xi"
xh"
xg"
xf"
xe"
bx d"
bx c"
bx b"
xa"
x`"
b0 _"
0^"
b0 ]"
b0 \"
b0 ["
xZ"
xY"
xX"
xW"
b0 V"
bx U"
bx T"
bx S"
b0 R"
b0 Q"
b0 P"
b0 O"
b100000 N"
b0 M"
b0 L"
bx K"
bx J"
b0 I"
0H"
1G"
b0 F"
b0 E"
xD"
b0 C"
b0 B"
bx A"
bx @"
bx ?"
bx >"
b0 ="
x<"
0;"
b0 :"
b0 9"
x8"
x7"
x6"
x5"
x4"
bx 3"
bx 2"
bx 1"
x0"
x/"
x."
x-"
x,"
bx +"
bx *"
bx )"
b0x ("
b0x '"
x&"
x%"
0$"
b0 #"
bx ""
0!"
b0 ~
x}
x|
x{
bx z
bx y
bx x
bx w
bx v
bx u
bx t
bx s
xr
bx q
bx p
xo
bx n
bx m
xl
bx k
bx j
bx i
bx h
bx g
bx f
xe
xd
bx c
bx b
bx a
bx `
bx _
x^
x]
x\
bx [
bx Z
bx Y
xX
xW
xV
xU
bx T
bx S
0R
xQ
xP
bx O
xN
xM
xL
1K
xJ
xI
bx H
bx G
xF
xE
xD
xC
bx B
bx A
bx @
bx ?
b0 >
x=
b0 <
bx ;
bx :
b0x 9
b0x0 8
bx 7
bx 6
b0 5
b0 4
b0 3
x2
x1
bx 0
bx /
x.
bx -
bx ,
bx +
bx *
x)
1(
1'
1&
b0 %
bx $
0#
bx "
1!
$end
#1
11
1b#
1V#
0s"
0X#
0Q
0i"
0E
0Q$
0^#
0Y#
0n"
0O$
0z"
0C
0*#
0]#
0J
0+#
0I
0,#
1D
1"$
0$#
0(#
0&#
1Z#
0v"
0a#
0"#
0k"
b1000 9
b1000 0#
b1000 ,$
0u"
0r"
0!#
b10 8
b10 p#
b10 -$
b10 Y$
b10 u$
b0 0
b0 1#
b0 c#
0l"
0o"
1P
1($
0m"
0~"
0N
0j"
0=
0O#
0I#
0##
0L#
0%#
0E#
08#
0H#
0G#
09#
0:#
0q"
05#
0y"
0A#
1t"
1_#
16#
0C#
0J#
04#
0>#
0@#
0B#
07#
0=#
0;#
0<#
0F#
0w"
0D#
0?#
0x"
0K#
b0 H
b0 -#
b0 )$
0P#
0S#
02#
0}"
0T#
0|"
0R#
0Q#
0p"
0L
03#
0N#
0{"
0M#
02
0U#
b0 w#
b0 v#
b0 |#
b0 y#
b0 x#
b0 }#
b0 u#
b0 {#
b0 z#
0k#
0l#
1m#
0)#
0'#
0W#
0`#
0\#
0j#
b0 %$
b0 &$
b0 e#
b0 h#
b1000 d#
b1000 g#
b0 '$
b0 $$
b0 i#
b0 n#
0D"
b0 "
b0 O
b0 ""
b0 0$
b0 G
b0 .#
b0 *$
b0 [#
0/"
07"
b0 A"
b0 J"
b0 +"
b0 K"
08"
b1 ;
b1 o$
b1 t$
b0 t#
b0 r#
b0 ~#
b0 s#
b0 q#
b0 #$
b0 f#
08$
0W"
0,"
06"
0."
b0 )"
b0 *"
b0 U"
b0 >"
b0 ?"
1a"
b0 z
b0 y
b0 x
b0 @"
b1 s$
b11111111 r$
b0 B
b0 !$
b0 2$
b0 B$
b0 @
b0 4$
b0 <$
b0 A
b0 3$
b0 =$
1F
0:$
09$
b0 C$
1E$
b0 D$
0}
04"
0{
0M
0`"
0Y"
0Z"
0|
05"
0-"
00"
0X"
b0 ("
b0 '"
b0 S
b0 w
b0 3"
1h"
b0 T
b0 v
b0 2"
b0 T"
b0 /
b0 *
b0 h$
1j$
b0 i$
b0 p
b0 -
b0 :
b0 l$
b0 q$
b0 ,
b0 ?
b0 5$
b0 7$
b0 H$
0M$
b0 L$
b0 K$
b0 J$
b0 I$
0;$
0N$
b0 G$
b0 F$
0d
0e
b0 f
b0 S$
b0 g
b0 T$
0]
0^
0U
0V
0W
0\
0X
b0 a
0%"
0&"
b0 Z
b0 u
0<"
b0 Y
b0 t
b0 1"
b0 S"
b0 d"
b0 `
b0 R$
b0 _
b0 [
1g"
0f"
0e"
b0 c
b0 c"
b0 b
b0 b"
0l
b0 m
b0 W$
b0 n
b0 X$
0.
0)
0o
b0 h
b0 j
b0 V$
b0 +
b0 i
b0 U$
b0 k
b0 g$
0r
b0 s
b0 \$
b0 w$
b0 q
b0 [$
b0 x$
0K
1#
#2
b100 ?$
b100 >$
06$
0@$
1A$
b0 7
b0 ]$
b0 _$
b0 6
b0 b$
b0 y$
b0 {$
b10000000000000001101111 /$
b10000000000000001101111 $
b10000000000000001101111 1$
1K
0#
#3
0K
1#
#4
1K
0#
#5
0K
1#
#6
1K
0#
#7
0K
1#
#8
1K
0#
#9
0K
1#
#10
1K
0#
0&
#11
b10 0
b10 1#
b10 c#
1k"
1N
1j"
0Z#
1=
1O#
0D
0"$
b100 >
b100 /#
b100 +$
0t"
0_#
06#
b0 8
b0 p#
b0 -$
b0 Y$
b0 u$
b0 9
b0 0#
b0 ,$
b100 5
b100 o#
b100 .$
b100 Z$
b100 v$
1{"
1M#
b11011000 w#
b11100010 |#
b10101010 y#
b11111111111111111111111111000100 x#
b11110000 }#
b11011000000000000 u#
b11011 {#
b1100 z#
b100 t#
b100 s#
b10000000000000000000000 q#
0m#
1)#
1'#
1W#
1`#
1\#
1j#
b11 %$
b11011 e#
b1011 d#
b100 f#
b11011 n#
0F
1:$
b10000000000000001101111 B
b10000000000000001101111 !$
b10000000000000001101111 2$
b10000000000000001101111 B$
b100 @
b100 4$
b100 <$
19$
b10000000000000001101111 D$
b1000 ?$
b100 K$
1N$
b10000000000000001101111 F$
b100 ,
b100 ?
b100 5$
b1000 >$
b100 7$
b100 H$
0K
1#
#12
b10010011 /$
b10010011 $
b10010011 1$
1K
0#
#13
11
1b#
1V#
1z"
1Q
1i"
b0 0
b0 1#
b0 c#
1n"
0k"
0N
0j"
0=
0O#
1D
1"$
b0 >
b0 /#
b0 +$
b1 9
b1 0#
b1 ,$
b0 5
b0 o#
b0 .$
b0 Z$
b0 v$
1S#
0{"
0M#
b100 "
b100 O
b100 ""
b100 0$
b100 w#
b1000000 v#
b100 |#
b1000100 y#
b0 x#
b100000000 }#
b100000000000000 u#
b100 {#
b1000000 z#
b0 t#
b1 r#
b100000000000 ~#
b0 s#
b0 q#
b0 %$
b100 e#
b1 h#
b1100 d#
b1001 g#
b1 i#
b0 f#
b100 n#
b100 +"
b10010011 B
b10010011 !$
b10010011 2$
b10010011 B$
b100 z
b100 y
b100 )"
b100 *"
b100 U"
b11111111111111111111111111111100 >"
b100 J"
b100 ?"
b100 ?$
b1000 @
b1000 4$
b1000 <$
b100 A
b100 3$
b100 =$
b10000000000000001101111 C$
b10010011 D$
b1 ("
b1 '"
b100 S
b100 w
b100 3"
1M
1`"
b1000 ,
b1000 ?
b1000 5$
b1100 >$
b1000 7$
b1000 H$
b100 L$
b1000 K$
b100 I$
1;$
b10000000000000001101111 G$
b10010011 F$
1e
b10 f
b10 S$
1V
1W
1\
b100 `
b100 R$
b100 [
0K
1#
#14
b100010011 /$
b100010011 $
b100010011 1$
1K
0#
#15
11
1b#
1V#
0z"
0Q
0i"
0n"
b10 8
b10 p#
b10 -$
b10 Y$
b10 u$
1Z#
b0 "
b0 O
b0 ""
b0 0$
1t"
1_#
16#
b1000 9
b1000 0#
b1000 ,$
0S#
b0 +"
b0 w#
b0 v#
b0 |#
b0 y#
b0 }#
b0 u#
b0 {#
b0 z#
b0 r#
b0 ~#
1m#
0)#
0'#
0W#
0`#
0\#
0j#
b0 e#
b0 h#
b1000 d#
b1000 g#
b0 i#
b0 n#
b1000 ?$
b0 z
b0 y
b0 )"
b0 *"
b0 U"
b0 >"
b0 J"
b0 ?"
1F
0:$
b0 B
b0 !$
b0 2$
b0 B$
b100 p
0M
0`"
b0 ("
b0 '"
b0 S
b0 w
b0 3"
09$
b1100 @
b1100 4$
b1100 <$
b1000 A
b1000 3$
b1000 =$
b0 C$
b0 D$
1l
b10 m
b10 W$
b100 j
b100 V$
b100 +
b100 i
b100 U$
0e
b0 f
b0 S$
0V
0W
0\
b0 `
b0 R$
b0 [
0;$
0N$
b1000 L$
b1100 K$
b100 J$
b1000 I$
b0 G$
b0 F$
b100 ,
b100 ?
b100 5$
b1000 >$
b100 7$
b100 H$
0K
1#
#16
b10010011 /$
b10010011 $
b10010011 1$
1K
0#
#17
1z"
1Q
1i"
1n"
0Z#
0t"
0_#
06#
b0 8
b0 p#
b0 -$
b0 Y$
b0 u$
b1 9
b1 0#
b1 ,$
1S#
b100 w#
b1000000 v#
b100 |#
b1000100 y#
b100000000 }#
b100000000000000 u#
b100 {#
b1000000 z#
b1 r#
b100000000000 ~#
0m#
1)#
1'#
1W#
1`#
1\#
1j#
b100 e#
b1 h#
b1100 d#
b1001 g#
b1 i#
b100 n#
0F
1:$
b10010011 B
b10010011 !$
b10010011 2$
b10010011 B$
b1100 ?$
b1000 @
b1000 4$
b1000 <$
b100 A
b100 3$
b100 =$
19$
b10010011 D$
b0 p
b1000 ,
b1000 ?
b1000 5$
b1100 >$
b1000 7$
b1000 H$
b1100 L$
b1000 K$
b1000 J$
b100 I$
1N$
b10010011 F$
0l
b0 m
b0 W$
b0 j
b0 V$
b0 +
b0 i
b0 U$
1r
b100 q
b100 [$
b100 x$
0K
1#
#18
b100010011 /$
b100010011 $
b100010011 1$
1K
0#
#19
b10 9
b10 0#
b10 ,$
b10000000 v#
b10000000100 y#
b10000000 z#
b10 r#
b10 ~#
b10 h#
b1010 g#
b10 i#
b100010011 B
b100010011 !$
b100010011 2$
b100010011 B$
1}
b1100 @
b1100 4$
b1100 <$
b1000 A
b1000 3$
b1000 =$
b10010011 C$
b100010011 D$
b10000 ?$
0r
b0 q
b0 [$
b0 x$
1e
b1 g
b1 T$
1U
1V
b1000 `
b1000 R$
b100 _
b1000 L$
b1100 K$
b100 J$
b1000 I$
1;$
b10010011 G$
b100010011 F$
b1100 ,
b1100 ?
b1100 5$
b10000 >$
b1100 7$
b1100 H$
0K
1#
#20
b110010011 /$
b110010011 $
b110010011 1$
1K
0#
