hdl/tb/cpu_log.vcd
$date
	Sun Sep  4 19:06:01 2022
$end
$version
	Icarus Verilog
$end
$timescale
	1s
$end
$scope module cpu_tb $end
$scope module DUT $end
$var wire 1 ! clk_ce $end
$var wire 32 " ex_res_dat [31:0] $end
$var wire 1 # i_clk $end
$var wire 32 $ i_data_in_i [31:0] $end
$var wire 32 % i_data_rd_d [31:0] $end
$var wire 1 & i_rst $end
$var wire 1 ' i_valid_d $end
$var wire 1 ( i_valid_i $end
$var wire 1 ) ma_rd_en $end
$var wire 4 * ma_wr_en [3:0] $end
$var wire 32 + o_addr_d [31:0] $end
$var wire 32 , o_addr_i [31:0] $end
$var wire 32 - o_data_wr_d [31:0] $end
$var wire 1 . o_rd_d $end
$var wire 4 / o_wr_d [3:0] $end
$var wire 2 0 wb_mux [1:0] $end
$var wire 1 1 wb_en $end
$var wire 32 2 wb_dat_mux [31:0] $end
$var wire 1 3 system $end
$var wire 32 4 rs2_raw_d [31:0] $end
$var wire 32 5 rs2_d [31:0] $end
$var wire 5 6 rs2 [4:0] $end
$var wire 32 7 rs1_raw_d [31:0] $end
$var wire 32 8 rs1_d [31:0] $end
$var wire 5 9 rs1 [4:0] $end
$var wire 5 : rd [4:0] $end
$var wire 5 ; opcode [4:0] $end
$var wire 32 < ma_wr_dat [31:0] $end
$var wire 4 = ma_we [3:0] $end
$var wire 32 > ma_rd_dat [31:0] $end
$var wire 32 ? immediate [31:0] $end
$var wire 32 @ if_pc [31:0] $end
$var wire 32 A id_ret [31:0] $end
$var wire 32 B id_pc [31:0] $end
$var wire 32 C id_ir [31:0] $end
$var wire 1 D hz_rs2 $end
$var wire 1 E hz_rs1 $end
$var wire 1 F hz_data $end
$var wire 1 G hz_br $end
$var wire 7 H funct7 [6:0] $end
$var wire 3 I funct3 [2:0] $end
$var wire 1 J d_wr $end
$var wire 1 K d_rd $end
$var wire 1 L clk_n $end
$var wire 1 M br_en $end
$var wire 1 N alu_pc $end
$var wire 32 O alu_out [31:0] $end
$var wire 1 P alu_imm $end
$var wire 1 Q alu_en $end
$var wire 1 R alu_busy $end
$var wire 32 S alu_b_mux [31:0] $end
$var wire 32 T alu_a_mux [31:0] $end
$var reg 1 U ex_alu_en $end
$var reg 1 V ex_alu_imm $end
$var reg 1 W ex_alu_pc $end
$var reg 3 X ex_funct3 [2:0] $end
$var reg 7 Y ex_funct7 [6:0] $end
$var reg 32 Z ex_imm [31:0] $end
$var reg 1 [ ex_ma_rd $end
$var reg 1 \ ex_ma_wr $end
$var reg 5 ] ex_opcode [4:0] $end
$var reg 32 ^ ex_pc [31:0] $end
$var reg 32 _ ex_ret [31:0] $end
$var reg 5 ` ex_rs1 [4:0] $end
$var reg 32 a ex_rs1_d [31:0] $end
$var reg 32 b ex_rs2_d [31:0] $end
$var reg 1 c ex_system $end
$var reg 1 d ex_wb_en $end
$var reg 2 e ex_wb_mux [1:0] $end
$var reg 5 f ex_wb_reg [4:0] $end
$var reg 3 g ma_funct3 [2:0] $end
$var reg 1 ) ma_rd $end
$var reg 32 h ma_res [31:0] $end
$var reg 32 i ma_ret [31:0] $end
$var reg 32 j ma_rs2_d [31:0] $end
$var reg 1 k ma_wb_en $end
$var reg 2 l ma_wb_mux [1:0] $end
$var reg 5 m ma_wb_reg [4:0] $end
$var reg 1 n ma_wr $end
$var reg 32 o wb_wb_d [31:0] $end
$var reg 1 p wb_wb_en $end
$var reg 5 q wb_wb_reg [4:0] $end
$scope module alu_i $end
$var wire 1 U i_alu_en $end
$var wire 1 V i_alu_imm $end
$var wire 1 L i_clk_n $end
$var wire 3 r i_funct3 [2:0] $end
$var wire 7 s i_funct7 [6:0] $end
$var wire 32 t i_in_a [31:0] $end
$var wire 32 u i_in_b [31:0] $end
$var wire 1 & i_rst $end
$var wire 32 v logic_and [31:0] $end
$var wire 32 w logic_or [31:0] $end
$var wire 32 x logic_xor [31:0] $end
$var wire 32 y o_alu_out [31:0] $end
$var wire 1 R o_busy $end
$var wire 1 z op_subtract $end
$var wire 1 { shift_en $end
$var wire 32 | shift_result [31:0] $end
$var wire 1 } shift_busy $end
$var wire 1 ~ funct7_5 $end
$var wire 32 !" comp_u [31:0] $end
$var wire 32 "" comp [31:0] $end
$var wire 32 #" adder_out [31:0] $end
$var wire 32 $" adder_in_b [31:0] $end
$var reg 32 %" mux [31:0] $end
$scope module shifter_i $end
$var wire 1 L i_clk_n $end
$var wire 3 &" i_funct3 [2:0] $end
$var wire 32 '" i_in_a [31:0] $end
$var wire 5 (" i_in_b [4:0] $end
$var wire 1 ~ i_op_alt $end
$var wire 1 { i_shift_en $end
$var wire 32 )" o_result [31:0] $end
$var wire 1 *" op_shift $end
$var wire 1 +" op_sll $end
$var wire 1 ," op_sra $end
$var wire 1 -" op_srl $end
$var wire 32 ." shift_right [31:0] $end
$var wire 32 /" shift_left [31:0] $end
$var wire 1 } o_busy $end
$var reg 5 0" shift_amount [4:0] $end
$var reg 1 1" shift_dir_left $end
$var reg 32 2" shift_result [31:0] $end
$upscope $end
$upscope $end
$scope module branch_i $end
$var wire 1 3" br_en $end
$var wire 1 4" condition $end
$var wire 32 5" i_dat_a [31:0] $end
$var wire 32 6" i_dat_b [31:0] $end
$var wire 3 7" i_funct3 [2:0] $end
$var wire 5 8" i_opcode [4:0] $end
$var wire 1 M o_br_en $end
$var wire 1 9" op_jump $end
$var wire 1 :" op_branch $end
$var wire 1 ;" lower_u $end
$var wire 1 <" lower $end
$var wire 1 =" equal $end
$var reg 1 >" condition_mux $end
$upscope $end
$scope module decoder_i $end
$var wire 1 ?" alu_en $end
$var wire 1 @" alu_pc $end
$var wire 1 A" format_b $end
$var wire 1 B" format_i $end
$var wire 1 C" format_j $end
$var wire 1 D" format_r $end
$var wire 1 E" format_s $end
$var wire 1 F" format_u $end
$var wire 1 G" hz_rs2 $end
$var wire 1 H" ma_rd $end
$var wire 1 I" ma_wr $end
$var wire 1 Q o_alu_en $end
$var wire 1 P o_alu_imm $end
$var wire 1 N o_alu_pc $end
$var wire 3 J" o_funct3 [2:0] $end
$var wire 7 K" o_funct7 [6:0] $end
$var wire 1 E o_hz_rs1 $end
$var wire 1 D o_hz_rs2 $end
$var wire 32 L" o_immediate [31:0] $end
$var wire 1 K o_ma_rd $end
$var wire 1 J o_ma_wr $end
$var wire 5 M" o_opcode [4:0] $end
$var wire 5 N" o_rd [4:0] $end
$var wire 5 O" o_rs1 [4:0] $end
$var wire 5 P" o_rs2 [4:0] $end
$var wire 1 3 o_system $end
$var wire 1 1 o_wb_en $end
$var wire 2 Q" o_wb_mux [1:0] $end
$var wire 32 R" opcode_in [31:0] $end
$var wire 1 S" opcode_valid $end
$var wire 5 T" rs1 [4:0] $end
$var wire 1 U" wb_en $end
$var wire 2 V" wb_mux [1:0] $end
$var wire 5 W" rs2 [4:0] $end
$var wire 5 X" rd [4:0] $end
$var wire 5 Y" opcode [4:0] $end
$var wire 1 Z" op_system $end
$var wire 1 [" op_store $end
$var wire 1 \" op_op_imm $end
$var wire 1 ]" op_op $end
$var wire 1 ^" op_lui $end
$var wire 1 _" op_load $end
$var wire 1 `" op_jalr $end
$var wire 1 a" op_jal $end
$var wire 1 b" op_branch $end
$var wire 1 c" op_auipc $end
$var wire 32 d" immediate_u [31:0] $end
$var wire 32 e" immediate_s [31:0] $end
$var wire 32 f" immediate_mux [31:0] $end
$var wire 32 g" immediate_j [31:0] $end
$var wire 32 h" immediate_i [31:0] $end
$var wire 32 i" immediate_b [31:0] $end
$var wire 32 j" i_opcode_in [31:0] $end
$var wire 1 k" hz_rs1 $end
$var wire 7 l" funct7 [6:0] $end
$var wire 3 m" funct3 [2:0] $end
$var wire 1 n" alu_imm $end
$upscope $end
$scope module fetch_i $end
$var wire 32 o" i_br_addr [31:0] $end
$var wire 1 M i_br_en $end
$var wire 1 # i_clk $end
$var wire 1 ! i_clk_ce $end
$var wire 32 p" i_data_in [31:0] $end
$var wire 1 & i_rst $end
$var wire 1 G o_hz_br $end
$var wire 32 q" o_id_ir [31:0] $end
$var wire 32 r" o_id_pc [31:0] $end
$var wire 32 s" o_id_ret [31:0] $end
$var wire 32 t" o_if_pc [31:0] $end
$var wire 32 u" pc_next [31:0] $end
$var wire 32 v" pc_mux [31:0] $end
$var wire 1 F i_hz_data $end
$var reg 1 w" hz_br $end
$var reg 32 x" id_ir [31:0] $end
$var reg 32 y" id_pc [31:0] $end
$var reg 32 z" id_ret [31:0] $end
$var reg 32 {" if_pc [31:0] $end
$upscope $end
$scope module hazard_i $end
$var wire 1 |" hz_dat_rs1 $end
$var wire 1 }" hz_dat_rs2 $end
$var wire 1 ~" hz_data $end
$var wire 32 !# i_ex_res_dat [31:0] $end
$var wire 32 "# i_ex_ret [31:0] $end
$var wire 1 d i_ex_wb_en $end
$var wire 2 ## i_ex_wb_mux [1:0] $end
$var wire 5 $# i_ex_wb_reg [4:0] $end
$var wire 1 E i_hz_rs1 $end
$var wire 1 D i_hz_rs2 $end
$var wire 32 %# i_ma_res [31:0] $end
$var wire 32 &# i_ma_ret [31:0] $end
$var wire 1 k i_ma_wb_en $end
$var wire 2 '# i_ma_wb_mux [1:0] $end
$var wire 5 (# i_ma_wb_reg [4:0] $end
$var wire 5 )# i_rs1 [4:0] $end
$var wire 5 *# i_rs2 [4:0] $end
$var wire 32 +# i_wb_wb_d [31:0] $end
$var wire 1 p i_wb_wb_en $end
$var wire 5 ,# i_wb_wb_reg [4:0] $end
$var wire 1 F o_hz_data $end
$var wire 32 -# o_rs1_d [31:0] $end
$var wire 32 .# o_rs2_d [31:0] $end
$var wire 32 /# rs1_d [31:0] $end
$var wire 32 0# rs2_d [31:0] $end
$var wire 32 1# i_rs2_raw_d [31:0] $end
$var wire 32 2# i_rs1_raw_d [31:0] $end
$var wire 32 3# i_ma_rd_dat [31:0] $end
$upscope $end
$scope module memory_i $end
$var wire 32 4# data_rd_short [31:0] $end
$var wire 32 5# data_rd_signed [31:0] $end
$var wire 32 6# i_data_rd [31:0] $end
$var wire 32 7# i_data_wr [31:0] $end
$var wire 2 8# i_length [1:0] $end
$var wire 2 9# i_shift [1:0] $end
$var wire 1 :# i_signed_rd $end
$var wire 32 ;# o_data_rd [31:0] $end
$var wire 32 <# o_data_wr [31:0] $end
$var wire 32 =# sign_extension [31:0] $end
$var wire 1 ># sign_bit $end
$var wire 4 ?# o_we [3:0] $end
$var reg 32 @# data_rd_shift [31:0] $end
$var reg 32 A# data_wr_shift [31:0] $end
$var reg 32 B# length_mask [31:0] $end
$var reg 4 C# we_lenght [3:0] $end
$var reg 4 D# we_shifted [3:0] $end
$upscope $end
$scope module regs_i $end
$var wire 5 E# i_addr_rd_a [4:0] $end
$var wire 5 F# i_addr_rd_b [4:0] $end
$var wire 5 G# i_addr_wr [4:0] $end
$var wire 1 ! i_ce $end
$var wire 1 L i_clk $end
$var wire 32 H# i_dat_wr [31:0] $end
$var wire 1 p i_we $end
$var wire 32 I# o_dat_rd_a [31:0] $end
$var wire 32 J# o_dat_rd_b [31:0] $end
$var reg 32 K# dat_rd_a_reg [31:0] $end
$var reg 32 L# dat_rd_b_reg [31:0] $end
$scope begin $ivl_for_loop0 $end
$var integer 32 M# i [31:0] $end
$upscope $end
$upscope $end
$upscope $end
$upscope $end
$enddefinitions $end
#0
$dumpvars
b100000 M#
bx L#
bx K#
bx J#
bx I#
bx H#
bx G#
bx F#
bx E#
bx D#
bx C#
bx B#
bx A#
b0 @#
bx ?#
0>#
b0 =#
bx <#
b0 ;#
x:#
bx 9#
bx 8#
bx 7#
b0 6#
b0 5#
b0 4#
b0 3#
bx 2#
bx 1#
bx 0#
bx /#
bx .#
bx -#
bx ,#
bx +#
bx *#
bx )#
bx (#
bx '#
bx &#
bx %#
bx $#
bx ##
bx "#
bx !#
x~"
x}"
x|"
bx {"
bx z"
bx y"
bx x"
xw"
bx v"
bx u"
bx t"
bx s"
bx r"
bx q"
bx p"
bx o"
xn"
bx m"
bx l"
xk"
bx j"
bx0 i"
bx h"
bx0 g"
bx f"
bx e"
bx000000000000 d"
xc"
xb"
xa"
x`"
x_"
x^"
x]"
x\"
x["
xZ"
bx Y"
bx X"
bx W"
bx V"
xU"
bx T"
xS"
bx R"
bx Q"
bx P"
bx O"
bx N"
bx M"
bx L"
bx K"
bx J"
xI"
xH"
xG"
xF"
xE"
xD"
xC"
xB"
xA"
x@"
x?"
x>"
x="
x<"
x;"
x:"
x9"
bx 8"
bx 7"
bx 6"
bx 5"
x4"
x3"
b0 2"
01"
b0 0"
b0 /"
b0 ."
x-"
x,"
x+"
x*"
b0 )"
bx ("
bx '"
bx &"
bx %"
bx $"
bx #"
b0x ""
b0x !"
x~
0}
b0 |
x{
xz
bx y
bx x
bx w
bx v
bx u
bx t
bx s
bx r
bx q
xp
bx o
xn
bx m
bx l
xk
bx j
bx i
bx h
bx g
bx f
bx e
xd
xc
bx b
bx a
bx `
bx _
bx ^
bx ]
x\
x[
bx Z
bx Y
bx X
xW
xV
xU
bx T
bx S
0R
xQ
xP
bx O
xN
xM
1L
xK
xJ
bx I
bx H
xG
xF
xE
xD
bx C
bx B
bx A
bx @
bx ?
b0 >
bx =
bx <
bx ;
bx :
bx 9
bx 8
bx 7
bx 6
bx 5
bx 4
x3
bx 2
x1
bx 0
bx /
x.
bx -
bx ,
bx +
bx *
x)
1(
1'
1&
b0 %
bx $
0#
bx "
1!
$end
#1
b0 ?
b0 L"
b0 f"
0F
0~"
1B"
0|"
1E
1k"
0}"
01
0U"
b100 v"
b0 "
b0 !#
b0 O
b0 y
b0 %"
b0 o"
b1 =
b1 ?#
b1 D#
0K
0H"
0J
0I"
0D
0G"
0Q
0?"
0F"
0N
0@"
b0 9
b0 O"
b0 )#
b0 E#
b0 T"
0S"
0*"
0M
03"
b0 #"
b0 $"
b0 ("
14"
b0 x
b0 w
b0 v
b1 C#
b11111111 B#
b1 0
b1 Q"
b1 V"
1_"
0\"
0c"
0E"
0["
1P
1n"
0D"
0]"
0^"
0A"
0b"
0`"
0C"
0a"
03
0Z"
b0 ;
b0 M"
b0 Y"
b0 6
b0 P"
b0 *#
b0 F#
b0 W"
b0 :
b0 N"
b0 X"
b0 I
b0 J"
b0 m"
b0 H
b0 K"
b0 l"
b0 d"
b0 g"
b0 i"
b0 e"
b0 h"
0,"
0-"
0z
0+"
09"
b0 ""
b0 !"
b0 S
b0 u
1>"
b0 T
b0 t
b0 '"
b0 /
b0 *
b0 8#
1:#
b0 2
b0 9#
b0 -
b0 <
b0 <#
b0 A#
0G
0w"
b100 u"
b0 ,
b0 @
b0 t"
b0 {"
b0 R"
b0 C
b0 j"
b0 q"
b0 x"
b0 B
b0 r"
b0 y"
b0 A
b0 s"
b0 z"
0c
0d
b0 e
b0 ##
b0 f
b0 $#
0[
0\
0{
0U
0V
0W
b0 `
0~
b0 Y
b0 s
b0 X
b0 r
b0 &"
b0 7"
0:"
b0 ]
b0 8"
b0 _
b0 "#
b0 ^
b0 Z
1="
0<"
0;"
b0 b
b0 6"
b0 a
b0 5"
0k
b0 l
b0 '#
b0 m
b0 (#
0.
0)
0n
b0 g
b0 i
b0 &#
b0 +
b0 h
b0 %#
b0 j
b0 7#
0p
b0 q
b0 ,#
b0 G#
b0 o
b0 +#
b0 H#
0L
1#
#2
b0 5
b0 .#
b0 0#
b0 4
b0 1#
b0 J#
b0 L#
b0 8
b0 -#
b0 /#
b0 7
b0 2#
b0 I#
b0 K#
b10000000000000001101111 $
b10000000000000001101111 p"
1L
0#
#3
0L
1#
#4
1L
0#
#5
0L
1#
#6
1L
0#
#7
0L
1#
#8
1L
0#
#9
0L
1#
#10
1L
0#
0&
#11
0B"
1N
1@"
b100 ?
b100 L"
b100 f"
11
1U"
0E
0k"
1S"
b10 0
b10 Q"
b10 V"
0_"
1C"
1a"
b11011 ;
b11011 M"
b11011 Y"
b100 6
b100 P"
b100 *#
b100 F#
b100 W"
b10000000000000000000000 d"
b100 g"
b100 h"
b1000 v"
b1 e
b1 ##
1V
b10000000000000001101111 R"
b10000000000000001101111 C
b10000000000000001101111 j"
b10000000000000001101111 q"
b10000000000000001101111 x"
b100 A
b100 s"
b100 z"
b1000 u"
b100 ,
b100 @
b100 t"
b100 {"
0L
1#
#12
b10010011 $
b10010011 p"
1L
0#
#13
11
1U"
1S"
1B"
0N
0@"
b0 ?
b0 L"
b0 f"
b100 "
b100 !#
b100 O
b100 y
b100 %"
b100 o"
1Q
1?"
1E
1k"
b0 0
b0 Q"
b0 V"
1M
13"
b100 x
b100 w
b100 #"
b100 $"
b100 ("
b100 v"
1\"
0C"
0a"
b100 ;
b100 M"
b100 Y"
b0 6
b0 P"
b0 *#
b0 F#
b0 W"
b1 :
b1 N"
b1 X"
b0 d"
b0 g"
b100000000000 i"
b1 e"
b0 h"
19"
b1 ""
b1 !"
b100 S
b100 u
b1100 u"
b1000 ,
b1000 @
b1000 t"
b1000 {"
b10010011 R"
b10010011 C
b10010011 j"
b10010011 q"
b10010011 x"
b100 B
b100 r"
b100 y"
b1000 A
b1000 s"
b1000 z"
1d
b10 e
b10 ##
1W
b11011 ]
b11011 8"
b100 _
b100 "#
b100 Z
b1 l
b1 '#
0L
1#
#14
b100010011 $
b100010011 p"
1L
0#
#15
b1000 v"
b0 "
b0 !#
b0 O
b0 y
b0 %"
b0 o"
01
0U"
0M
03"
b0 x
b0 w
b0 #"
b0 $"
b0 ("
0Q
0?"
0S"
b100 2
09"
b0 ""
b0 !"
b0 S
b0 u
b1 0
b1 Q"
b1 V"
1_"
0\"
b0 ;
b0 M"
b0 Y"
b0 :
b0 N"
b0 X"
b0 i"
b0 e"
1k
b10 l
b10 '#
b100 i
b100 &#
b100 +
b100 h
b100 %#
0d
b0 e
b0 ##
0V
0W
b0 ]
b0 8"
b0 _
b0 "#
b0 Z
b0 R"
b0 C
b0 j"
b0 q"
b0 x"
b1000 B
b1000 r"
b1000 y"
b1100 A
b1100 s"
b1100 z"
1G
1w"
b1000 u"
b100 ,
b100 @
b100 t"
b100 {"
0L
1#
#16
b10010011 $
b10010011 p"
1L
0#
#17
11
1U"
1Q
1?"
1S"
b1100 v"
b0 0
b0 Q"
b0 V"
0_"
1\"
b100 ;
b100 M"
b100 Y"
b1 :
b1 N"
b1 X"
b100000000000 i"
b1 e"
b0 2
b1100 u"
b1000 ,
b1000 @
b1000 t"
b1000 {"
0G
0w"
b10010011 R"
b10010011 C
b10010011 j"
b10010011 q"
b10010011 x"
b100 B
b100 r"
b100 y"
b1000 A
b1000 s"
b1000 z"
0k
b0 l
b0 '#
b0 i
b0 &#
b0 +
b0 h
b0 %#
1p
b100 o
b100 +#
b100 H#
0L
1#
#18
b100010011 $
b100010011 p"
1L
0#
#19
b10 :
b10 N"
b10 X"
b10 i"
b10 e"
b10000 v"
0p
b0 o
b0 +#
b0 H#
1d
b1 f
b1 $#
1{
1U
1V
b100 ]
b100 8"
b1000 _
b1000 "#
b100 ^
b100010011 R"
b100010011 C
b100010011 j"
b100010011 q"
b100010011 x"
b1000 B
b1000 r"
b1000 y"
b1100 A
b1100 s"
b1100 z"
b10000 u"
b1100 ,
b1100 @
b1100 t"
b1100 {"
0L
1#
#20
b110010011 $
b110010011 p"
1L
0#
#21
b10100 v"
b11 :
b11 N"
b11 X"
b100000000010 i"
b11 e"
b10100 u"
b10000 ,
b10000 @
b10000 t"
b10000 {"
b110010011 R"
b110010011 C
b110010011 j"
b110010011 q"
b110010011 x"
b1100 B
b1100 r"
b1100 y"
b10000 A
b10000 s"
b10000 z"
b10 f
b10 $#
b1100 _
b1100 "#
b1000 ^
1k
b1 m
b1 (#
b1000 i
b1000 &#
0L
1#
#22
b1000010011 $
b1000010011 p"
1L
0#
#23
b100 :
b100 N"
b100 X"
b100 i"
b100 e"
b11000 v"
1p
b1 q
b1 ,#
b1 G#
b10 m
b10 (#
b1100 i
b1100 &#
b11 f
b11 $#
b10000 _
b10000 "#
b1100 ^
b1000010011 R"
b1000010011 C
b1000010011 j"
b1000010011 q"
b1000010011 x"
b10000 B
b10000 r"
b10000 y"
b10100 A
b10100 s"
b10100 z"
b11000 u"
b10100 ,
b10100 @
b10100 t"
b10100 {"
0L
1#
#24
b1010010011 $
b1010010011 p"
1L
0#
#25
b11100 v"
b101 :
b101 N"
b101 X"
b100000000100 i"
b101 e"
b11100 u"
b11000 ,
b11000 @
b11000 t"
b11000 {"
b1010010011 R"
b1010010011 C
b1010010011 j"
b1010010011 q"
b1010010011 x"
b10100 B
b10100 r"
b10100 y"
b11000 A
b11000 s"
b11000 z"
b100 f
b100 $#
b10100 _
b10100 "#
b10000 ^
b11 m
b11 (#
b10000 i
b10000 &#
b10 q
b10 ,#
b10 G#
0L
1#
#26
b1100010011 $
b1100010011 p"
1L
0#
#27
b110 :
b110 N"
b110 X"
b110 i"
b110 e"
b100000 v"
b11 q
b11 ,#
b11 G#
b100 m
b100 (#
b10100 i
b10100 &#
b101 f
b101 $#
b11000 _
b11000 "#
b10100 ^
b1100010011 R"
b1100010011 C
b1100010011 j"
b1100010011 q"
b1100010011 x"
b11000 B
b11000 r"
b11000 y"
b11100 A
b11100 s"
b11100 z"
b100000 u"
b11100 ,
b11100 @
b11100 t"
b11100 {"
0L
1#
#28
b1110010011 $
b1110010011 p"
1L
0#
#29
b100100 v"
b111 :
b111 N"
b111 X"
b100000000110 i"
b111 e"
b100100 u"
b100000 ,
b100000 @
b100000 t"
b100000 {"
b1110010011 R"
b1110010011 C
b1110010011 j"
b1110010011 q"
b1110010011 x"
b11100 B
b11100 r"
b11100 y"
b100000 A
b100000 s"
b100000 z"
b110 f
b110 $#
b11100 _
b11100 "#
b11000 ^
b101 m
b101 (#
b11000 i
b11000 &#
b100 q
b100 ,#
b100 G#
0L
1#
#30
b10000010011 $
b10000010011 p"
1L
0#
#31
b1000 :
b1000 N"
b1000 X"
b1000 i"
b1000 e"
b101000 v"
b101 q
b101 ,#
b101 G#
b110 m
b110 (#
b11100 i
b11100 &#
b111 f
b111 $#
b100000 _
b100000 "#
b11100 ^
b10000010011 R"
b10000010011 C
b10000010011 j"
b10000010011 q"
b10000010011 x"
b100000 B
b100000 r"
b100000 y"
b100100 A
b100100 s"
b100100 z"
b101000 u"
b100100 ,
b100100 @
b100100 t"
b100100 {"
0L
1#
#32
b10010010011 $
b10010010011 p"
1L
0#
#33
b101100 v"
b1001 :
b1001 N"
b1001 X"
b100000001000 i"
b1001 e"
b101100 u"
b101000 ,
b101000 @
b101000 t"
b101000 {"
b10010010011 R"
b10010010011 C
b10010010011 j"
b10010010011 q"
b10010010011 x"
b100100 B
b100100 r"
b100100 y"
b101000 A
b101000 s"
b101000 z"
b1000 f
b1000 $#
b100100 _
b100100 "#
b100000 ^
b111 m
b111 (#
b100000 i
b100000 &#
b110 q
b110 ,#
b110 G#
0L
1#
#34
b10100010011 $
b10100010011 p"
1L
0#
#35
b1010 :
b1010 N"
b1010 X"
b1010 i"
b1010 e"
b110000 v"
b111 q
b111 ,#
b111 G#
b1000 m
b1000 (#
b100100 i
b100100 &#
b1001 f
b1001 $#
b101000 _
b101000 "#
b100100 ^
b10100010011 R"
b10100010011 C
b10100010011 j"
b10100010011 q"
b10100010011 x"
b101000 B
b101000 r"
b101000 y"
b101100 A
b101100 s"
b101100 z"
b110000 u"
b101100 ,
b101100 @
b101100 t"
b101100 {"
0L
1#
#36
b10110010011 $
b10110010011 p"
1L
0#
#37
b110100 v"
b1011 :
b1011 N"
b1011 X"
b100000001010 i"
b1011 e"
b110100 u"
b110000 ,
b110000 @
b110000 t"
b110000 {"
b10110010011 R"
b10110010011 C
b10110010011 j"
b10110010011 q"
b10110010011 x"
b101100 B
b101100 r"
b101100 y"
b110000 A
b110000 s"
b110000 z"
b1010 f
b1010 $#
b101100 _
b101100 "#
b101000 ^
b1001 m
b1001 (#
b101000 i
b101000 &#
b1000 q
b1000 ,#
b1000 G#
0L
1#
#38
b11000010011 $
b11000010011 p"
1L
0#
#39
b1100 :
b1100 N"
b1100 X"
b1100 i"
b1100 e"
b111000 v"
b1001 q
b1001 ,#
b1001 G#
b1010 m
b1010 (#
b101100 i
b101100 &#
b1011 f
b1011 $#
b110000 _
b110000 "#
b101100 ^
b11000010011 R"
b11000010011 C
b11000010011 j"
b11000010011 q"
b11000010011 x"
b110000 B
b110000 r"
b110000 y"
b110100 A
b110100 s"
b110100 z"
b111000 u"
b110100 ,
b110100 @
b110100 t"
b110100 {"
0L
1#
#40
b11010010011 $
b11010010011 p"
1L
0#
#41
b111100 v"
b1101 :
b1101 N"
b1101 X"
b100000001100 i"
b1101 e"
b111100 u"
b111000 ,
b111000 @
b111000 t"
b111000 {"
b11010010011 R"
b11010010011 C
b11010010011 j"
b11010010011 q"
b11010010011 x"
b110100 B
b110100 r"
b110100 y"
b111000 A
b111000 s"
b111000 z"
b1100 f
b1100 $#
b110100 _
b110100 "#
b110000 ^
b1011 m
b1011 (#
b110000 i
b110000 &#
b1010 q
b1010 ,#
b1010 G#
0L
1#
#42
b11100010011 $
b11100010011 p"
1L
0#
#43
b1110 :
b1110 N"
b1110 X"
b1110 i"
b1110 e"
b1000000 v"
b1011 q
b1011 ,#
b1011 G#
b1100 m
b1100 (#
b110100 i
b110100 &#
b1101 f
b1101 $#
b111000 _
b111000 "#
b110100 ^
b11100010011 R"
b11100010011 C
b11100010011 j"
b11100010011 q"
b11100010011 x"
b111000 B
b111000 r"
b111000 y"
b111100 A
b111100 s"
b111100 z"
b1000000 u"
b111100 ,
b111100 @
b111100 t"
b111100 {"
0L
1#
#44
b11110010011 $
b11110010011 p"
1L
0#
#45
b1000100 v"
b1111 :
b1111 N"
b1111 X"
b100000001110 i"
b1111 e"
b1000100 u"
b1000000 ,
b1000000 @
b1000000 t"
b1000000 {"
b11110010011 R"
b11110010011 C
b11110010011 j"
b11110010011 q"
b11110010011 x"
b111100 B
b111100 r"
b111100 y"
b1000000 A
b1000000 s"
b1000000 z"
b1110 f
b1110 $#
b111100 _
b111100 "#
b111000 ^
b1101 m
b1101 (#
b111000 i
b111000 &#
b1100 q
b1100 ,#
b1100 G#
0L
1#
#46
b100000010011 $
b100000010011 p"
1L
0#
#47
b10000 :
b10000 N"
b10000 X"
b10000 i"
b10000 e"
b1001000 v"
b1101 q
b1101 ,#
b1101 G#
b1110 m
b1110 (#
b111100 i
b111100 &#
b1111 f
b1111 $#
b1000000 _
b1000000 "#
b111100 ^
b100000010011 R"
b100000010011 C
b100000010011 j"
b100000010011 q"
b100000010011 x"
b1000000 B
b1000000 r"
b1000000 y"
b1000100 A
b1000100 s"
b1000100 z"
b1001000 u"
b1000100 ,
b1000100 @
b1000100 t"
b1000100 {"
0L
1#
#48
b100010010011 $
b100010010011 p"
1L
0#
#49
b1001100 v"
b10001 :
b10001 N"
b10001 X"
b100000010000 i"
b10001 e"
b1001100 u"
b1001000 ,
b1001000 @
b1001000 t"
b1001000 {"
b100010010011 R"
b100010010011 C
b100010010011 j"
b100010010011 q"
b100010010011 x"
b1000100 B
b1000100 r"
b1000100 y"
b1001000 A
b1001000 s"
b1001000 z"
b10000 f
b10000 $#
b1000100 _
b1000100 "#
b1000000 ^
b1111 m
b1111 (#
b1000000 i
b1000000 &#
b1110 q
b1110 ,#
b1110 G#
0L
1#
#50
b100100010011 $
b100100010011 p"
1L
0#
#51
b10010 :
b10010 N"
b10010 X"
b10010 i"
b10010 e"
b1010000 v"
b1111 q
b1111 ,#
b1111 G#
b10000 m
b10000 (#
b1000100 i
b1000100 &#
b10001 f
b10001 $#
b1001000 _
b1001000 "#
b1000100 ^
b100100010011 R"
b100100010011 C
b100100010011 j"
b100100010011 q"
b100100010011 x"
b1001000 B
b1001000 r"
b1001000 y"
b1001100 A
b1001100 s"
b1001100 z"
b1010000 u"
b1001100 ,
b1001100 @
b1001100 t"
b1001100 {"
0L
1#
#52
b100110010011 $
b100110010011 p"
1L
0#
#53
b1010100 v"
b10011 :
b10011 N"
b10011 X"
b100000010010 i"
b10011 e"
b1010100 u"
b1010000 ,
b1010000 @
b1010000 t"
b1010000 {"
b100110010011 R"
b100110010011 C
b100110010011 j"
b100110010011 q"
b100110010011 x"
b1001100 B
b1001100 r"
b1001100 y"
b1010000 A
b1010000 s"
b1010000 z"
b10010 f
b10010 $#
b1001100 _
b1001100 "#
b1001000 ^
b10001 m
b10001 (#
b1001000 i
b1001000 &#
b10000 q
b10000 ,#
b10000 G#
0L
1#
#54
b101000010011 $
b101000010011 p"
1L
0#
#55
b10100 :
b10100 N"
b10100 X"
b10100 i"
b10100 e"
b1011000 v"
b10001 q
b10001 ,#
b10001 G#
b10010 m
b10010 (#
b1001100 i
b1001100 &#
b10011 f
b10011 $#
b1010000 _
b1010000 "#
b1001100 ^
b101000010011 R"
b101000010011 C
b101000010011 j"
b101000010011 q"
b101000010011 x"
b1010000 B
b1010000 r"
b1010000 y"
b1010100 A
b1010100 s"
b1010100 z"
b1011000 u"
b1010100 ,
b1010100 @
b1010100 t"
b1010100 {"
0L
1#
#56
b101010010011 $
b101010010011 p"
1L
0#
#57
b1011100 v"
b10101 :
b10101 N"
b10101 X"
b100000010100 i"
b10101 e"
b1011100 u"
b1011000 ,
b1011000 @
b1011000 t"
b1011000 {"
b101010010011 R"
b101010010011 C
b101010010011 j"
b101010010011 q"
b101010010011 x"
b1010100 B
b1010100 r"
b1010100 y"
b1011000 A
b1011000 s"
b1011000 z"
b10100 f
b10100 $#
b1010100 _
b1010100 "#
b1010000 ^
b10011 m
b10011 (#
b1010000 i
b1010000 &#
b10010 q
b10010 ,#
b10010 G#
0L
1#
#58
b101100010011 $
b101100010011 p"
1L
0#
