hdl/tb/cpu_log.vcd
$date
	Sat Nov 12 23:07:52 2022
$end
$version
	Icarus Verilog
$end
$timescale
	1s
$end
$scope module cpu_tb $end
$scope module DUT $end
$var wire 1 ! clk_ce $end
$var wire 32 " ex_res_dat [31:0] $end
$var wire 1 # i_clk $end
$var wire 1 $ i_clk_ce $end
$var wire 32 % i_data_in_i [31:0] $end
$var wire 32 & i_data_rd_d [31:0] $end
$var wire 1 ' i_rst $end
$var wire 1 ( ma_rd_en $end
$var wire 4 ) ma_wr_en [3:0] $end
$var wire 32 * o_addr_d [31:0] $end
$var wire 32 + o_addr_i [31:0] $end
$var wire 32 , o_data_wr_d [31:0] $end
$var wire 1 - o_rd_d $end
$var wire 4 . o_wr_d [3:0] $end
$var wire 2 / wb_mux [1:0] $end
$var wire 1 0 wb_en $end
$var wire 1 1 system $end
$var wire 32 2 rs2_raw_d [31:0] $end
$var wire 32 3 rs2_d [31:0] $end
$var wire 5 4 rs2 [4:0] $end
$var wire 32 5 rs1_raw_d [31:0] $end
$var wire 32 6 rs1_d [31:0] $end
$var wire 5 7 rs1 [4:0] $end
$var wire 5 8 rd [4:0] $end
$var wire 32 9 ma_wr_dat [31:0] $end
$var wire 4 : ma_we [3:0] $end
$var wire 32 ; ma_rd_dat [31:0] $end
$var wire 1 < jump $end
$var wire 32 = immediate [31:0] $end
$var wire 32 > if_pc [31:0] $end
$var wire 32 ? id_ret [31:0] $end
$var wire 32 @ id_pc [31:0] $end
$var wire 32 A id_ir [31:0] $end
$var wire 1 B hz_rs2 $end
$var wire 1 C hz_rs1 $end
$var wire 1 D hz_data $end
$var wire 1 E hz_br $end
$var wire 7 F funct7 [6:0] $end
$var wire 3 G funct3 [2:0] $end
$var wire 1 H d_wr $end
$var wire 1 I d_rd $end
$var wire 1 J clk_n $end
$var wire 1 K branch $end
$var wire 1 L br_en $end
$var wire 1 M alu_pc $end
$var wire 32 N alu_out [31:0] $end
$var wire 1 O alu_imm $end
$var wire 1 P alu_en $end
$var wire 1 Q alu_busy $end
$var wire 32 R alu_b_mux [31:0] $end
$var wire 32 S alu_a_mux [31:0] $end
$var reg 1 T ex_alu_en $end
$var reg 1 U ex_alu_imm $end
$var reg 1 V ex_alu_pc $end
$var reg 1 W ex_branch $end
$var reg 3 X ex_funct3 [2:0] $end
$var reg 7 Y ex_funct7 [6:0] $end
$var reg 32 Z ex_imm [31:0] $end
$var reg 1 [ ex_jump $end
$var reg 1 \ ex_ma_rd $end
$var reg 1 ] ex_ma_wr $end
$var reg 32 ^ ex_pc [31:0] $end
$var reg 32 _ ex_ret [31:0] $end
$var reg 5 ` ex_rs1 [4:0] $end
$var reg 32 a ex_rs1_d [31:0] $end
$var reg 32 b ex_rs2_d [31:0] $end
$var reg 1 c ex_system $end
$var reg 1 d ex_wb_en $end
$var reg 2 e ex_wb_mux [1:0] $end
$var reg 5 f ex_wb_reg [4:0] $end
$var reg 3 g ma_funct3 [2:0] $end
$var reg 1 h ma_rd $end
$var reg 32 i ma_res [31:0] $end
$var reg 32 j ma_ret [31:0] $end
$var reg 32 k ma_rs2_d [31:0] $end
$var reg 1 l ma_wb_en $end
$var reg 2 m ma_wb_mux [1:0] $end
$var reg 5 n ma_wb_reg [4:0] $end
$var reg 1 o ma_wr $end
$var reg 32 p wb_dat_mux [31:0] $end
$var reg 32 q wb_wb_d [31:0] $end
$var reg 1 r wb_wb_en $end
$var reg 5 s wb_wb_reg [4:0] $end
$scope module alu_i $end
$var wire 1 T i_alu_en $end
$var wire 1 U i_alu_imm $end
$var wire 1 J i_clk_n $end
$var wire 3 t i_funct3 [2:0] $end
$var wire 7 u i_funct7 [6:0] $end
$var wire 32 v i_in_a [31:0] $end
$var wire 32 w i_in_b [31:0] $end
$var wire 1 ' i_rst $end
$var wire 32 x logic_and [31:0] $end
$var wire 32 y logic_or [31:0] $end
$var wire 32 z logic_xor [31:0] $end
$var wire 32 { o_alu_out [31:0] $end
$var wire 1 Q o_busy $end
$var wire 1 | op_subtract $end
$var wire 1 } shift_en $end
$var wire 32 ~ shift_result [31:0] $end
$var wire 1 !" shift_busy $end
$var wire 1 "" funct7_5 $end
$var wire 32 #" comp_u [31:0] $end
$var wire 32 $" comp [31:0] $end
$var wire 32 %" adder_out [31:0] $end
$var wire 32 &" adder_in_b [31:0] $end
$var reg 32 '" mux [31:0] $end
$scope module shifter_i $end
$var wire 1 J i_clk_n $end
$var wire 3 (" i_funct3 [2:0] $end
$var wire 32 )" i_in_a [31:0] $end
$var wire 5 *" i_in_b [4:0] $end
$var wire 1 "" i_op_alt $end
$var wire 1 ' i_rst $end
$var wire 1 } i_shift_en $end
$var wire 32 +" o_result [31:0] $end
$var wire 1 ," op_shift $end
$var wire 1 -" op_sll $end
$var wire 1 ." op_sra $end
$var wire 1 /" op_srl $end
$var wire 32 0" shift_right [31:0] $end
$var wire 32 1" shift_left [31:0] $end
$var wire 1 !" o_busy $end
$var reg 5 2" shift_amount [4:0] $end
$var reg 1 3" shift_dir_left $end
$var reg 32 4" shift_result [31:0] $end
$upscope $end
$upscope $end
$scope module branch_i $end
$var wire 1 5" br_en $end
$var wire 1 6" condition $end
$var wire 1 W i_branch $end
$var wire 32 7" i_dat_a [31:0] $end
$var wire 32 8" i_dat_b [31:0] $end
$var wire 3 9" i_funct3 [2:0] $end
$var wire 1 [ i_jump $end
$var wire 1 L o_br_en $end
$var wire 1 :" lower_u $end
$var wire 1 ;" lower $end
$var wire 1 <" equal $end
$var reg 1 =" condition_mux $end
$upscope $end
$scope module decoder_i $end
$var wire 1 >" alu_en $end
$var wire 1 ?" alu_pc $end
$var wire 1 @" branch $end
$var wire 1 A" format_b $end
$var wire 1 B" format_i $end
$var wire 1 C" format_j $end
$var wire 1 D" format_r $end
$var wire 1 E" format_s $end
$var wire 1 F" format_u $end
$var wire 3 G" funct3_mux [2:0] $end
$var wire 7 H" funct7_mux [6:0] $end
$var wire 1 I" hz_rs2 $end
$var wire 1 J" jump $end
$var wire 1 K" ma_rd $end
$var wire 1 L" ma_wr $end
$var wire 1 P o_alu_en $end
$var wire 1 O o_alu_imm $end
$var wire 1 M o_alu_pc $end
$var wire 1 K o_branch $end
$var wire 3 M" o_funct3 [2:0] $end
$var wire 7 N" o_funct7 [6:0] $end
$var wire 1 C o_hz_rs1 $end
$var wire 1 B o_hz_rs2 $end
$var wire 32 O" o_immediate [31:0] $end
$var wire 1 < o_jump $end
$var wire 1 I o_ma_rd $end
$var wire 1 H o_ma_wr $end
$var wire 5 P" o_rd [4:0] $end
$var wire 5 Q" o_rs1 [4:0] $end
$var wire 5 R" o_rs2 [4:0] $end
$var wire 1 1 o_system $end
$var wire 1 0 o_wb_en $end
$var wire 2 S" o_wb_mux [1:0] $end
$var wire 1 T" op_auipc $end
$var wire 1 U" op_branch $end
$var wire 1 V" op_jal $end
$var wire 1 W" op_jalr $end
$var wire 1 X" op_load $end
$var wire 1 Y" op_lui $end
$var wire 1 Z" op_op $end
$var wire 1 [" op_op_imm $end
$var wire 1 \" op_store $end
$var wire 1 ]" op_system $end
$var wire 1 ^" opcode_valid $end
$var wire 5 _" rd_mux [4:0] $end
$var wire 5 `" rs1 [4:0] $end
$var wire 5 a" rs1_mux [4:0] $end
$var wire 5 b" rs2_mux [4:0] $end
$var wire 1 c" wb_en $end
$var wire 2 d" wb_mux [1:0] $end
$var wire 5 e" rs2 [4:0] $end
$var wire 5 f" rd [4:0] $end
$var wire 1 g" quad3 $end
$var wire 5 h" opcode [4:0] $end
$var wire 32 i" immediate_u [31:0] $end
$var wire 32 j" immediate_s [31:0] $end
$var wire 32 k" immediate_j [31:0] $end
$var wire 32 l" immediate_i [31:0] $end
$var wire 32 m" immediate_b [31:0] $end
$var wire 32 n" i_opcode_in [31:0] $end
$var wire 1 o" hz_rs1 $end
$var wire 7 p" funct7 [6:0] $end
$var wire 3 q" funct3 [2:0] $end
$var wire 1 r" alu_imm $end
$var reg 32 s" immediate_mux [31:0] $end
$upscope $end
$scope module fetch_i $end
$var wire 32 t" i_br_addr [31:0] $end
$var wire 1 L i_br_en $end
$var wire 1 # i_clk $end
$var wire 1 ! i_clk_ce $end
$var wire 32 u" i_data_in [31:0] $end
$var wire 1 ' i_rst $end
$var wire 1 E o_hz_br $end
$var wire 32 v" o_id_ir [31:0] $end
$var wire 32 w" o_id_pc [31:0] $end
$var wire 32 x" o_id_ret [31:0] $end
$var wire 32 y" o_if_pc [31:0] $end
$var wire 32 z" pc_next [31:0] $end
$var wire 32 {" pc_mux [31:0] $end
$var wire 1 D i_hz_data $end
$var reg 1 |" hz_br $end
$var reg 32 }" id_ir [31:0] $end
$var reg 32 ~" id_pc [31:0] $end
$var reg 32 !# id_ret [31:0] $end
$var reg 32 "# if_pc [31:0] $end
$upscope $end
$scope module hazard_i $end
$var wire 1 ## hz_dat_rs1 $end
$var wire 1 $# hz_dat_rs2 $end
$var wire 1 %# hz_data $end
$var wire 1 d i_ex_wb_en $end
$var wire 5 &# i_ex_wb_reg [4:0] $end
$var wire 1 C i_hz_rs1 $end
$var wire 1 B i_hz_rs2 $end
$var wire 1 l i_ma_wb_en $end
$var wire 5 '# i_ma_wb_reg [4:0] $end
$var wire 5 (# i_rs1 [4:0] $end
$var wire 5 )# i_rs2 [4:0] $end
$var wire 1 r i_wb_wb_en $end
$var wire 5 *# i_wb_wb_reg [4:0] $end
$var wire 1 D o_hz_data $end
$var wire 32 +# o_rs1_d [31:0] $end
$var wire 32 ,# o_rs2_d [31:0] $end
$var wire 32 -# rs1_d [31:0] $end
$var wire 32 .# rs2_d [31:0] $end
$var wire 32 /# i_rs2_raw_d [31:0] $end
$var wire 32 0# i_rs1_raw_d [31:0] $end
$upscope $end
$scope module memory_i $end
$var wire 32 1# data_rd_short [31:0] $end
$var wire 32 2# data_rd_signed [31:0] $end
$var wire 32 3# i_data_rd [31:0] $end
$var wire 32 4# i_data_wr [31:0] $end
$var wire 2 5# i_length [1:0] $end
$var wire 2 6# i_shift [1:0] $end
$var wire 1 7# i_signed_rd $end
$var wire 32 8# o_data_rd [31:0] $end
$var wire 32 9# o_data_wr [31:0] $end
$var wire 32 :# sign_extension [31:0] $end
$var wire 1 ;# sign_bit $end
$var wire 4 <# o_we [3:0] $end
$var reg 32 =# data_rd_shift [31:0] $end
$var reg 32 ># data_wr_shift [31:0] $end
$var reg 32 ?# length_mask [31:0] $end
$var reg 4 @# we_lenght [3:0] $end
$var reg 4 A# we_shifted [3:0] $end
$upscope $end
$scope module regs_i $end
$var wire 5 B# i_addr_rd_a [4:0] $end
$var wire 5 C# i_addr_rd_b [4:0] $end
$var wire 5 D# i_addr_wr [4:0] $end
$var wire 1 ! i_ce $end
$var wire 1 J i_clk $end
$var wire 32 E# i_dat_wr [31:0] $end
$var wire 1 r i_we $end
$var wire 32 F# o_dat_rd_a [31:0] $end
$var wire 32 G# o_dat_rd_b [31:0] $end
$var reg 32 H# dat_rd_a_reg [31:0] $end
$var reg 32 I# dat_rd_b_reg [31:0] $end
$scope begin $ivl_for_loop0 $end
$var integer 32 J# i [31:0] $end
$upscope $end
$upscope $end
$upscope $end
$upscope $end
$enddefinitions $end
#0
$dumpvars
b100000 J#
bx I#
bx H#
bx G#
bx F#
bx E#
bx D#
bx C#
bx B#
bx A#
bx @#
bx ?#
bx >#
b0 =#
bx <#
0;#
b0 :#
bx 9#
b0 8#
x7#
bx 6#
bx 5#
bx 4#
b0 3#
b0 2#
b0 1#
bx 0#
bx /#
bx .#
bx -#
bx ,#
bx +#
bx *#
bx )#
bx (#
bx '#
bx &#
x%#
x$#
x##
bx "#
bx !#
bx ~"
bx }"
x|"
bx {"
bx z"
bx y"
bx x"
bx w"
bx v"
bx u"
bx t"
b0 s"
xr"
bx q"
bx p"
xo"
bx n"
bx0 m"
bx l"
bx0 k"
bx j"
bx000000000000 i"
bx h"
xg"
bx f"
bx e"
bx d"
xc"
bx b"
bx a"
bx `"
bx _"
x^"
x]"
x\"
x["
xZ"
xY"
xX"
xW"
xV"
xU"
xT"
bx S"
bx R"
bx Q"
bx P"
b0 O"
bx N"
bx M"
xL"
xK"
xJ"
xI"
bx H"
bx G"
xF"
xE"
xD"
xC"
xB"
xA"
x@"
x?"
x>"
x="
x<"
x;"
x:"
bx 9"
bx 8"
bx 7"
x6"
x5"
b0 4"
03"
b0 2"
b0 1"
b0 0"
x/"
x."
x-"
x,"
b0 +"
bx *"
bx )"
bx ("
bx '"
bx &"
bx %"
b0x $"
b0x #"
x""
0!"
b0 ~
x}
x|
bx {
bx z
bx y
bx x
bx w
bx v
bx u
bx t
bx s
xr
bx q
bx p
xo
bx n
bx m
xl
bx k
bx j
bx i
xh
bx g
bx f
bx e
xd
xc
bx b
bx a
bx `
bx _
bx ^
x]
x\
x[
bx Z
bx Y
bx X
xW
xV
xU
xT
bx S
bx R
0Q
xP
xO
bx N
xM
xL
xK
1J
xI
xH
bx G
bx F
xE
xD
xC
xB
bx A
bx @
bx ?
bx >
b0 =
x<
b0 ;
bx :
bx 9
bx 8
bx 7
bx 6
bx 5
bx 4
bx 3
bx 2
x1
x0
bx /
bx .
x-
bx ,
bx +
bx *
bx )
x(
1'
b0 &
bx %
1$
0#
bx "
1!
$end
#1
0B"
0D
0%#
1C
1o"
0##
00
0c"
0$#
0I
0K"
0H
0L"
0P
0>"
0B
0I"
0F"
0M
0?"
0<
0J"
b0 "
b0 N
b0 {
b0 '"
b0 t"
b1 :
b1 <#
b1 A#
0^"
b0 7
b0 Q"
b0 (#
b0 B#
b0 a"
b0 `"
b0 /
b0 S"
b0 d"
0X"
0["
0T"
0E"
0\"
0D"
1O
1r"
0Z"
0Y"
0A"
0K
0@"
0U"
0W"
0C"
0V"
01
0]"
0,"
b0 %"
b0 &"
b0 *"
16"
b0 z
b0 y
b0 x
b0 .
b0 )
b1 @#
b11111111 ?#
b111111000000100 {"
b0 l"
b0 j"
b0 m"
b0 k"
b0 i"
0g"
b0 F
b0 N"
b0 H"
b0 p"
b0 G
b0 M"
b0 G"
b0 q"
b0 8
b0 P"
b0 _"
b0 f"
b0 4
b0 R"
b0 )#
b0 C#
b0 b"
b0 e"
b0 h"
0L
05"
0."
0/"
0|
0-"
b0 $"
b0 #"
b0 R
b0 w
1="
b0 S
b0 v
b0 )"
0-
0(
b0 5#
17#
b0 p
b0 6#
b0 ,
b0 9
b0 9#
b0 >#
0E
0|"
b111111000000100 z"
b111111000000000 +
b111111000000000 >
b111111000000000 y"
b111111000000000 "#
b0 A
b0 n"
b0 v"
b0 }"
b0 @
b0 w"
b0 ~"
b0 ?
b0 x"
b0 !#
0c
0d
b0 e
b0 f
b0 &#
0\
0]
0}
0T
0U
0V
0[
0W
b0 `
0""
b0 Y
b0 u
b0 X
b0 t
b0 ("
b0 9"
b0 _
b0 ^
b0 Z
1<"
0;"
0:"
b0 b
b0 8"
b0 a
b0 7"
0l
b0 m
b0 n
b0 '#
0h
0o
b0 g
b0 j
b0 *
b0 i
b0 k
b0 4#
0r
b0 s
b0 *#
b0 D#
b0 q
b0 E#
0J
1#
#2
b0 3
b0 ,#
b0 .#
b0 2
b0 /#
b0 G#
b0 I#
b0 6
b0 +#
b0 -#
b0 5
b0 0#
b0 F#
b0 H#
b0 %
b0 u"
1J
0#
#3
0J
1#
#4
1J
0#
#5
0J
1#
#6
1J
0#
#7
0J
1#
#8
1J
0#
#9
0J
1#
#10
1J
0#
0'
#11
b111111000001000 {"
1U
b111111000000000 @
b111111000000000 w"
b111111000000000 ~"
b111111000000100 ?
b111111000000100 x"
b111111000000100 !#
b111111000001000 z"
b111111000000100 +
b111111000000100 >
b111111000000100 y"
b111111000000100 "#
0J
1#
#12
1J
0#
#13
b111111000001100 {"
b111111000001100 z"
b111111000001000 +
b111111000001000 >
b111111000001000 y"
b111111000001000 "#
b111111000000100 @
b111111000000100 w"
b111111000000100 ~"
b111111000001000 ?
b111111000001000 x"
b111111000001000 !#
b111111000000100 _
b111111000000000 ^
0J
1#
#14
1J
0#
#15
b111111000010000 {"
b111111000000100 j
b111111000001000 _
b111111000000100 ^
b111111000001000 @
b111111000001000 w"
b111111000001000 ~"
b111111000001100 ?
b111111000001100 x"
b111111000001100 !#
b111111000010000 z"
b111111000001100 +
b111111000001100 >
b111111000001100 y"
b111111000001100 "#
0J
1#
#16
1J
0#
#17
b111111000010100 {"
b111111000010100 z"
b111111000010000 +
b111111000010000 >
b111111000010000 y"
b111111000010000 "#
b111111000001100 @
b111111000001100 w"
b111111000001100 ~"
b111111000010000 ?
b111111000010000 x"
b111111000010000 !#
b111111000001100 _
b111111000001000 ^
b111111000001000 j
0J
1#
#18
1J
0#
#19
b111111000011000 {"
b111111000001100 j
b111111000010000 _
b111111000001100 ^
b111111000010000 @
b111111000010000 w"
b111111000010000 ~"
b111111000010100 ?
b111111000010100 x"
b111111000010100 !#
b111111000011000 z"
b111111000010100 +
b111111000010100 >
b111111000010100 y"
b111111000010100 "#
0J
1#
#20
1J
0#
#21
b111111000011100 {"
b111111000011100 z"
b111111000011000 +
b111111000011000 >
b111111000011000 y"
b111111000011000 "#
b111111000010100 @
b111111000010100 w"
b111111000010100 ~"
b111111000011000 ?
b111111000011000 x"
b111111000011000 !#
b111111000010100 _
b111111000010000 ^
b111111000010000 j
0J
1#
#22
1J
0#
#23
b111111000100000 {"
b111111000010100 j
b111111000011000 _
b111111000010100 ^
b111111000011000 @
b111111000011000 w"
b111111000011000 ~"
b111111000011100 ?
b111111000011100 x"
b111111000011100 !#
b111111000100000 z"
b111111000011100 +
b111111000011100 >
b111111000011100 y"
b111111000011100 "#
0J
1#
#24
1J
0#
#25
b111111000100100 {"
b111111000100100 z"
b111111000100000 +
b111111000100000 >
b111111000100000 y"
b111111000100000 "#
b111111000011100 @
b111111000011100 w"
b111111000011100 ~"
b111111000100000 ?
b111111000100000 x"
b111111000100000 !#
b111111000011100 _
b111111000011000 ^
b111111000011000 j
0J
1#
#26
1J
0#
#27
b111111000101000 {"
b111111000011100 j
b111111000100000 _
b111111000011100 ^
b111111000100000 @
b111111000100000 w"
b111111000100000 ~"
b111111000100100 ?
b111111000100100 x"
b111111000100100 !#
b111111000101000 z"
b111111000100100 +
b111111000100100 >
b111111000100100 y"
b111111000100100 "#
0J
1#
#28
1J
0#
#29
b111111000101100 {"
b111111000101100 z"
b111111000101000 +
b111111000101000 >
b111111000101000 y"
b111111000101000 "#
b111111000100100 @
b111111000100100 w"
b111111000100100 ~"
b111111000101000 ?
b111111000101000 x"
b111111000101000 !#
b111111000100100 _
b111111000100000 ^
b111111000100000 j
0J
1#
#30
1J
0#
#31
b111111000110000 {"
b111111000100100 j
b111111000101000 _
b111111000100100 ^
b111111000101000 @
b111111000101000 w"
b111111000101000 ~"
b111111000101100 ?
b111111000101100 x"
b111111000101100 !#
b111111000110000 z"
b111111000101100 +
b111111000101100 >
b111111000101100 y"
b111111000101100 "#
0J
1#
#32
1J
0#
#33
b111111000110100 {"
b111111000110100 z"
b111111000110000 +
b111111000110000 >
b111111000110000 y"
b111111000110000 "#
b111111000101100 @
b111111000101100 w"
b111111000101100 ~"
b111111000110000 ?
b111111000110000 x"
b111111000110000 !#
b111111000101100 _
b111111000101000 ^
b111111000101000 j
0J
1#
#34
1J
0#
#35
b111111000111000 {"
b111111000101100 j
b111111000110000 _
b111111000101100 ^
b111111000110000 @
b111111000110000 w"
b111111000110000 ~"
b111111000110100 ?
b111111000110100 x"
b111111000110100 !#
b111111000111000 z"
b111111000110100 +
b111111000110100 >
b111111000110100 y"
b111111000110100 "#
0J
1#
#36
1J
0#
#37
b111111000111100 {"
b111111000111100 z"
b111111000111000 +
b111111000111000 >
b111111000111000 y"
b111111000111000 "#
b111111000110100 @
b111111000110100 w"
b111111000110100 ~"
b111111000111000 ?
b111111000111000 x"
b111111000111000 !#
b111111000110100 _
b111111000110000 ^
b111111000110000 j
0J
1#
#38
1J
0#
#39
b111111001000000 {"
b111111000110100 j
b111111000111000 _
b111111000110100 ^
b111111000111000 @
b111111000111000 w"
b111111000111000 ~"
b111111000111100 ?
b111111000111100 x"
b111111000111100 !#
b111111001000000 z"
b111111000111100 +
b111111000111100 >
b111111000111100 y"
b111111000111100 "#
0J
1#
#40
1J
0#
#41
b111111001000100 {"
b111111001000100 z"
b111111001000000 +
b111111001000000 >
b111111001000000 y"
b111111001000000 "#
b111111000111100 @
b111111000111100 w"
b111111000111100 ~"
b111111001000000 ?
b111111001000000 x"
b111111001000000 !#
b111111000111100 _
b111111000111000 ^
b111111000111000 j
0J
1#
#42
1J
0#
#43
b111111001001000 {"
b111111000111100 j
b111111001000000 _
b111111000111100 ^
b111111001000000 @
b111111001000000 w"
b111111001000000 ~"
b111111001000100 ?
b111111001000100 x"
b111111001000100 !#
b111111001001000 z"
b111111001000100 +
b111111001000100 >
b111111001000100 y"
b111111001000100 "#
0J
1#
#44
1J
0#
#45
b111111001001100 {"
b111111001001100 z"
b111111001001000 +
b111111001001000 >
b111111001001000 y"
b111111001001000 "#
b111111001000100 @
b111111001000100 w"
b111111001000100 ~"
b111111001001000 ?
b111111001001000 x"
b111111001001000 !#
b111111001000100 _
b111111001000000 ^
b111111001000000 j
0J
1#
#46
1J
0#
#47
b111111001010000 {"
b111111001000100 j
b111111001001000 _
b111111001000100 ^
b111111001001000 @
b111111001001000 w"
b111111001001000 ~"
b111111001001100 ?
b111111001001100 x"
b111111001001100 !#
b111111001010000 z"
b111111001001100 +
b111111001001100 >
b111111001001100 y"
b111111001001100 "#
0J
1#
#48
1J
0#
#49
b111111001010100 {"
b111111001010100 z"
b111111001010000 +
b111111001010000 >
b111111001010000 y"
b111111001010000 "#
b111111001001100 @
b111111001001100 w"
b111111001001100 ~"
b111111001010000 ?
b111111001010000 x"
b111111001010000 !#
b111111001001100 _
b111111001001000 ^
b111111001001000 j
0J
1#
#50
1J
0#
#51
b111111001011000 {"
b111111001001100 j
b111111001010000 _
b111111001001100 ^
b111111001010000 @
b111111001010000 w"
b111111001010000 ~"
b111111001010100 ?
b111111001010100 x"
b111111001010100 !#
b111111001011000 z"
b111111001010100 +
b111111001010100 >
b111111001010100 y"
b111111001010100 "#
0J
1#
#52
1J
0#
#53
b111111001011100 {"
b111111001011100 z"
b111111001011000 +
b111111001011000 >
b111111001011000 y"
b111111001011000 "#
b111111001010100 @
b111111001010100 w"
b111111001010100 ~"
b111111001011000 ?
b111111001011000 x"
b111111001011000 !#
b111111001010100 _
b111111001010000 ^
b111111001010000 j
0J
1#
#54
1J
0#
#55
b111111001100000 {"
b111111001010100 j
b111111001011000 _
b111111001010100 ^
b111111001011000 @
b111111001011000 w"
b111111001011000 ~"
b111111001011100 ?
b111111001011100 x"
b111111001011100 !#
b111111001100000 z"
b111111001011100 +
b111111001011100 >
b111111001011100 y"
b111111001011100 "#
0J
1#
#56
1J
0#
#57
b111111001100100 {"
b111111001100100 z"
b111111001100000 +
b111111001100000 >
b111111001100000 y"
b111111001100000 "#
b111111001011100 @
b111111001011100 w"
b111111001011100 ~"
b111111001100000 ?
b111111001100000 x"
b111111001100000 !#
b111111001011100 _
b111111001011000 ^
b111111001011000 j
0J
1#
#58
1J
0#
#59
b111111001101000 {"
b111111001011100 j
b111111001100000 _
b111111001011100 ^
b111111001100000 @
b111111001100000 w"
b111111001100000 ~"
b111111001100100 ?
b111111001100100 x"
b111111001100100 !#
b111111001101000 z"
b111111001100100 +
b111111001100100 >
b111111001100100 y"
b111111001100100 "#
0J
1#
#60
1J
0#
#61
b111111001101100 {"
b111111001101100 z"
b111111001101000 +
b111111001101000 >
b111111001101000 y"
b111111001101000 "#
b111111001100100 @
b111111001100100 w"
b111111001100100 ~"
b111111001101000 ?
b111111001101000 x"
b111111001101000 !#
b111111001100100 _
b111111001100000 ^
b111111001100000 j
0J
1#
#62
1J
0#
#63
b111111001110000 {"
b111111001100100 j
b111111001101000 _
b111111001100100 ^
b111111001101000 @
b111111001101000 w"
b111111001101000 ~"
b111111001101100 ?
b111111001101100 x"
b111111001101100 !#
b111111001110000 z"
b111111001101100 +
b111111001101100 >
b111111001101100 y"
b111111001101100 "#
0J
1#
#64
1J
0#
#65
b111111001110100 {"
b111111001110100 z"
b111111001110000 +
b111111001110000 >
b111111001110000 y"
b111111001110000 "#
b111111001101100 @
b111111001101100 w"
b111111001101100 ~"
b111111001110000 ?
b111111001110000 x"
b111111001110000 !#
b111111001101100 _
b111111001101000 ^
b111111001101000 j
0J
1#
#66
1J
0#
#67
b111111001111000 {"
b111111001101100 j
b111111001110000 _
b111111001101100 ^
b111111001110000 @
b111111001110000 w"
b111111001110000 ~"
b111111001110100 ?
b111111001110100 x"
b111111001110100 !#
b111111001111000 z"
b111111001110100 +
b111111001110100 >
b111111001110100 y"
b111111001110100 "#
0J
1#
#68
1J
0#
#69
b111111001111100 {"
b111111001111100 z"
b111111001111000 +
b111111001111000 >
b111111001111000 y"
b111111001111000 "#
b111111001110100 @
b111111001110100 w"
b111111001110100 ~"
b111111001111000 ?
b111111001111000 x"
b111111001111000 !#
b111111001110100 _
b111111001110000 ^
b111111001110000 j
0J
1#
#70
1J
0#
#71
b111111010000000 {"
b111111001110100 j
b111111001111000 _
b111111001110100 ^
b111111001111000 @
b111111001111000 w"
b111111001111000 ~"
b111111001111100 ?
b111111001111100 x"
b111111001111100 !#
b111111010000000 z"
b111111001111100 +
b111111001111100 >
b111111001111100 y"
b111111001111100 "#
0J
1#
#72
1J
0#
#73
b111111010000100 {"
b111111010000100 z"
b111111010000000 +
b111111010000000 >
b111111010000000 y"
b111111010000000 "#
b111111001111100 @
b111111001111100 w"
b111111001111100 ~"
b111111010000000 ?
b111111010000000 x"
b111111010000000 !#
b111111001111100 _
b111111001111000 ^
b111111001111000 j
0J
1#
#74
1J
0#
#75
b111111010001000 {"
b111111001111100 j
b111111010000000 _
b111111001111100 ^
b111111010000000 @
b111111010000000 w"
b111111010000000 ~"
b111111010000100 ?
b111111010000100 x"
b111111010000100 !#
b111111010001000 z"
b111111010000100 +
b111111010000100 >
b111111010000100 y"
b111111010000100 "#
0J
1#
#76
1J
0#
#77
b111111010001100 {"
b111111010001100 z"
b111111010001000 +
b111111010001000 >
b111111010001000 y"
b111111010001000 "#
b111111010000100 @
b111111010000100 w"
b111111010000100 ~"
b111111010001000 ?
b111111010001000 x"
b111111010001000 !#
b111111010000100 _
b111111010000000 ^
b111111010000000 j
0J
1#
#78
1J
0#
#79
b111111010010000 {"
b111111010000100 j
b111111010001000 _
b111111010000100 ^
b111111010001000 @
b111111010001000 w"
b111111010001000 ~"
b111111010001100 ?
b111111010001100 x"
b111111010001100 !#
b111111010010000 z"
b111111010001100 +
b111111010001100 >
b111111010001100 y"
b111111010001100 "#
0J
1#
#80
1J
0#
#81
b111111010010100 {"
b111111010010100 z"
b111111010010000 +
b111111010010000 >
b111111010010000 y"
b111111010010000 "#
b111111010001100 @
b111111010001100 w"
b111111010001100 ~"
b111111010010000 ?
b111111010010000 x"
b111111010010000 !#
b111111010001100 _
b111111010001000 ^
b111111010001000 j
0J
1#
#82
1J
0#
#83
b111111010011000 {"
b111111010001100 j
b111111010010000 _
b111111010001100 ^
b111111010010000 @
b111111010010000 w"
b111111010010000 ~"
b111111010010100 ?
b111111010010100 x"
b111111010010100 !#
b111111010011000 z"
b111111010010100 +
b111111010010100 >
b111111010010100 y"
b111111010010100 "#
0J
1#
#84
1J
0#
#85
b111111010011100 {"
b111111010011100 z"
b111111010011000 +
b111111010011000 >
b111111010011000 y"
b111111010011000 "#
b111111010010100 @
b111111010010100 w"
b111111010010100 ~"
b111111010011000 ?
b111111010011000 x"
b111111010011000 !#
b111111010010100 _
b111111010010000 ^
b111111010010000 j
0J
1#
#86
1J
0#
#87
b111111010100000 {"
b111111010010100 j
b111111010011000 _
b111111010010100 ^
b111111010011000 @
b111111010011000 w"
b111111010011000 ~"
b111111010011100 ?
b111111010011100 x"
b111111010011100 !#
b111111010100000 z"
b111111010011100 +
b111111010011100 >
b111111010011100 y"
b111111010011100 "#
0J
1#
#88
1J
0#
#89
b111111010100100 {"
b111111010100100 z"
b111111010100000 +
b111111010100000 >
b111111010100000 y"
b111111010100000 "#
b111111010011100 @
b111111010011100 w"
b111111010011100 ~"
b111111010100000 ?
b111111010100000 x"
b111111010100000 !#
b111111010011100 _
b111111010011000 ^
b111111010011000 j
0J
1#
#90
1J
0#
#91
b111111010101000 {"
b111111010011100 j
b111111010100000 _
b111111010011100 ^
b111111010100000 @
b111111010100000 w"
b111111010100000 ~"
b111111010100100 ?
b111111010100100 x"
b111111010100100 !#
b111111010101000 z"
b111111010100100 +
b111111010100100 >
b111111010100100 y"
b111111010100100 "#
0J
1#
#92
1J
0#
#93
b111111010101100 {"
b111111010101100 z"
b111111010101000 +
b111111010101000 >
b111111010101000 y"
b111111010101000 "#
b111111010100100 @
b111111010100100 w"
b111111010100100 ~"
b111111010101000 ?
b111111010101000 x"
b111111010101000 !#
b111111010100100 _
b111111010100000 ^
b111111010100000 j
0J
1#
#94
1J
0#
#95
b111111010110000 {"
b111111010100100 j
b111111010101000 _
b111111010100100 ^
b111111010101000 @
b111111010101000 w"
b111111010101000 ~"
b111111010101100 ?
b111111010101100 x"
b111111010101100 !#
b111111010110000 z"
b111111010101100 +
b111111010101100 >
b111111010101100 y"
b111111010101100 "#
0J
1#
#96
1J
0#
#97
b111111010110100 {"
b111111010110100 z"
b111111010110000 +
b111111010110000 >
b111111010110000 y"
b111111010110000 "#
b111111010101100 @
b111111010101100 w"
b111111010101100 ~"
b111111010110000 ?
b111111010110000 x"
b111111010110000 !#
b111111010101100 _
b111111010101000 ^
b111111010101000 j
0J
1#
#98
1J
0#
