hdl/tb/cpu_log.vcd
$date
	Thu Nov  3 18:26:31 2022
$end
$version
	Icarus Verilog
$end
$timescale
	1s
$end
$scope module cpu_tb $end
$scope module DUT $end
$var wire 1 ! clk_ce $end
$var wire 32 " ex_res_dat [31:0] $end
$var wire 1 # i_clk $end
$var wire 1 $ i_clk_ce $end
$var wire 32 % i_data_in_i [31:0] $end
$var wire 32 & i_data_rd_d [31:0] $end
$var wire 1 ' i_rst $end
$var wire 1 ( ma_rd_en $end
$var wire 4 ) ma_wr_en [3:0] $end
$var wire 32 * o_addr_d [31:0] $end
$var wire 32 + o_addr_i [31:0] $end
$var wire 32 , o_data_wr_d [31:0] $end
$var wire 1 - o_rd_d $end
$var wire 4 . o_wr_d [3:0] $end
$var wire 2 / wb_mux [1:0] $end
$var wire 1 0 wb_en $end
$var wire 1 1 system $end
$var wire 32 2 rs2_raw_d [31:0] $end
$var wire 32 3 rs2_d [31:0] $end
$var wire 5 4 rs2 [4:0] $end
$var wire 32 5 rs1_raw_d [31:0] $end
$var wire 32 6 rs1_d [31:0] $end
$var wire 5 7 rs1 [4:0] $end
$var wire 5 8 rd [4:0] $end
$var wire 32 9 ma_wr_dat [31:0] $end
$var wire 4 : ma_we [3:0] $end
$var wire 32 ; ma_rd_dat [31:0] $end
$var wire 1 < jump $end
$var wire 32 = immediate [31:0] $end
$var wire 32 > if_pc [31:0] $end
$var wire 32 ? id_ret [31:0] $end
$var wire 32 @ id_pc [31:0] $end
$var wire 32 A id_ir [31:0] $end
$var wire 1 B hz_rs2 $end
$var wire 1 C hz_rs1 $end
$var wire 1 D hz_data $end
$var wire 1 E hz_br $end
$var wire 7 F funct7 [6:0] $end
$var wire 3 G funct3 [2:0] $end
$var wire 1 H d_wr $end
$var wire 1 I d_rd $end
$var wire 1 J clk_n $end
$var wire 1 K branch $end
$var wire 1 L br_en $end
$var wire 1 M alu_pc $end
$var wire 32 N alu_out [31:0] $end
$var wire 1 O alu_imm $end
$var wire 1 P alu_en $end
$var wire 1 Q alu_busy $end
$var wire 32 R alu_b_mux [31:0] $end
$var wire 32 S alu_a_mux [31:0] $end
$var reg 1 T ex_alu_en $end
$var reg 1 U ex_alu_imm $end
$var reg 1 V ex_alu_pc $end
$var reg 1 W ex_branch $end
$var reg 3 X ex_funct3 [2:0] $end
$var reg 7 Y ex_funct7 [6:0] $end
$var reg 32 Z ex_imm [31:0] $end
$var reg 1 [ ex_jump $end
$var reg 1 \ ex_ma_rd $end
$var reg 1 ] ex_ma_wr $end
$var reg 32 ^ ex_pc [31:0] $end
$var reg 32 _ ex_ret [31:0] $end
$var reg 5 ` ex_rs1 [4:0] $end
$var reg 32 a ex_rs1_d [31:0] $end
$var reg 32 b ex_rs2_d [31:0] $end
$var reg 1 c ex_system $end
$var reg 1 d ex_wb_en $end
$var reg 2 e ex_wb_mux [1:0] $end
$var reg 5 f ex_wb_reg [4:0] $end
$var reg 3 g ma_funct3 [2:0] $end
$var reg 1 h ma_rd $end
$var reg 32 i ma_res [31:0] $end
$var reg 32 j ma_ret [31:0] $end
$var reg 32 k ma_rs2_d [31:0] $end
$var reg 1 l ma_wb_en $end
$var reg 2 m ma_wb_mux [1:0] $end
$var reg 5 n ma_wb_reg [4:0] $end
$var reg 1 o ma_wr $end
$var reg 32 p wb_dat_mux [31:0] $end
$var reg 32 q wb_wb_d [31:0] $end
$var reg 1 r wb_wb_en $end
$var reg 5 s wb_wb_reg [4:0] $end
$scope module alu_i $end
$var wire 1 T i_alu_en $end
$var wire 1 U i_alu_imm $end
$var wire 1 J i_clk_n $end
$var wire 3 t i_funct3 [2:0] $end
$var wire 7 u i_funct7 [6:0] $end
$var wire 32 v i_in_a [31:0] $end
$var wire 32 w i_in_b [31:0] $end
$var wire 1 ' i_rst $end
$var wire 32 x logic_and [31:0] $end
$var wire 32 y logic_or [31:0] $end
$var wire 32 z logic_xor [31:0] $end
$var wire 32 { o_alu_out [31:0] $end
$var wire 1 Q o_busy $end
$var wire 1 | op_subtract $end
$var wire 1 } shift_en $end
$var wire 32 ~ shift_result [31:0] $end
$var wire 1 !" shift_busy $end
$var wire 1 "" funct7_5 $end
$var wire 32 #" comp_u [31:0] $end
$var wire 32 $" comp [31:0] $end
$var wire 32 %" adder_out [31:0] $end
$var wire 32 &" adder_in_b [31:0] $end
$var reg 32 '" mux [31:0] $end
$scope module shifter_i $end
$var wire 1 J i_clk_n $end
$var wire 3 (" i_funct3 [2:0] $end
$var wire 32 )" i_in_a [31:0] $end
$var wire 5 *" i_in_b [4:0] $end
$var wire 1 "" i_op_alt $end
$var wire 1 ' i_rst $end
$var wire 1 } i_shift_en $end
$var wire 32 +" o_result [31:0] $end
$var wire 1 ," op_shift $end
$var wire 1 -" op_sll $end
$var wire 1 ." op_sra $end
$var wire 1 /" op_srl $end
$var wire 32 0" shift_right [31:0] $end
$var wire 32 1" shift_left [31:0] $end
$var wire 1 !" o_busy $end
$var reg 5 2" shift_amount [4:0] $end
$var reg 1 3" shift_dir_left $end
$var reg 32 4" shift_result [31:0] $end
$upscope $end
$upscope $end
$scope module branch_i $end
$var wire 1 5" br_en $end
$var wire 1 6" condition $end
$var wire 1 W i_branch $end
$var wire 32 7" i_dat_a [31:0] $end
$var wire 32 8" i_dat_b [31:0] $end
$var wire 3 9" i_funct3 [2:0] $end
$var wire 1 [ i_jump $end
$var wire 1 L o_br_en $end
$var wire 1 :" lower_u $end
$var wire 1 ;" lower $end
$var wire 1 <" equal $end
$var reg 1 =" condition_mux $end
$upscope $end
$scope module decoder_i $end
$var wire 1 >" alu_en $end
$var wire 1 ?" alu_pc $end
$var wire 1 @" branch $end
$var wire 1 A" format_b $end
$var wire 1 B" format_i $end
$var wire 1 C" format_j $end
$var wire 1 D" format_r $end
$var wire 1 E" format_s $end
$var wire 1 F" format_u $end
$var wire 3 G" funct3_mux [2:0] $end
$var wire 7 H" funct7_mux [6:0] $end
$var wire 1 I" hz_rs2 $end
$var wire 1 J" jump $end
$var wire 1 K" ma_rd $end
$var wire 1 L" ma_wr $end
$var wire 1 P o_alu_en $end
$var wire 1 O o_alu_imm $end
$var wire 1 M o_alu_pc $end
$var wire 1 K o_branch $end
$var wire 3 M" o_funct3 [2:0] $end
$var wire 7 N" o_funct7 [6:0] $end
$var wire 1 C o_hz_rs1 $end
$var wire 1 B o_hz_rs2 $end
$var wire 32 O" o_immediate [31:0] $end
$var wire 1 < o_jump $end
$var wire 1 I o_ma_rd $end
$var wire 1 H o_ma_wr $end
$var wire 5 P" o_rd [4:0] $end
$var wire 5 Q" o_rs1 [4:0] $end
$var wire 5 R" o_rs2 [4:0] $end
$var wire 1 1 o_system $end
$var wire 1 0 o_wb_en $end
$var wire 2 S" o_wb_mux [1:0] $end
$var wire 1 T" op_auipc $end
$var wire 1 U" op_branch $end
$var wire 1 V" op_jal $end
$var wire 1 W" op_jalr $end
$var wire 1 X" op_load $end
$var wire 1 Y" op_lui $end
$var wire 1 Z" op_op $end
$var wire 1 [" op_op_imm $end
$var wire 1 \" op_store $end
$var wire 1 ]" op_system $end
$var wire 1 ^" opcode_valid $end
$var wire 5 _" rd_mux [4:0] $end
$var wire 5 `" rs1 [4:0] $end
$var wire 5 a" rs1_mux [4:0] $end
$var wire 5 b" rs2_mux [4:0] $end
$var wire 1 c" wb_en $end
$var wire 2 d" wb_mux [1:0] $end
$var wire 5 e" rs2 [4:0] $end
$var wire 5 f" rd [4:0] $end
$var wire 1 g" quad3 $end
$var wire 5 h" opcode [4:0] $end
$var wire 32 i" immediate_u [31:0] $end
$var wire 32 j" immediate_s [31:0] $end
$var wire 32 k" immediate_j [31:0] $end
$var wire 32 l" immediate_i [31:0] $end
$var wire 32 m" immediate_b [31:0] $end
$var wire 32 n" i_opcode_in [31:0] $end
$var wire 1 o" hz_rs1 $end
$var wire 7 p" funct7 [6:0] $end
$var wire 3 q" funct3 [2:0] $end
$var wire 1 r" alu_imm $end
$var reg 32 s" immediate_mux [31:0] $end
$upscope $end
$scope module fetch_i $end
$var wire 32 t" i_br_addr [31:0] $end
$var wire 1 L i_br_en $end
$var wire 1 # i_clk $end
$var wire 1 ! i_clk_ce $end
$var wire 32 u" i_data_in [31:0] $end
$var wire 1 ' i_rst $end
$var wire 1 E o_hz_br $end
$var wire 32 v" o_id_ir [31:0] $end
$var wire 32 w" o_id_pc [31:0] $end
$var wire 32 x" o_id_ret [31:0] $end
$var wire 32 y" o_if_pc [31:0] $end
$var wire 32 z" pc_next [31:0] $end
$var wire 32 {" pc_mux [31:0] $end
$var wire 1 D i_hz_data $end
$var reg 1 |" hz_br $end
$var reg 32 }" id_ir [31:0] $end
$var reg 32 ~" id_pc [31:0] $end
$var reg 32 !# id_ret [31:0] $end
$var reg 32 "# if_pc [31:0] $end
$upscope $end
$scope module hazard_i $end
$var wire 1 ## hz_dat_rs1 $end
$var wire 1 $# hz_dat_rs2 $end
$var wire 1 %# hz_data $end
$var wire 1 d i_ex_wb_en $end
$var wire 5 &# i_ex_wb_reg [4:0] $end
$var wire 1 C i_hz_rs1 $end
$var wire 1 B i_hz_rs2 $end
$var wire 1 l i_ma_wb_en $end
$var wire 5 '# i_ma_wb_reg [4:0] $end
$var wire 5 (# i_rs1 [4:0] $end
$var wire 5 )# i_rs2 [4:0] $end
$var wire 1 r i_wb_wb_en $end
$var wire 5 *# i_wb_wb_reg [4:0] $end
$var wire 1 D o_hz_data $end
$var wire 32 +# o_rs1_d [31:0] $end
$var wire 32 ,# o_rs2_d [31:0] $end
$var wire 32 -# rs1_d [31:0] $end
$var wire 32 .# rs2_d [31:0] $end
$var wire 32 /# i_rs2_raw_d [31:0] $end
$var wire 32 0# i_rs1_raw_d [31:0] $end
$upscope $end
$scope module memory_i $end
$var wire 32 1# data_rd_short [31:0] $end
$var wire 32 2# data_rd_signed [31:0] $end
$var wire 32 3# i_data_rd [31:0] $end
$var wire 32 4# i_data_wr [31:0] $end
$var wire 2 5# i_length [1:0] $end
$var wire 2 6# i_shift [1:0] $end
$var wire 1 7# i_signed_rd $end
$var wire 32 8# o_data_rd [31:0] $end
$var wire 32 9# o_data_wr [31:0] $end
$var wire 32 :# sign_extension [31:0] $end
$var wire 1 ;# sign_bit $end
$var wire 4 <# o_we [3:0] $end
$var reg 32 =# data_rd_shift [31:0] $end
$var reg 32 ># data_wr_shift [31:0] $end
$var reg 32 ?# length_mask [31:0] $end
$var reg 4 @# we_lenght [3:0] $end
$var reg 4 A# we_shifted [3:0] $end
$upscope $end
$scope module regs_i $end
$var wire 5 B# i_addr_rd_a [4:0] $end
$var wire 5 C# i_addr_rd_b [4:0] $end
$var wire 5 D# i_addr_wr [4:0] $end
$var wire 1 ! i_ce $end
$var wire 1 J i_clk $end
$var wire 32 E# i_dat_wr [31:0] $end
$var wire 1 r i_we $end
$var wire 32 F# o_dat_rd_a [31:0] $end
$var wire 32 G# o_dat_rd_b [31:0] $end
$var reg 32 H# dat_rd_a_reg [31:0] $end
$var reg 32 I# dat_rd_b_reg [31:0] $end
$scope begin $ivl_for_loop0 $end
$var integer 32 J# i [31:0] $end
$upscope $end
$upscope $end
$upscope $end
$upscope $end
$enddefinitions $end
#0
$dumpvars
b100000 J#
bx I#
bx H#
bx G#
bx F#
bx E#
bx D#
bx C#
bx B#
bx A#
bx @#
bx ?#
bx >#
b0 =#
bx <#
0;#
b0 :#
bx 9#
b0 8#
x7#
bx 6#
bx 5#
bx 4#
b0 3#
b0 2#
b0 1#
bx 0#
bx /#
bx .#
bx -#
bx ,#
bx +#
bx *#
bx )#
bx (#
bx '#
bx &#
x%#
x$#
x##
bx "#
bx !#
bx ~"
bx }"
x|"
bx {"
bx z"
bx y"
bx x"
bx w"
bx v"
bx u"
bx t"
b0 s"
xr"
bx q"
bx p"
xo"
bx n"
bx0 m"
bx l"
bx0 k"
bx j"
bx000000000000 i"
bx h"
xg"
bx f"
bx e"
bx d"
xc"
bx b"
bx a"
bx `"
bx _"
x^"
x]"
x\"
x["
xZ"
xY"
xX"
xW"
xV"
xU"
xT"
bx S"
bx R"
bx Q"
bx P"
b0 O"
bx N"
bx M"
xL"
xK"
xJ"
xI"
bx H"
bx G"
xF"
xE"
xD"
xC"
xB"
xA"
x@"
x?"
x>"
x="
x<"
x;"
x:"
bx 9"
bx 8"
bx 7"
x6"
x5"
b0 4"
03"
b0 2"
b0 1"
b0 0"
x/"
x."
x-"
x,"
b0 +"
bx *"
bx )"
bx ("
bx '"
bx &"
bx %"
b0x $"
b0x #"
x""
0!"
b0 ~
x}
x|
bx {
bx z
bx y
bx x
bx w
bx v
bx u
bx t
bx s
xr
bx q
bx p
xo
bx n
bx m
xl
bx k
bx j
bx i
xh
bx g
bx f
bx e
xd
xc
bx b
bx a
bx `
bx _
bx ^
x]
x\
x[
bx Z
bx Y
bx X
xW
xV
xU
xT
bx S
bx R
0Q
xP
xO
bx N
xM
xL
xK
1J
xI
xH
bx G
bx F
xE
xD
xC
xB
bx A
bx @
bx ?
bx >
b0 =
x<
b0 ;
bx :
bx 9
bx 8
bx 7
bx 6
bx 5
bx 4
bx 3
bx 2
x1
x0
bx /
bx .
x-
bx ,
bx +
bx *
bx )
x(
1'
b0 &
bx %
1$
0#
bx "
1!
$end
#1
0B"
0D
0%#
1C
1o"
0##
00
0c"
0$#
0I
0K"
0H
0L"
0P
0>"
0B
0I"
0F"
0M
0?"
0<
0J"
b0 "
b0 N
b0 {
b0 '"
b0 t"
b1 :
b1 <#
b1 A#
0^"
b0 7
b0 Q"
b0 (#
b0 B#
b0 a"
b0 `"
b0 /
b0 S"
b0 d"
0X"
0["
0T"
0E"
0\"
0D"
1O
1r"
0Z"
0Y"
0A"
0K
0@"
0U"
0W"
0C"
0V"
01
0]"
0,"
b0 %"
b0 &"
b0 *"
16"
b0 z
b0 y
b0 x
b0 .
b0 )
b1 @#
b11111111 ?#
b100 {"
b0 l"
b0 j"
b0 m"
b0 k"
b0 i"
0g"
b0 F
b0 N"
b0 H"
b0 p"
b0 G
b0 M"
b0 G"
b0 q"
b0 8
b0 P"
b0 _"
b0 f"
b0 4
b0 R"
b0 )#
b0 C#
b0 b"
b0 e"
b0 h"
0L
05"
0."
0/"
0|
0-"
b0 $"
b0 #"
b0 R
b0 w
1="
b0 S
b0 v
b0 )"
0-
0(
b0 5#
17#
b0 p
b0 6#
b0 ,
b0 9
b0 9#
b0 >#
0E
0|"
b100 z"
b0 +
b0 >
b0 y"
b0 "#
b0 A
b0 n"
b0 v"
b0 }"
b0 @
b0 w"
b0 ~"
b0 ?
b0 x"
b0 !#
0c
0d
b0 e
b0 f
b0 &#
0\
0]
0}
0T
0U
0V
0[
0W
b0 `
0""
b0 Y
b0 u
b0 X
b0 t
b0 ("
b0 9"
b0 _
b0 ^
b0 Z
1<"
0;"
0:"
b0 b
b0 8"
b0 a
b0 7"
0l
b0 m
b0 n
b0 '#
0h
0o
b0 g
b0 j
b0 *
b0 i
b0 k
b0 4#
0r
b0 s
b0 *#
b0 D#
b0 q
b0 E#
0J
1#
#2
b0 3
b0 ,#
b0 .#
b0 2
b0 /#
b0 G#
b0 I#
b0 6
b0 +#
b0 -#
b0 5
b0 0#
b0 F#
b0 H#
b10000000000000001101111 %
b10000000000000001101111 u"
1J
0#
#3
0J
1#
#4
1J
0#
#5
0J
1#
#6
1J
0#
#7
0J
1#
#8
1J
0#
#9
0J
1#
#10
1J
0#
0'
#11
10
1c"
1^"
1M
1?"
b10 /
b10 S"
b10 d"
0C
0o"
1<
1J"
b100 =
b100 O"
b100 s"
1C"
1V"
b100 l"
b100 k"
b10000000000000000000000 i"
1g"
b100 4
b100 R"
b100 )#
b100 C#
b100 b"
b100 e"
b11011 h"
b1000 {"
1U
b10000000000000001101111 A
b10000000000000001101111 n"
b10000000000000001101111 v"
b10000000000000001101111 }"
b100 ?
b100 x"
b100 !#
b1000 z"
b100 +
b100 >
b100 y"
b100 "#
0J
1#
#12
b10010011 %
b10010011 u"
1J
0#
#13
10
1c"
1^"
1B"
0M
0?"
1P
1>"
b0 /
b0 S"
b0 d"
1C
1o"
0<
0J"
b100 "
b100 N
b100 {
b100 '"
b100 t"
b0 =
b0 O"
b0 s"
1["
0C"
0V"
b100 z
b100 y
b100 %"
b100 &"
b100 *"
b100 {"
b0 l"
b1 j"
b100000000000 m"
b0 k"
b0 i"
b1 8
b1 P"
b1 _"
b1 f"
b0 4
b0 R"
b0 )#
b0 C#
b0 b"
b0 e"
b100 h"
1L
15"
b1 $"
b1 #"
b100 R
b100 w
b1100 z"
b1000 +
b1000 >
b1000 y"
b1000 "#
b10010011 A
b10010011 n"
b10010011 v"
b10010011 }"
b100 @
b100 w"
b100 ~"
b1000 ?
b1000 x"
b1000 !#
1d
b10 e
1V
1[
b100 _
b100 Z
0J
1#
#14
b100010011 %
b100010011 u"
1J
0#
#15
0B"
b0 "
b0 N
b0 {
b0 '"
b0 t"
00
0c"
0P
0>"
b1000 {"
b0 z
b0 y
b0 %"
b0 &"
b0 *"
0^"
0["
b100 p
0L
05"
b0 $"
b0 #"
b0 R
b0 w
0g"
b0 h"
b0 j"
b0 m"
b0 8
b0 P"
b0 _"
b0 f"
1l
b10 m
b100 j
b100 *
b100 i
0d
b0 e
0U
0V
0[
b0 _
b0 Z
b0 A
b0 n"
b0 v"
b0 }"
b1000 @
b1000 w"
b1000 ~"
b1100 ?
b1100 x"
b1100 !#
1E
1|"
b1000 z"
b100 +
b100 >
b100 y"
b100 "#
0J
1#
#16
b10010011 %
b10010011 u"
1J
0#
#17
10
1c"
1^"
1B"
1P
1>"
1["
b1100 {"
b1 j"
b100000000000 m"
1g"
b1 8
b1 P"
b1 _"
b1 f"
b100 h"
b0 p
b1100 z"
b1000 +
b1000 >
b1000 y"
b1000 "#
0E
0|"
b10010011 A
b10010011 n"
b10010011 v"
b10010011 }"
b100 @
b100 w"
b100 ~"
b1000 ?
b1000 x"
b1000 !#
0l
b0 m
b0 j
b0 *
b0 i
1r
b100 q
b100 E#
0J
1#
#18
b100010011 %
b100010011 u"
1J
0#
#19
b10 j"
b10 m"
b10 8
b10 P"
b10 _"
b10 f"
b10000 {"
0r
b0 q
b0 E#
1d
b1 f
b1 &#
1}
1T
1U
b1000 _
b100 ^
b100010011 A
b100010011 n"
b100010011 v"
b100010011 }"
b1000 @
b1000 w"
b1000 ~"
b1100 ?
b1100 x"
b1100 !#
b10000 z"
b1100 +
b1100 >
b1100 y"
b1100 "#
0J
1#
#20
b110010011 %
b110010011 u"
1J
0#
#21
b10100 {"
b11 j"
b100000000010 m"
b11 8
b11 P"
b11 _"
b11 f"
b10100 z"
b10000 +
b10000 >
b10000 y"
b10000 "#
b110010011 A
b110010011 n"
b110010011 v"
b110010011 }"
b1100 @
b1100 w"
b1100 ~"
b10000 ?
b10000 x"
b10000 !#
b10 f
b10 &#
b1100 _
b1000 ^
1l
b1 n
b1 '#
b1000 j
0J
1#
#22
b1000010011 %
b1000010011 u"
1J
0#
#23
b100 j"
b100 m"
b100 8
b100 P"
b100 _"
b100 f"
b11000 {"
1r
b1 s
b1 *#
b1 D#
b10 n
b10 '#
b1100 j
b11 f
b11 &#
b10000 _
b1100 ^
b1000010011 A
b1000010011 n"
b1000010011 v"
b1000010011 }"
b10000 @
b10000 w"
b10000 ~"
b10100 ?
b10100 x"
b10100 !#
b11000 z"
b10100 +
b10100 >
b10100 y"
b10100 "#
0J
1#
#24
b1010010011 %
b1010010011 u"
1J
0#
#25
b11100 {"
b101 j"
b100000000100 m"
b101 8
b101 P"
b101 _"
b101 f"
b11100 z"
b11000 +
b11000 >
b11000 y"
b11000 "#
b1010010011 A
b1010010011 n"
b1010010011 v"
b1010010011 }"
b10100 @
b10100 w"
b10100 ~"
b11000 ?
b11000 x"
b11000 !#
b100 f
b100 &#
b10100 _
b10000 ^
b11 n
b11 '#
b10000 j
b10 s
b10 *#
b10 D#
0J
1#
#26
b1100010011 %
b1100010011 u"
1J
0#
#27
b110 j"
b110 m"
b110 8
b110 P"
b110 _"
b110 f"
b100000 {"
b11 s
b11 *#
b11 D#
b100 n
b100 '#
b10100 j
b101 f
b101 &#
b11000 _
b10100 ^
b1100010011 A
b1100010011 n"
b1100010011 v"
b1100010011 }"
b11000 @
b11000 w"
b11000 ~"
b11100 ?
b11100 x"
b11100 !#
b100000 z"
b11100 +
b11100 >
b11100 y"
b11100 "#
0J
1#
#28
b1110010011 %
b1110010011 u"
1J
0#
#29
b100100 {"
b111 j"
b100000000110 m"
b111 8
b111 P"
b111 _"
b111 f"
b100100 z"
b100000 +
b100000 >
b100000 y"
b100000 "#
b1110010011 A
b1110010011 n"
b1110010011 v"
b1110010011 }"
b11100 @
b11100 w"
b11100 ~"
b100000 ?
b100000 x"
b100000 !#
b110 f
b110 &#
b11100 _
b11000 ^
b101 n
b101 '#
b11000 j
b100 s
b100 *#
b100 D#
0J
1#
#30
b10000010011 %
b10000010011 u"
1J
0#
#31
b1000 j"
b1000 m"
b1000 8
b1000 P"
b1000 _"
b1000 f"
b101000 {"
b101 s
b101 *#
b101 D#
b110 n
b110 '#
b11100 j
b111 f
b111 &#
b100000 _
b11100 ^
b10000010011 A
b10000010011 n"
b10000010011 v"
b10000010011 }"
b100000 @
b100000 w"
b100000 ~"
b100100 ?
b100100 x"
b100100 !#
b101000 z"
b100100 +
b100100 >
b100100 y"
b100100 "#
0J
1#
#32
b10010010011 %
b10010010011 u"
1J
0#
#33
b101100 {"
b1001 j"
b100000001000 m"
b1001 8
b1001 P"
b1001 _"
b1001 f"
b101100 z"
b101000 +
b101000 >
b101000 y"
b101000 "#
b10010010011 A
b10010010011 n"
b10010010011 v"
b10010010011 }"
b100100 @
b100100 w"
b100100 ~"
b101000 ?
b101000 x"
b101000 !#
b1000 f
b1000 &#
b100100 _
b100000 ^
b111 n
b111 '#
b100000 j
b110 s
b110 *#
b110 D#
0J
1#
#34
b10100010011 %
b10100010011 u"
1J
0#
#35
b1010 j"
b1010 m"
b1010 8
b1010 P"
b1010 _"
b1010 f"
b110000 {"
b111 s
b111 *#
b111 D#
b1000 n
b1000 '#
b100100 j
b1001 f
b1001 &#
b101000 _
b100100 ^
b10100010011 A
b10100010011 n"
b10100010011 v"
b10100010011 }"
b101000 @
b101000 w"
b101000 ~"
b101100 ?
b101100 x"
b101100 !#
b110000 z"
b101100 +
b101100 >
b101100 y"
b101100 "#
0J
1#
#36
b10110010011 %
b10110010011 u"
1J
0#
#37
b110100 {"
b1011 j"
b100000001010 m"
b1011 8
b1011 P"
b1011 _"
b1011 f"
b110100 z"
b110000 +
b110000 >
b110000 y"
b110000 "#
b10110010011 A
b10110010011 n"
b10110010011 v"
b10110010011 }"
b101100 @
b101100 w"
b101100 ~"
b110000 ?
b110000 x"
b110000 !#
b1010 f
b1010 &#
b101100 _
b101000 ^
b1001 n
b1001 '#
b101000 j
b1000 s
b1000 *#
b1000 D#
0J
1#
#38
b11000010011 %
b11000010011 u"
1J
0#
#39
b1100 j"
b1100 m"
b1100 8
b1100 P"
b1100 _"
b1100 f"
b111000 {"
b1001 s
b1001 *#
b1001 D#
b1010 n
b1010 '#
b101100 j
b1011 f
b1011 &#
b110000 _
b101100 ^
b11000010011 A
b11000010011 n"
b11000010011 v"
b11000010011 }"
b110000 @
b110000 w"
b110000 ~"
b110100 ?
b110100 x"
b110100 !#
b111000 z"
b110100 +
b110100 >
b110100 y"
b110100 "#
0J
1#
#40
b11010010011 %
b11010010011 u"
1J
0#
#41
b111100 {"
b1101 j"
b100000001100 m"
b1101 8
b1101 P"
b1101 _"
b1101 f"
b111100 z"
b111000 +
b111000 >
b111000 y"
b111000 "#
b11010010011 A
b11010010011 n"
b11010010011 v"
b11010010011 }"
b110100 @
b110100 w"
b110100 ~"
b111000 ?
b111000 x"
b111000 !#
b1100 f
b1100 &#
b110100 _
b110000 ^
b1011 n
b1011 '#
b110000 j
b1010 s
b1010 *#
b1010 D#
0J
1#
#42
b11100010011 %
b11100010011 u"
1J
0#
#43
b1110 j"
b1110 m"
b1110 8
b1110 P"
b1110 _"
b1110 f"
b1000000 {"
b1011 s
b1011 *#
b1011 D#
b1100 n
b1100 '#
b110100 j
b1101 f
b1101 &#
b111000 _
b110100 ^
b11100010011 A
b11100010011 n"
b11100010011 v"
b11100010011 }"
b111000 @
b111000 w"
b111000 ~"
b111100 ?
b111100 x"
b111100 !#
b1000000 z"
b111100 +
b111100 >
b111100 y"
b111100 "#
0J
1#
#44
b11110010011 %
b11110010011 u"
1J
0#
#45
b1000100 {"
b1111 j"
b100000001110 m"
b1111 8
b1111 P"
b1111 _"
b1111 f"
b1000100 z"
b1000000 +
b1000000 >
b1000000 y"
b1000000 "#
b11110010011 A
b11110010011 n"
b11110010011 v"
b11110010011 }"
b111100 @
b111100 w"
b111100 ~"
b1000000 ?
b1000000 x"
b1000000 !#
b1110 f
b1110 &#
b111100 _
b111000 ^
b1101 n
b1101 '#
b111000 j
b1100 s
b1100 *#
b1100 D#
0J
1#
#46
b100000010011 %
b100000010011 u"
1J
0#
#47
b10000 j"
b10000 m"
b10000 8
b10000 P"
b10000 _"
b10000 f"
b1001000 {"
b1101 s
b1101 *#
b1101 D#
b1110 n
b1110 '#
b111100 j
b1111 f
b1111 &#
b1000000 _
b111100 ^
b100000010011 A
b100000010011 n"
b100000010011 v"
b100000010011 }"
b1000000 @
b1000000 w"
b1000000 ~"
b1000100 ?
b1000100 x"
b1000100 !#
b1001000 z"
b1000100 +
b1000100 >
b1000100 y"
b1000100 "#
0J
1#
#48
b100010010011 %
b100010010011 u"
1J
0#
#49
b1001100 {"
b10001 j"
b100000010000 m"
b10001 8
b10001 P"
b10001 _"
b10001 f"
b1001100 z"
b1001000 +
b1001000 >
b1001000 y"
b1001000 "#
b100010010011 A
b100010010011 n"
b100010010011 v"
b100010010011 }"
b1000100 @
b1000100 w"
b1000100 ~"
b1001000 ?
b1001000 x"
b1001000 !#
b10000 f
b10000 &#
b1000100 _
b1000000 ^
b1111 n
b1111 '#
b1000000 j
b1110 s
b1110 *#
b1110 D#
0J
1#
#50
b100100010011 %
b100100010011 u"
1J
0#
#51
b10010 j"
b10010 m"
b10010 8
b10010 P"
b10010 _"
b10010 f"
b1010000 {"
b1111 s
b1111 *#
b1111 D#
b10000 n
b10000 '#
b1000100 j
b10001 f
b10001 &#
b1001000 _
b1000100 ^
b100100010011 A
b100100010011 n"
b100100010011 v"
b100100010011 }"
b1001000 @
b1001000 w"
b1001000 ~"
b1001100 ?
b1001100 x"
b1001100 !#
b1010000 z"
b1001100 +
b1001100 >
b1001100 y"
b1001100 "#
0J
1#
#52
b100110010011 %
b100110010011 u"
1J
0#
#53
b1010100 {"
b10011 j"
b100000010010 m"
b10011 8
b10011 P"
b10011 _"
b10011 f"
b1010100 z"
b1010000 +
b1010000 >
b1010000 y"
b1010000 "#
b100110010011 A
b100110010011 n"
b100110010011 v"
b100110010011 }"
b1001100 @
b1001100 w"
b1001100 ~"
b1010000 ?
b1010000 x"
b1010000 !#
b10010 f
b10010 &#
b1001100 _
b1001000 ^
b10001 n
b10001 '#
b1001000 j
b10000 s
b10000 *#
b10000 D#
0J
1#
#54
b101000010011 %
b101000010011 u"
1J
0#
#55
b10100 j"
b10100 m"
b10100 8
b10100 P"
b10100 _"
b10100 f"
b1011000 {"
b10001 s
b10001 *#
b10001 D#
b10010 n
b10010 '#
b1001100 j
b10011 f
b10011 &#
b1010000 _
b1001100 ^
b101000010011 A
b101000010011 n"
b101000010011 v"
b101000010011 }"
b1010000 @
b1010000 w"
b1010000 ~"
b1010100 ?
b1010100 x"
b1010100 !#
b1011000 z"
b1010100 +
b1010100 >
b1010100 y"
b1010100 "#
0J
1#
#56
b101010010011 %
b101010010011 u"
1J
0#
#57
b1011100 {"
b10101 j"
b100000010100 m"
b10101 8
b10101 P"
b10101 _"
b10101 f"
b1011100 z"
b1011000 +
b1011000 >
b1011000 y"
b1011000 "#
b101010010011 A
b101010010011 n"
b101010010011 v"
b101010010011 }"
b1010100 @
b1010100 w"
b1010100 ~"
b1011000 ?
b1011000 x"
b1011000 !#
b10100 f
b10100 &#
b1010100 _
b1010000 ^
b10011 n
b10011 '#
b1010000 j
b10010 s
b10010 *#
b10010 D#
0J
1#
#58
b101100010011 %
b101100010011 u"
1J
0#
#59
b10110 j"
b10110 m"
b10110 8
b10110 P"
b10110 _"
b10110 f"
b1100000 {"
b10011 s
b10011 *#
b10011 D#
b10100 n
b10100 '#
b1010100 j
b10101 f
b10101 &#
b1011000 _
b1010100 ^
b101100010011 A
b101100010011 n"
b101100010011 v"
b101100010011 }"
b1011000 @
b1011000 w"
b1011000 ~"
b1011100 ?
b1011100 x"
b1011100 !#
b1100000 z"
b1011100 +
b1011100 >
b1011100 y"
b1011100 "#
0J
1#
#60
b101110010011 %
b101110010011 u"
1J
0#
#61
b1100100 {"
b10111 j"
b100000010110 m"
b10111 8
b10111 P"
b10111 _"
b10111 f"
b1100100 z"
b1100000 +
b1100000 >
b1100000 y"
b1100000 "#
b101110010011 A
b101110010011 n"
b101110010011 v"
b101110010011 }"
b1011100 @
b1011100 w"
b1011100 ~"
b1100000 ?
b1100000 x"
b1100000 !#
b10110 f
b10110 &#
b1011100 _
b1011000 ^
b10101 n
b10101 '#
b1011000 j
b10100 s
b10100 *#
b10100 D#
0J
1#
#62
b110000010011 %
b110000010011 u"
1J
0#
