hdl/tb/cpu_log.vcd
$date
	Sun Oct 23 15:34:58 2022
$end
$version
	Icarus Verilog
$end
$timescale
	1s
$end
$scope module rx_tb $end
$scope module rx_i $end
$var wire 1 ! ce_cur $end
$var wire 1 " i_ce $end
$var wire 1 # i_clk $end
$var wire 2 $ i_length [1:0] $end
$var wire 1 % i_odd $end
$var wire 1 & i_parity $end
$var wire 1 ' i_rst $end
$var wire 1 ( i_rst_err $end
$var wire 1 ) i_rx $end
$var wire 1 * i_stop2 $end
$var wire 9 + o_data [8:0] $end
$var wire 1 , o_overrun_err $end
$var wire 1 - o_parity_err $end
$var wire 4 . initial_cnt [3:0] $end
$var reg 3 / ce_cnt [2:0] $end
$var reg 1 0 ce_div_en $end
$var reg 4 1 data_cnt [3:0] $end
$var reg 1 2 data_load_cnt $end
$var reg 9 3 data_out [8:0] $end
$var reg 9 4 data_shreg [8:0] $end
$var reg 1 5 overrun $end
$var reg 3 6 state [2:0] $end
$var reg 3 7 state_next [2:0] $end
$upscope $end
$upscope $end
$enddefinitions $end
#0
$dumpvars
bx 7
bx 6
x5
bx 4
b0xxxxxx 3
x2
bx 1
x0
bx /
b110 .
z-
x,
b0xxxxxx +
0*
1)
z(
1'
0&
0%
b0 $
0#
1"
x!
$end
#1
1!
02
00
b0 7
b0 +
b0 3
b0 6
b0 /
b0 1
b0 4
0,
05
1#
#2
0#
#3
1#
#4
0#
#5
1#
#6
0#
#7
1#
#8
0#
#9
1#
#10
0#
0'
#11
1#
#12
0#
#13
1#
#14
0#
#15
1#
#16
0#
#17
1#
#18
0#
#19
1#
#20
0#
#21
1#
#22
0#
#23
1#
#24
0#
#25
1#
#26
0#
#27
1#
#28
0#
#29
1#
#30
0#
#31
1#
#32
0#
#33
1#
#34
0#
#35
1#
#36
0#
#37
1#
#38
0#
#39
1#
#40
0#
#41
1#
#42
0#
#43
1#
#44
0#
#45
1#
#46
0#
#47
1#
#48
0#
#49
1#
#50
0#
#51
1#
#52
0#
#53
1#
#54
0#
#55
1#
#56
0#
#57
1#
#58
0#
#59
1#
#60
0#
#61
1#
#62
0#
#63
1#
#64
0#
#65
1#
#66
0#
#67
1#
#68
0#
#69
1#
#70
0#
#71
1#
#72
0#
#73
1#
#74
0#
#75
1#
#76
0#
#77
1#
#78
0#
#79
1#
#80
0#
#81
1#
#82
0#
#83
1#
#84
0#
#85
1#
#86
0#
#87
1#
#88
0#
#89
1#
#90
0#
#91
1#
#92
0#
#93
1#
#94
0#
#95
1#
#96
0#
#97
1#
#98
0#
#99
1#
#100
0#
#101
1#
#102
0#
#103
1#
#104
0#
#105
1#
#106
0#
#107
1#
#108
0#
#109
1#
#110
0#
#111
1#
#112
0#
#113
1#
#114
0#
#115
1#
#116
b1 7
0#
0)
#117
b10 7
b1 6
1#
#118
0#
#119
b11 7
b10 6
1#
#120
0#
#121
12
10
b100 7
b11 6
1#
#122
0#
#123
0!
02
b110 1
b1 /
b100 6
1#
#124
0#
#125
b10 /
1#
#126
0#
#127
b11 /
1#
#128
0#
#129
b100 /
1#
#130
0#
#131
b101 /
1#
#132
0#
1)
#133
b110 /
1#
#134
0#
#135
b111 /
1#
#136
0#
#137
1!
b0 /
1#
#138
0#
#139
b100000 +
b100000 3
0!
b101 1
b100000000 4
b1 /
1#
#140
0#
#141
b10 /
1#
#142
0#
#143
b11 /
1#
#144
0#
#145
b100 /
1#
#146
0#
#147
b101 /
1#
#148
0#
0)
#149
b110 /
1#
#150
0#
#151
b111 /
1#
#152
0#
#153
1!
b0 /
1#
#154
0#
#155
b10000 +
b10000 3
0!
b100 1
b10000000 4
b1 /
1#
#156
0#
#157
b10 /
1#
#158
0#
#159
b11 /
1#
#160
0#
#161
b100 /
1#
#162
0#
#163
b101 /
1#
#164
0#
#165
b110 /
1#
#166
0#
#167
b111 /
1#
#168
0#
#169
1!
b0 /
1#
#170
0#
#171
b1000 +
b1000 3
0!
b11 1
b1000000 4
b1 /
1#
#172
0#
#173
b10 /
1#
#174
0#
#175
b11 /
1#
#176
0#
#177
b100 /
1#
#178
0#
#179
b101 /
1#
#180
0#
#181
b110 /
1#
#182
0#
#183
b111 /
1#
#184
0#
#185
1!
b0 /
1#
#186
0#
#187
b100 +
b100 3
0!
b10 1
b100000 4
b1 /
1#
#188
0#
#189
b10 /
1#
#190
0#
#191
b11 /
1#
#192
0#
#193
b100 /
1#
#194
0#
#195
b101 /
1#
#196
0#
#197
b110 /
1#
#198
0#
#199
b111 /
1#
#200
0#
#201
1!
b0 /
1#
#202
0#
#203
b10 +
b10 3
0!
b1 1
b10000 4
b1 /
1#
#204
0#
#205
b10 /
1#
#206
0#
#207
b11 /
1#
#208
0#
#209
b100 /
1#
#210
0#
#211
b101 /
1#
#212
0#
#213
b110 /
1#
#214
0#
#215
b111 /
1#
#216
0#
#217
1!
b0 /
1#
#218
0#
#219
b111 7
b1 +
b1 3
0!
b0 1
b1000 4
b1 /
1#
#220
0#
#221
b10 /
1#
#222
0#
#223
b11 /
1#
#224
0#
#225
b100 /
1#
#226
0#
#227
b101 /
1#
#228
0#
#229
b110 /
1#
#230
0#
#231
b111 /
1#
#232
0#
#233
1!
b0 /
1#
#234
0#
#235
0!
b0 7
b1 /
b111 6
1#
#236
0#
#237
b10 /
1#
#238
0#
#239
b11 /
1#
#240
0#
#241
b100 /
1#
#242
0#
#243
b101 /
1#
#244
0#
1)
#245
b110 /
1#
#246
0#
#247
b111 /
1#
#248
0#
#249
1!
b0 /
1#
#250
0#
#251
0!
00
b1 /
b0 6
1#
#252
0#
#253
1!
b0 /
1#
