hdl/tb/cpu_log.vcd
$date
	Sun Sep 11 18:10:40 2022
$end
$version
	Icarus Verilog
$end
$timescale
	1s
$end
$scope module cpu_tb $end
$scope module DUT $end
$var wire 1 ! clk_ce $end
$var wire 32 " ex_res_dat [31:0] $end
$var wire 1 # i_clk $end
$var wire 32 $ i_data_in_i [31:0] $end
$var wire 32 % i_data_rd_d [31:0] $end
$var wire 1 & i_rst $end
$var wire 1 ' i_valid_d $end
$var wire 1 ( i_valid_i $end
$var wire 1 ) ma_rd_en $end
$var wire 4 * ma_wr_en [3:0] $end
$var wire 32 + o_addr_d [31:0] $end
$var wire 32 , o_addr_i [31:0] $end
$var wire 32 - o_data_wr_d [31:0] $end
$var wire 1 . o_rd_d $end
$var wire 4 / o_wr_d [3:0] $end
$var wire 2 0 wb_mux [1:0] $end
$var wire 1 1 wb_en $end
$var wire 1 2 system $end
$var wire 32 3 rs2_raw_d [31:0] $end
$var wire 32 4 rs2_d [31:0] $end
$var wire 5 5 rs2 [4:0] $end
$var wire 32 6 rs1_raw_d [31:0] $end
$var wire 32 7 rs1_d [31:0] $end
$var wire 5 8 rs1 [4:0] $end
$var wire 5 9 rd [4:0] $end
$var wire 32 : ma_wr_dat [31:0] $end
$var wire 4 ; ma_we [3:0] $end
$var wire 32 < ma_rd_dat [31:0] $end
$var wire 1 = jump $end
$var wire 32 > immediate [31:0] $end
$var wire 32 ? if_pc [31:0] $end
$var wire 32 @ id_ret [31:0] $end
$var wire 32 A id_pc [31:0] $end
$var wire 32 B id_ir [31:0] $end
$var wire 1 C hz_rs2 $end
$var wire 1 D hz_rs1 $end
$var wire 1 E hz_data $end
$var wire 1 F hz_br $end
$var wire 7 G funct7 [6:0] $end
$var wire 3 H funct3 [2:0] $end
$var wire 1 I d_wr $end
$var wire 1 J d_rd $end
$var wire 1 K clk_n $end
$var wire 1 L branch $end
$var wire 1 M br_en $end
$var wire 1 N alu_pc $end
$var wire 32 O alu_out [31:0] $end
$var wire 1 P alu_imm $end
$var wire 1 Q alu_en $end
$var wire 1 R alu_busy $end
$var wire 32 S alu_b_mux [31:0] $end
$var wire 32 T alu_a_mux [31:0] $end
$var reg 1 U ex_alu_en $end
$var reg 1 V ex_alu_imm $end
$var reg 1 W ex_alu_pc $end
$var reg 1 X ex_branch $end
$var reg 3 Y ex_funct3 [2:0] $end
$var reg 7 Z ex_funct7 [6:0] $end
$var reg 32 [ ex_imm [31:0] $end
$var reg 1 \ ex_jump $end
$var reg 1 ] ex_ma_rd $end
$var reg 1 ^ ex_ma_wr $end
$var reg 32 _ ex_pc [31:0] $end
$var reg 32 ` ex_ret [31:0] $end
$var reg 5 a ex_rs1 [4:0] $end
$var reg 32 b ex_rs1_d [31:0] $end
$var reg 32 c ex_rs2_d [31:0] $end
$var reg 1 d ex_system $end
$var reg 1 e ex_wb_en $end
$var reg 2 f ex_wb_mux [1:0] $end
$var reg 5 g ex_wb_reg [4:0] $end
$var reg 3 h ma_funct3 [2:0] $end
$var reg 1 ) ma_rd $end
$var reg 32 i ma_res [31:0] $end
$var reg 32 j ma_ret [31:0] $end
$var reg 32 k ma_rs2_d [31:0] $end
$var reg 1 l ma_wb_en $end
$var reg 2 m ma_wb_mux [1:0] $end
$var reg 5 n ma_wb_reg [4:0] $end
$var reg 1 o ma_wr $end
$var reg 32 p wb_dat_mux [31:0] $end
$var reg 32 q wb_wb_d [31:0] $end
$var reg 1 r wb_wb_en $end
$var reg 5 s wb_wb_reg [4:0] $end
$scope module alu_i $end
$var wire 1 U i_alu_en $end
$var wire 1 V i_alu_imm $end
$var wire 1 K i_clk_n $end
$var wire 3 t i_funct3 [2:0] $end
$var wire 7 u i_funct7 [6:0] $end
$var wire 32 v i_in_a [31:0] $end
$var wire 32 w i_in_b [31:0] $end
$var wire 1 & i_rst $end
$var wire 32 x logic_and [31:0] $end
$var wire 32 y logic_or [31:0] $end
$var wire 32 z logic_xor [31:0] $end
$var wire 32 { o_alu_out [31:0] $end
$var wire 1 R o_busy $end
$var wire 1 | op_subtract $end
$var wire 1 } shift_en $end
$var wire 32 ~ shift_result [31:0] $end
$var wire 1 !" shift_busy $end
$var wire 1 "" funct7_5 $end
$var wire 32 #" comp_u [31:0] $end
$var wire 32 $" comp [31:0] $end
$var wire 32 %" adder_out [31:0] $end
$var wire 32 &" adder_in_b [31:0] $end
$var reg 32 '" mux [31:0] $end
$scope module shifter_i $end
$var wire 1 K i_clk_n $end
$var wire 3 (" i_funct3 [2:0] $end
$var wire 32 )" i_in_a [31:0] $end
$var wire 5 *" i_in_b [4:0] $end
$var wire 1 "" i_op_alt $end
$var wire 1 } i_shift_en $end
$var wire 32 +" o_result [31:0] $end
$var wire 1 ," op_shift $end
$var wire 1 -" op_sll $end
$var wire 1 ." op_sra $end
$var wire 1 /" op_srl $end
$var wire 32 0" shift_right [31:0] $end
$var wire 32 1" shift_left [31:0] $end
$var wire 1 !" o_busy $end
$var reg 5 2" shift_amount [4:0] $end
$var reg 1 3" shift_dir_left $end
$var reg 32 4" shift_result [31:0] $end
$upscope $end
$upscope $end
$scope module branch_i $end
$var wire 1 5" br_en $end
$var wire 1 6" condition $end
$var wire 1 X i_branch $end
$var wire 32 7" i_dat_a [31:0] $end
$var wire 32 8" i_dat_b [31:0] $end
$var wire 3 9" i_funct3 [2:0] $end
$var wire 1 \ i_jump $end
$var wire 1 M o_br_en $end
$var wire 1 :" lower_u $end
$var wire 1 ;" lower $end
$var wire 1 <" equal $end
$var reg 1 =" condition_mux $end
$upscope $end
$scope module decoder_i $end
$var wire 1 >" alu_en $end
$var wire 1 ?" alu_pc $end
$var wire 1 @" branch $end
$var wire 1 A" format_b $end
$var wire 1 B" format_i $end
$var wire 1 C" format_j $end
$var wire 1 D" format_r $end
$var wire 1 E" format_s $end
$var wire 1 F" format_u $end
$var wire 1 G" hz_rs2 $end
$var wire 1 H" jump $end
$var wire 1 I" ma_rd $end
$var wire 1 J" ma_wr $end
$var wire 1 Q o_alu_en $end
$var wire 1 P o_alu_imm $end
$var wire 1 N o_alu_pc $end
$var wire 1 L o_branch $end
$var wire 3 K" o_funct3 [2:0] $end
$var wire 7 L" o_funct7 [6:0] $end
$var wire 1 D o_hz_rs1 $end
$var wire 1 C o_hz_rs2 $end
$var wire 32 M" o_immediate [31:0] $end
$var wire 1 = o_jump $end
$var wire 1 J o_ma_rd $end
$var wire 1 I o_ma_wr $end
$var wire 5 N" o_opcode [4:0] $end
$var wire 5 O" o_rd [4:0] $end
$var wire 5 P" o_rs1 [4:0] $end
$var wire 5 Q" o_rs2 [4:0] $end
$var wire 1 2 o_system $end
$var wire 1 1 o_wb_en $end
$var wire 2 R" o_wb_mux [1:0] $end
$var wire 1 S" opcode_valid $end
$var wire 5 T" rs1 [4:0] $end
$var wire 1 U" wb_en $end
$var wire 2 V" wb_mux [1:0] $end
$var wire 5 W" rs2 [4:0] $end
$var wire 5 X" rd [4:0] $end
$var wire 5 Y" opcode [4:0] $end
$var wire 1 Z" op_system $end
$var wire 1 [" op_store $end
$var wire 1 \" op_op_imm $end
$var wire 1 ]" op_op $end
$var wire 1 ^" op_lui $end
$var wire 1 _" op_load $end
$var wire 1 `" op_jalr $end
$var wire 1 a" op_jal $end
$var wire 1 b" op_branch $end
$var wire 1 c" op_auipc $end
$var wire 32 d" immediate_u [31:0] $end
$var wire 32 e" immediate_s [31:0] $end
$var wire 32 f" immediate_j [31:0] $end
$var wire 32 g" immediate_i [31:0] $end
$var wire 32 h" immediate_b [31:0] $end
$var wire 32 i" i_opcode_in [31:0] $end
$var wire 1 j" hz_rs1 $end
$var wire 7 k" funct7 [6:0] $end
$var wire 3 l" funct3 [2:0] $end
$var wire 1 m" alu_imm $end
$var reg 32 n" immediate_mux [31:0] $end
$upscope $end
$scope module fetch_i $end
$var wire 32 o" data_t0 [31:0] $end
$var wire 32 p" i_br_addr [31:0] $end
$var wire 1 M i_br_en $end
$var wire 1 # i_clk $end
$var wire 1 ! i_clk_ce $end
$var wire 32 q" i_data_in [31:0] $end
$var wire 1 & i_rst $end
$var wire 32 r" o_id_ir [31:0] $end
$var wire 32 s" o_id_pc [31:0] $end
$var wire 32 t" o_id_ret [31:0] $end
$var wire 32 u" o_if_pc [31:0] $end
$var wire 1 v" pc_next_c $end
$var wire 32 w" pc_t0 [31:0] $end
$var wire 1 x" t2_en $end
$var wire 1 y" valid_o_t1 $end
$var wire 1 z" valid_out $end
$var wire 1 {" valid_o_t2 $end
$var wire 32 |" ret_out [31:0] $end
$var wire 32 }" pc_out [31:0] $end
$var wire 32 ~" pc_next [31:0] $end
$var wire 32 !# pc_mux [31:0] $end
$var wire 1 F o_hz_br $end
$var wire 1 E i_hz_data $end
$var wire 1 "# data_t0_cl $end
$var wire 1 ## data_t0_ch $end
$var wire 32 $# data_out [31:0] $end
$var wire 32 %# data_o_t2 [31:0] $end
$var wire 32 &# data_o_t1 [31:0] $end
$var wire 1 '# c_data_t1_1 $end
$var reg 32 (# data_t1 [31:0] $end
$var reg 32 )# data_t2 [31:0] $end
$var reg 32 *# if_pc [31:0] $end
$var reg 32 +# pc_t1 [31:0] $end
$var reg 32 ,# pc_t2 [31:0] $end
$var reg 32 -# ret_t1 [31:0] $end
$var reg 32 .# ret_t2 [31:0] $end
$var reg 1 /# t2_mode $end
$var reg 1 0# valid_t1 $end
$var reg 1 {" valid_t2 $end
$upscope $end
$scope module hazard_i $end
$var wire 1 1# hz_dat_rs1 $end
$var wire 1 2# hz_dat_rs2 $end
$var wire 1 3# hz_data $end
$var wire 32 4# i_ex_ret [31:0] $end
$var wire 1 e i_ex_wb_en $end
$var wire 2 5# i_ex_wb_mux [1:0] $end
$var wire 5 6# i_ex_wb_reg [4:0] $end
$var wire 1 D i_hz_rs1 $end
$var wire 1 C i_hz_rs2 $end
$var wire 32 7# i_ma_res [31:0] $end
$var wire 32 8# i_ma_ret [31:0] $end
$var wire 1 l i_ma_wb_en $end
$var wire 2 9# i_ma_wb_mux [1:0] $end
$var wire 5 :# i_ma_wb_reg [4:0] $end
$var wire 5 ;# i_rs1 [4:0] $end
$var wire 5 <# i_rs2 [4:0] $end
$var wire 32 =# i_wb_wb_d [31:0] $end
$var wire 1 r i_wb_wb_en $end
$var wire 5 ># i_wb_wb_reg [4:0] $end
$var wire 1 E o_hz_data $end
$var wire 32 ?# o_rs1_d [31:0] $end
$var wire 32 @# o_rs2_d [31:0] $end
$var wire 32 A# rs1_d [31:0] $end
$var wire 32 B# rs2_d [31:0] $end
$var wire 32 C# i_rs2_raw_d [31:0] $end
$var wire 32 D# i_rs1_raw_d [31:0] $end
$var wire 32 E# i_ma_rd_dat [31:0] $end
$upscope $end
$scope module memory_i $end
$var wire 32 F# data_rd_short [31:0] $end
$var wire 32 G# data_rd_signed [31:0] $end
$var wire 32 H# i_data_rd [31:0] $end
$var wire 32 I# i_data_wr [31:0] $end
$var wire 2 J# i_length [1:0] $end
$var wire 2 K# i_shift [1:0] $end
$var wire 1 L# i_signed_rd $end
$var wire 32 M# o_data_rd [31:0] $end
$var wire 32 N# o_data_wr [31:0] $end
$var wire 32 O# sign_extension [31:0] $end
$var wire 1 P# sign_bit $end
$var wire 4 Q# o_we [3:0] $end
$var reg 32 R# data_rd_shift [31:0] $end
$var reg 32 S# data_wr_shift [31:0] $end
$var reg 32 T# length_mask [31:0] $end
$var reg 4 U# we_lenght [3:0] $end
$var reg 4 V# we_shifted [3:0] $end
$upscope $end
$scope module regs_i $end
$var wire 5 W# i_addr_rd_a [4:0] $end
$var wire 5 X# i_addr_rd_b [4:0] $end
$var wire 5 Y# i_addr_wr [4:0] $end
$var wire 1 ! i_ce $end
$var wire 1 K i_clk $end
$var wire 32 Z# i_dat_wr [31:0] $end
$var wire 1 r i_we $end
$var wire 32 [# o_dat_rd_a [31:0] $end
$var wire 32 \# o_dat_rd_b [31:0] $end
$var reg 32 ]# dat_rd_a_reg [31:0] $end
$var reg 32 ^# dat_rd_b_reg [31:0] $end
$scope begin $ivl_for_loop0 $end
$var integer 32 _# i [31:0] $end
$upscope $end
$upscope $end
$upscope $end
$upscope $end
$enddefinitions $end
#0
$dumpvars
b100000 _#
bx ^#
bx ]#
bx \#
bx [#
bx Z#
bx Y#
bx X#
bx W#
bx V#
bx U#
bx T#
bx S#
b0 R#
bx Q#
0P#
b0 O#
bx N#
b0 M#
xL#
bx K#
bx J#
bx I#
b0 H#
b0 G#
b0 F#
b0 E#
bx D#
bx C#
bx B#
bx A#
bx @#
bx ?#
bx >#
bx =#
bx <#
bx ;#
bx :#
bx 9#
bx 8#
bx 7#
bx 6#
bx 5#
bx 4#
x3#
x2#
x1#
x0#
x/#
bx .#
bx -#
bx ,#
bx +#
bx *#
bx )#
bx (#
x'#
bx &#
bx %#
bx $#
x##
x"#
bx !#
bx ~"
bx }"
bx |"
x{"
xz"
xy"
xx"
bx w"
xv"
bx u"
bx t"
bx s"
bx r"
bx q"
bx p"
bx o"
b0 n"
xm"
bx l"
bx k"
xj"
bx i"
bx0 h"
bx g"
bx0 f"
bx e"
bx000000000000 d"
xc"
xb"
xa"
x`"
x_"
x^"
x]"
x\"
x["
xZ"
bx Y"
bx X"
bx W"
bx V"
xU"
bx T"
xS"
bx R"
bx Q"
bx P"
bx O"
bx N"
b0 M"
bx L"
bx K"
xJ"
xI"
xH"
xG"
xF"
xE"
xD"
xC"
xB"
xA"
x@"
x?"
x>"
x="
x<"
x;"
x:"
bx 9"
bx 8"
bx 7"
x6"
x5"
b0 4"
03"
b0 2"
b0 1"
b0 0"
x/"
x."
x-"
x,"
b0 +"
bx *"
bx )"
bx ("
bx '"
bx &"
bx %"
b0x $"
b0x #"
x""
0!"
b0 ~
x}
x|
bx {
bx z
bx y
bx x
bx w
bx v
bx u
bx t
bx s
xr
bx q
bx p
xo
bx n
bx m
xl
bx k
bx j
bx i
bx h
bx g
bx f
xe
xd
bx c
bx b
bx a
bx `
bx _
x^
x]
x\
bx [
bx Z
bx Y
xX
xW
xV
xU
bx T
bx S
0R
xQ
xP
bx O
xN
xM
xL
1K
xJ
xI
bx H
bx G
xF
xE
xD
xC
bx B
bx A
bx @
bx ?
b0 >
x=
b0 <
bx ;
bx :
bx 9
bx 8
bx 7
bx 6
bx 5
bx 4
bx 3
x2
x1
bx 0
bx /
x.
bx -
bx ,
bx +
bx *
x)
1(
1'
1&
b0 %
bx $
0#
bx "
1!
$end
#1
0E
03#
1B"
01#
0J
0I"
1D
1j"
01
0U"
0S"
0I
0J"
0C
0G"
0Q
0>"
0F"
0N
0?"
0=
0H"
02#
b0 H
b0 K"
b0 l"
b0 9
b0 O"
b0 X"
b1 0
b1 R"
b1 V"
1_"
0\"
0c"
0E"
0["
1P
1m"
0D"
0]"
0^"
0L
0@"
0A"
0b"
0`"
0C"
0a"
02
0Z"
b0 N"
b0 Y"
b0 8
b0 P"
b0 ;#
b0 W#
b0 T"
b0 "
b0 O
b0 {
b0 '"
b0 p"
b1 ;
b1 Q#
b1 V#
b0 g"
b0 e"
b0 h"
b0 f"
b0 d"
b0 G
b0 L"
b0 k"
b0 5
b0 Q"
b0 <#
b0 X#
b0 W"
0x"
0,"
b0 %"
b0 &"
b0 *"
16"
b0 z
b0 y
b0 x
b1 U#
b11111111 T#
b0 B
b0 i"
b0 r"
b0 $#
b0 @
b0 t"
b0 |"
b0 A
b0 s"
b0 }"
1F
0z"
0y"
b0 %#
1'#
b0 &#
0M
05"
0."
0/"
0|
0-"
b0 $"
b0 #"
b0 S
b0 w
1="
b0 T
b0 v
b0 )"
b0 /
b0 *
b0 J#
1L#
b0 K#
b0 p
b0 -
b0 :
b0 N#
b0 S#
b0 ,
b0 ?
b0 u"
b0 w"
b0 *#
0/#
b0 .#
b0 -#
b0 ,#
b0 +#
0{"
00#
b0 )#
b0 (#
0d
0e
b0 f
b0 5#
b0 g
b0 6#
0]
0^
0}
0U
0V
0W
0\
0X
b0 a
0""
b0 Z
b0 u
b0 Y
b0 t
b0 ("
b0 9"
b0 `
b0 4#
b0 _
b0 [
1<"
0;"
0:"
b0 c
b0 8"
b0 b
b0 7"
0l
b0 m
b0 9#
b0 n
b0 :#
0.
0)
0o
b0 h
b0 j
b0 8#
b0 +
b0 i
b0 7#
b0 k
b0 I#
0r
b0 s
b0 >#
b0 Y#
b0 q
b0 =#
b0 Z#
0K
1#
#2
b100 !#
b100 ~"
0v"
0"#
1##
b0 4
b0 @#
b0 B#
b0 3
b0 C#
b0 \#
b0 ^#
b0 7
b0 ?#
b0 A#
b0 6
b0 D#
b0 [#
b0 ]#
b10000000000000001101111 o"
b10000000000000001101111 $
b10000000000000001101111 q"
1K
0#
#3
0K
1#
#4
1K
0#
#5
0K
1#
#6
1K
0#
#7
0K
1#
#8
1K
0#
#9
0K
1#
#10
1K
0#
0&
#11
0B"
11
1U"
1N
1?"
1S"
0D
0j"
1=
1H"
b100 >
b100 M"
b100 n"
b100 g"
b100 f"
b10000000000000000000000 d"
b100 5
b100 Q"
b100 <#
b100 X#
b100 W"
b10 0
b10 R"
b10 V"
0_"
1C"
1a"
b11011 N"
b11011 Y"
0F
1z"
b10000000000000001101111 B
b10000000000000001101111 i"
b10000000000000001101111 r"
b10000000000000001101111 $#
b100 @
b100 t"
b100 |"
1y"
b10000000000000001101111 &#
b1000 !#
b100 -#
10#
b10000000000000001101111 (#
b100 ,
b100 ?
b100 u"
b1000 ~"
b100 w"
b100 *#
0K
1#
#12
b10010011 o"
b10010011 $
b10010011 q"
1K
0#
#13
11
1U"
1S"
1B"
0N
0?"
1Q
1>"
1D
1j"
b0 0
b0 R"
b0 V"
0=
0H"
b0 >
b0 M"
b0 n"
b0 g"
b1 e"
b100000000000 h"
b0 f"
b0 d"
b1 9
b1 O"
b1 X"
b0 5
b0 Q"
b0 <#
b0 X#
b0 W"
1\"
0C"
0a"
b100 N"
b100 Y"
b100 "
b100 O
b100 {
b100 '"
b100 p"
b10010011 B
b10010011 i"
b10010011 r"
b10010011 $#
b100 z
b100 y
b100 %"
b100 &"
b100 *"
b100 !#
b1000 @
b1000 t"
b1000 |"
b100 A
b100 s"
b100 }"
b10000000000000001101111 %#
b10010011 &#
b1 $"
b1 #"
b100 S
b100 w
1M
15"
b1000 ,
b1000 ?
b1000 u"
b1100 ~"
b1000 w"
b1000 *#
b100 .#
b1000 -#
b100 +#
1{"
b10000000000000001101111 )#
b10010011 (#
1e
b10 f
b10 5#
1V
1W
1\
b100 `
b100 4#
b100 [
0K
1#
#14
b100010011 o"
b100010011 $
b100010011 q"
1K
0#
#15
01
0U"
0S"
0J
0I"
0Q
0>"
b0 "
b0 O
b0 {
b0 '"
b0 p"
b0 e"
b0 h"
b0 9
b0 O"
b0 X"
b1 0
b1 R"
b1 V"
1_"
0\"
b0 N"
b0 Y"
b1000 !#
b0 z
b0 y
b0 %"
b0 &"
b0 *"
1F
0z"
b0 B
b0 i"
b0 r"
b0 $#
b100 p
0M
05"
b0 $"
b0 #"
b0 S
b0 w
0y"
b1100 @
b1100 t"
b1100 |"
b1000 A
b1000 s"
b1000 }"
b0 %#
b0 &#
1l
b10 m
b10 9#
b100 j
b100 8#
b100 +
b100 i
b100 7#
0e
b0 f
b0 5#
0V
0W
0\
b0 `
b0 4#
b0 [
0{"
00#
b1000 .#
b1100 -#
b100 ,#
b1000 +#
b0 )#
b0 (#
b100 ,
b100 ?
b100 u"
b1000 ~"
b100 w"
b100 *#
0K
1#
#16
b10010011 o"
b10010011 $
b10010011 q"
1K
0#
#17
11
1U"
1S"
1Q
1>"
b1 e"
b100000000000 h"
b1 9
b1 O"
b1 X"
b0 0
b0 R"
b0 V"
0_"
1\"
b100 N"
b100 Y"
0F
1z"
b10010011 B
b10010011 i"
b10010011 r"
b10010011 $#
b1100 !#
b1000 @
b1000 t"
b1000 |"
b100 A
b100 s"
b100 }"
1y"
b10010011 &#
b0 p
b1000 ,
b1000 ?
b1000 u"
b1100 ~"
b1000 w"
b1000 *#
b1100 .#
b1000 -#
b1000 ,#
b100 +#
10#
b10010011 (#
0l
b0 m
b0 9#
b0 j
b0 8#
b0 +
b0 i
b0 7#
1r
b100 q
b100 =#
b100 Z#
0K
1#
#18
b100010011 o"
b100010011 $
b100010011 q"
1K
0#
#19
b10 e"
b10 h"
b10 9
b10 O"
b10 X"
b100010011 B
b100010011 i"
b100010011 r"
b100010011 $#
b1100 @
b1100 t"
b1100 |"
b1000 A
b1000 s"
b1000 }"
b10010011 %#
b100010011 &#
b10000 !#
0r
b0 q
b0 =#
b0 Z#
1e
b1 g
b1 6#
1}
1U
1V
b1000 `
b1000 4#
b100 _
b1000 .#
b1100 -#
b100 ,#
b1000 +#
1{"
b10010011 )#
b100010011 (#
b1100 ,
b1100 ?
b1100 u"
b10000 ~"
b1100 w"
b1100 *#
0K
1#
#20
b110010011 o"
b110010011 $
b110010011 q"
1K
0#
#21
b11 e"
b100000000010 h"
b11 9
b11 O"
b11 X"
b110010011 B
b110010011 i"
b110010011 r"
b110010011 $#
b10100 !#
b10000 @
b10000 t"
b10000 |"
b1100 A
b1100 s"
b1100 }"
b100010011 %#
b110010011 &#
b10000 ,
b10000 ?
b10000 u"
b10100 ~"
b10000 w"
b10000 *#
b1100 .#
b10000 -#
b1000 ,#
b1100 +#
b100010011 )#
b110010011 (#
b10 g
b10 6#
b1100 `
b1100 4#
b1000 _
1l
b1 n
b1 :#
b1000 j
b1000 8#
0K
1#
#22
b1000010011 o"
b1000010011 $
b1000010011 q"
1K
0#
#23
b100 e"
b100 h"
b100 9
b100 O"
b100 X"
b1000010011 B
b1000010011 i"
b1000010011 r"
b1000010011 $#
b10100 @
b10100 t"
b10100 |"
b10000 A
b10000 s"
b10000 }"
b110010011 %#
b1000010011 &#
b11000 !#
1r
b1 s
b1 >#
b1 Y#
b10 n
b10 :#
b1100 j
b1100 8#
b11 g
b11 6#
b10000 `
b10000 4#
b1100 _
b10000 .#
b10100 -#
b1100 ,#
b10000 +#
b110010011 )#
b1000010011 (#
b10100 ,
b10100 ?
b10100 u"
b11000 ~"
b10100 w"
b10100 *#
0K
1#
#24
b1010010011 o"
b1010010011 $
b1010010011 q"
1K
0#
#25
b101 e"
b100000000100 h"
b101 9
b101 O"
b101 X"
b1010010011 B
b1010010011 i"
b1010010011 r"
b1010010011 $#
b11100 !#
b11000 @
b11000 t"
b11000 |"
b10100 A
b10100 s"
b10100 }"
b1000010011 %#
b1010010011 &#
b11000 ,
b11000 ?
b11000 u"
b11100 ~"
b11000 w"
b11000 *#
b10100 .#
b11000 -#
b10000 ,#
b10100 +#
b1000010011 )#
b1010010011 (#
b100 g
b100 6#
b10100 `
b10100 4#
b10000 _
b11 n
b11 :#
b10000 j
b10000 8#
b10 s
b10 >#
b10 Y#
0K
1#
#26
b1100010011 o"
b1100010011 $
b1100010011 q"
1K
0#
#27
b110 e"
b110 h"
b110 9
b110 O"
b110 X"
b1100010011 B
b1100010011 i"
b1100010011 r"
b1100010011 $#
b11100 @
b11100 t"
b11100 |"
b11000 A
b11000 s"
b11000 }"
b1010010011 %#
b1100010011 &#
b100000 !#
b11 s
b11 >#
b11 Y#
b100 n
b100 :#
b10100 j
b10100 8#
b101 g
b101 6#
b11000 `
b11000 4#
b10100 _
b11000 .#
b11100 -#
b10100 ,#
b11000 +#
b1010010011 )#
b1100010011 (#
b11100 ,
b11100 ?
b11100 u"
b100000 ~"
b11100 w"
b11100 *#
0K
1#
#28
b1110010011 o"
b1110010011 $
b1110010011 q"
1K
0#
#29
b111 e"
b100000000110 h"
b111 9
b111 O"
b111 X"
b1110010011 B
b1110010011 i"
b1110010011 r"
b1110010011 $#
b100100 !#
b100000 @
b100000 t"
b100000 |"
b11100 A
b11100 s"
b11100 }"
b1100010011 %#
b1110010011 &#
b100000 ,
b100000 ?
b100000 u"
b100100 ~"
b100000 w"
b100000 *#
b11100 .#
b100000 -#
b11000 ,#
b11100 +#
b1100010011 )#
b1110010011 (#
b110 g
b110 6#
b11100 `
b11100 4#
b11000 _
b101 n
b101 :#
b11000 j
b11000 8#
b100 s
b100 >#
b100 Y#
0K
1#
#30
b10000010011 o"
b10000010011 $
b10000010011 q"
1K
0#
#31
b1000 e"
b1000 h"
b1000 9
b1000 O"
b1000 X"
b10000010011 B
b10000010011 i"
b10000010011 r"
b10000010011 $#
b100100 @
b100100 t"
b100100 |"
b100000 A
b100000 s"
b100000 }"
b1110010011 %#
b10000010011 &#
b101000 !#
b101 s
b101 >#
b101 Y#
b110 n
b110 :#
b11100 j
b11100 8#
b111 g
b111 6#
b100000 `
b100000 4#
b11100 _
b100000 .#
b100100 -#
b11100 ,#
b100000 +#
b1110010011 )#
b10000010011 (#
b100100 ,
b100100 ?
b100100 u"
b101000 ~"
b100100 w"
b100100 *#
0K
1#
#32
b10010010011 o"
b10010010011 $
b10010010011 q"
1K
0#
#33
b1001 e"
b100000001000 h"
b1001 9
b1001 O"
b1001 X"
b10010010011 B
b10010010011 i"
b10010010011 r"
b10010010011 $#
b101100 !#
b101000 @
b101000 t"
b101000 |"
b100100 A
b100100 s"
b100100 }"
b10000010011 %#
b10010010011 &#
b101000 ,
b101000 ?
b101000 u"
b101100 ~"
b101000 w"
b101000 *#
b100100 .#
b101000 -#
b100000 ,#
b100100 +#
b10000010011 )#
b10010010011 (#
b1000 g
b1000 6#
b100100 `
b100100 4#
b100000 _
b111 n
b111 :#
b100000 j
b100000 8#
b110 s
b110 >#
b110 Y#
0K
1#
#34
b10100010011 o"
b10100010011 $
b10100010011 q"
1K
0#
#35
b1010 e"
b1010 h"
b1010 9
b1010 O"
b1010 X"
b10100010011 B
b10100010011 i"
b10100010011 r"
b10100010011 $#
b101100 @
b101100 t"
b101100 |"
b101000 A
b101000 s"
b101000 }"
b10010010011 %#
b10100010011 &#
b110000 !#
b111 s
b111 >#
b111 Y#
b1000 n
b1000 :#
b100100 j
b100100 8#
b1001 g
b1001 6#
b101000 `
b101000 4#
b100100 _
b101000 .#
b101100 -#
b100100 ,#
b101000 +#
b10010010011 )#
b10100010011 (#
b101100 ,
b101100 ?
b101100 u"
b110000 ~"
b101100 w"
b101100 *#
0K
1#
#36
b10110010011 o"
b10110010011 $
b10110010011 q"
1K
0#
#37
b1011 e"
b100000001010 h"
b1011 9
b1011 O"
b1011 X"
b10110010011 B
b10110010011 i"
b10110010011 r"
b10110010011 $#
b110100 !#
b110000 @
b110000 t"
b110000 |"
b101100 A
b101100 s"
b101100 }"
b10100010011 %#
b10110010011 &#
b110000 ,
b110000 ?
b110000 u"
b110100 ~"
b110000 w"
b110000 *#
b101100 .#
b110000 -#
b101000 ,#
b101100 +#
b10100010011 )#
b10110010011 (#
b1010 g
b1010 6#
b101100 `
b101100 4#
b101000 _
b1001 n
b1001 :#
b101000 j
b101000 8#
b1000 s
b1000 >#
b1000 Y#
0K
1#
#38
b11000010011 o"
b11000010011 $
b11000010011 q"
1K
0#
#39
b1100 e"
b1100 h"
b1100 9
b1100 O"
b1100 X"
b11000010011 B
b11000010011 i"
b11000010011 r"
b11000010011 $#
b110100 @
b110100 t"
b110100 |"
b110000 A
b110000 s"
b110000 }"
b10110010011 %#
b11000010011 &#
b111000 !#
b1001 s
b1001 >#
b1001 Y#
b1010 n
b1010 :#
b101100 j
b101100 8#
b1011 g
b1011 6#
b110000 `
b110000 4#
b101100 _
b110000 .#
b110100 -#
b101100 ,#
b110000 +#
b10110010011 )#
b11000010011 (#
b110100 ,
b110100 ?
b110100 u"
b111000 ~"
b110100 w"
b110100 *#
0K
1#
#40
b11010010011 o"
b11010010011 $
b11010010011 q"
1K
0#
#41
b1101 e"
b100000001100 h"
b1101 9
b1101 O"
b1101 X"
b11010010011 B
b11010010011 i"
b11010010011 r"
b11010010011 $#
b111100 !#
b111000 @
b111000 t"
b111000 |"
b110100 A
b110100 s"
b110100 }"
b11000010011 %#
b11010010011 &#
b111000 ,
b111000 ?
b111000 u"
b111100 ~"
b111000 w"
b111000 *#
b110100 .#
b111000 -#
b110000 ,#
b110100 +#
b11000010011 )#
b11010010011 (#
b1100 g
b1100 6#
b110100 `
b110100 4#
b110000 _
b1011 n
b1011 :#
b110000 j
b110000 8#
b1010 s
b1010 >#
b1010 Y#
0K
1#
#42
b11100010011 o"
b11100010011 $
b11100010011 q"
1K
0#
#43
b1110 e"
b1110 h"
b1110 9
b1110 O"
b1110 X"
b11100010011 B
b11100010011 i"
b11100010011 r"
b11100010011 $#
b111100 @
b111100 t"
b111100 |"
b111000 A
b111000 s"
b111000 }"
b11010010011 %#
b11100010011 &#
b1000000 !#
b1011 s
b1011 >#
b1011 Y#
b1100 n
b1100 :#
b110100 j
b110100 8#
b1101 g
b1101 6#
b111000 `
b111000 4#
b110100 _
b111000 .#
b111100 -#
b110100 ,#
b111000 +#
b11010010011 )#
b11100010011 (#
b111100 ,
b111100 ?
b111100 u"
b1000000 ~"
b111100 w"
b111100 *#
0K
1#
#44
b11110010011 o"
b11110010011 $
b11110010011 q"
1K
0#
#45
b1111 e"
b100000001110 h"
b1111 9
b1111 O"
b1111 X"
b11110010011 B
b11110010011 i"
b11110010011 r"
b11110010011 $#
b1000100 !#
b1000000 @
b1000000 t"
b1000000 |"
b111100 A
b111100 s"
b111100 }"
b11100010011 %#
b11110010011 &#
b1000000 ,
b1000000 ?
b1000000 u"
b1000100 ~"
b1000000 w"
b1000000 *#
b111100 .#
b1000000 -#
b111000 ,#
b111100 +#
b11100010011 )#
b11110010011 (#
b1110 g
b1110 6#
b111100 `
b111100 4#
b111000 _
b1101 n
b1101 :#
b111000 j
b111000 8#
b1100 s
b1100 >#
b1100 Y#
0K
1#
#46
b100000010011 o"
b100000010011 $
b100000010011 q"
1K
0#
