hdl/tb/cpu_log.vcd
$date
	Fri Sep  9 18:11:50 2022
$end
$version
	Icarus Verilog
$end
$timescale
	1s
$end
$scope module cpu_tb $end
$scope module DUT $end
$var wire 1 ! clk_ce $end
$var wire 32 " ex_res_dat [31:0] $end
$var wire 1 # i_clk $end
$var wire 32 $ i_data_in_i [31:0] $end
$var wire 32 % i_data_rd_d [31:0] $end
$var wire 1 & i_rst $end
$var wire 1 ' i_valid_d $end
$var wire 1 ( i_valid_i $end
$var wire 1 ) ma_rd_en $end
$var wire 4 * ma_wr_en [3:0] $end
$var wire 32 + o_addr_d [31:0] $end
$var wire 32 , o_addr_i [31:0] $end
$var wire 32 - o_data_wr_d [31:0] $end
$var wire 1 . o_rd_d $end
$var wire 4 / o_wr_d [3:0] $end
$var wire 2 0 wb_mux [1:0] $end
$var wire 1 1 wb_en $end
$var wire 1 2 system $end
$var wire 32 3 rs2_raw_d [31:0] $end
$var wire 32 4 rs2_d [31:0] $end
$var wire 5 5 rs2 [4:0] $end
$var wire 32 6 rs1_raw_d [31:0] $end
$var wire 32 7 rs1_d [31:0] $end
$var wire 5 8 rs1 [4:0] $end
$var wire 5 9 rd [4:0] $end
$var wire 5 : opcode [4:0] $end
$var wire 32 ; ma_wr_dat [31:0] $end
$var wire 4 < ma_we [3:0] $end
$var wire 32 = ma_rd_dat [31:0] $end
$var wire 32 > immediate [31:0] $end
$var wire 32 ? if_pc [31:0] $end
$var wire 32 @ id_ret [31:0] $end
$var wire 32 A id_pc [31:0] $end
$var wire 32 B id_ir [31:0] $end
$var wire 1 C hz_rs2 $end
$var wire 1 D hz_rs1 $end
$var wire 1 E hz_data $end
$var wire 1 F hz_br $end
$var wire 7 G funct7 [6:0] $end
$var wire 3 H funct3 [2:0] $end
$var wire 1 I d_wr $end
$var wire 1 J d_rd $end
$var wire 1 K clk_n $end
$var wire 1 L br_en $end
$var wire 1 M alu_pc $end
$var wire 32 N alu_out [31:0] $end
$var wire 1 O alu_imm $end
$var wire 1 P alu_en $end
$var wire 1 Q alu_busy $end
$var wire 32 R alu_b_mux [31:0] $end
$var wire 32 S alu_a_mux [31:0] $end
$var reg 1 T ex_alu_en $end
$var reg 1 U ex_alu_imm $end
$var reg 1 V ex_alu_pc $end
$var reg 3 W ex_funct3 [2:0] $end
$var reg 7 X ex_funct7 [6:0] $end
$var reg 32 Y ex_imm [31:0] $end
$var reg 1 Z ex_ma_rd $end
$var reg 1 [ ex_ma_wr $end
$var reg 5 \ ex_opcode [4:0] $end
$var reg 32 ] ex_pc [31:0] $end
$var reg 32 ^ ex_ret [31:0] $end
$var reg 5 _ ex_rs1 [4:0] $end
$var reg 32 ` ex_rs1_d [31:0] $end
$var reg 32 a ex_rs2_d [31:0] $end
$var reg 1 b ex_system $end
$var reg 1 c ex_wb_en $end
$var reg 2 d ex_wb_mux [1:0] $end
$var reg 5 e ex_wb_reg [4:0] $end
$var reg 3 f ma_funct3 [2:0] $end
$var reg 1 ) ma_rd $end
$var reg 32 g ma_res [31:0] $end
$var reg 32 h ma_ret [31:0] $end
$var reg 32 i ma_rs2_d [31:0] $end
$var reg 1 j ma_wb_en $end
$var reg 2 k ma_wb_mux [1:0] $end
$var reg 5 l ma_wb_reg [4:0] $end
$var reg 1 m ma_wr $end
$var reg 32 n wb_dat_mux [31:0] $end
$var reg 32 o wb_wb_d [31:0] $end
$var reg 1 p wb_wb_en $end
$var reg 5 q wb_wb_reg [4:0] $end
$scope module alu_i $end
$var wire 1 T i_alu_en $end
$var wire 1 U i_alu_imm $end
$var wire 1 K i_clk_n $end
$var wire 3 r i_funct3 [2:0] $end
$var wire 7 s i_funct7 [6:0] $end
$var wire 32 t i_in_a [31:0] $end
$var wire 32 u i_in_b [31:0] $end
$var wire 1 & i_rst $end
$var wire 32 v logic_and [31:0] $end
$var wire 32 w logic_or [31:0] $end
$var wire 32 x logic_xor [31:0] $end
$var wire 32 y o_alu_out [31:0] $end
$var wire 1 Q o_busy $end
$var wire 1 z op_subtract $end
$var wire 1 { shift_en $end
$var wire 32 | shift_result [31:0] $end
$var wire 1 } shift_busy $end
$var wire 1 ~ funct7_5 $end
$var wire 32 !" comp_u [31:0] $end
$var wire 32 "" comp [31:0] $end
$var wire 32 #" adder_out [31:0] $end
$var wire 32 $" adder_in_b [31:0] $end
$var reg 32 %" mux [31:0] $end
$scope module shifter_i $end
$var wire 1 K i_clk_n $end
$var wire 3 &" i_funct3 [2:0] $end
$var wire 32 '" i_in_a [31:0] $end
$var wire 5 (" i_in_b [4:0] $end
$var wire 1 ~ i_op_alt $end
$var wire 1 { i_shift_en $end
$var wire 32 )" o_result [31:0] $end
$var wire 1 *" op_shift $end
$var wire 1 +" op_sll $end
$var wire 1 ," op_sra $end
$var wire 1 -" op_srl $end
$var wire 32 ." shift_right [31:0] $end
$var wire 32 /" shift_left [31:0] $end
$var wire 1 } o_busy $end
$var reg 5 0" shift_amount [4:0] $end
$var reg 1 1" shift_dir_left $end
$var reg 32 2" shift_result [31:0] $end
$upscope $end
$upscope $end
$scope module branch_i $end
$var wire 1 3" br_en $end
$var wire 1 4" condition $end
$var wire 32 5" i_dat_a [31:0] $end
$var wire 32 6" i_dat_b [31:0] $end
$var wire 3 7" i_funct3 [2:0] $end
$var wire 5 8" i_opcode [4:0] $end
$var wire 1 L o_br_en $end
$var wire 1 9" op_jump $end
$var wire 1 :" op_branch $end
$var wire 1 ;" lower_u $end
$var wire 1 <" lower $end
$var wire 1 =" equal $end
$var reg 1 >" condition_mux $end
$upscope $end
$scope module decoder_i $end
$var wire 1 ?" alu_en $end
$var wire 1 @" alu_pc $end
$var wire 1 A" c_add $end
$var wire 1 B" c_addi $end
$var wire 1 C" c_addi16sp $end
$var wire 1 D" c_addi4spn $end
$var wire 1 E" c_alu $end
$var wire 1 F" c_andi $end
$var wire 1 G" c_ar $end
$var wire 1 H" c_b $end
$var wire 1 I" c_branch $end
$var wire 1 J" c_f3_001 $end
$var wire 1 K" c_f3_010 $end
$var wire 1 L" c_f3_101 $end
$var wire 1 M" c_f3_111 $end
$var wire 1 N" c_f3_ar_f3 $end
$var wire 1 O" c_f3_imm_ci $end
$var wire 1 P" c_f7_imm_c16sp $end
$var wire 1 Q" c_f7_imm_cb $end
$var wire 1 R" c_f7_imm_ci $end
$var wire 1 S" c_f7_imm_ciw $end
$var wire 1 T" c_f7_imm_cj $end
$var wire 1 U" c_f7_imm_cls $end
$var wire 1 V" c_f7_imm_clsp $end
$var wire 1 W" c_f7_imm_cssp $end
$var wire 1 X" c_f7_sr $end
$var wire 1 Y" c_f7_sub $end
$var wire 1 Z" c_j $end
$var wire 1 [" c_jal $end
$var wire 1 \" c_jalr $end
$var wire 1 ]" c_jr $end
$var wire 1 ^" c_li $end
$var wire 1 _" c_load $end
$var wire 1 `" c_lui $end
$var wire 1 a" c_lw $end
$var wire 1 b" c_lwsp $end
$var wire 1 c" c_op $end
$var wire 1 d" c_rd_imm_cb $end
$var wire 1 e" c_rd_imm_cls $end
$var wire 1 f" c_rd_imm_cssp $end
$var wire 1 g" c_rd_j $end
$var wire 1 h" c_rd_jr $end
$var wire 1 i" c_rd_rs1l $end
$var wire 1 j" c_rd_rs1s $end
$var wire 1 k" c_rd_rs2s $end
$var wire 1 l" c_rs1_imm_ci $end
$var wire 1 m" c_rs1_imm_cj $end
$var wire 1 n" c_rs1_rs1l $end
$var wire 1 o" c_rs1_rs1s $end
$var wire 1 p" c_rs1_sp $end
$var wire 1 q" c_rs2_imm_c16sp $end
$var wire 1 r" c_rs2_imm_cih $end
$var wire 1 s" c_rs2_imm_cil $end
$var wire 1 t" c_rs2_imm_ciw $end
$var wire 1 u" c_rs2_imm_cj $end
$var wire 1 v" c_rs2_imm_cls $end
$var wire 1 w" c_rs2_imm_clsp $end
$var wire 1 x" c_rs2_rs2l $end
$var wire 1 y" c_rs2_rs2s $end
$var wire 1 z" c_slli $end
$var wire 1 {" c_sri $end
$var wire 1 |" c_store $end
$var wire 1 }" c_sub $end
$var wire 1 ~" c_sw $end
$var wire 1 !# c_swsp $end
$var wire 1 "# format_b $end
$var wire 1 ## format_i $end
$var wire 1 $# format_j $end
$var wire 1 %# format_r $end
$var wire 1 &# format_s $end
$var wire 1 '# format_u $end
$var wire 1 (# hz_rs2 $end
$var wire 1 )# ma_rd $end
$var wire 1 *# ma_wr $end
$var wire 1 P o_alu_en $end
$var wire 1 O o_alu_imm $end
$var wire 1 M o_alu_pc $end
$var wire 3 +# o_funct3 [2:0] $end
$var wire 7 ,# o_funct7 [6:0] $end
$var wire 1 D o_hz_rs1 $end
$var wire 1 C o_hz_rs2 $end
$var wire 32 -# o_immediate [31:0] $end
$var wire 1 J o_ma_rd $end
$var wire 1 I o_ma_wr $end
$var wire 5 .# o_opcode [4:0] $end
$var wire 5 /# o_rd [4:0] $end
$var wire 5 0# o_rs1 [4:0] $end
$var wire 5 1# o_rs2 [4:0] $end
$var wire 1 2 o_system $end
$var wire 1 1 o_wb_en $end
$var wire 2 2# o_wb_mux [1:0] $end
$var wire 1 3# opcode_valid $end
$var wire 5 4# rs1 [4:0] $end
$var wire 1 5# valid_c $end
$var wire 1 6# wb_en $end
$var wire 2 7# wb_mux [1:0] $end
$var wire 1 8# rs2_z $end
$var wire 1 9# rs2_nz $end
$var wire 5 :# rs2_cs [4:0] $end
$var wire 5 ;# rs2_cl [4:0] $end
$var wire 5 <# rs2 [4:0] $end
$var wire 1 =# rs1_sp $end
$var wire 1 ># rs1_nz $end
$var wire 1 ?# rs1_nsp $end
$var wire 5 @# rs1_cs [4:0] $end
$var wire 5 A# rs1_cl [4:0] $end
$var wire 5 B# rd [4:0] $end
$var wire 1 C# q_3 $end
$var wire 1 D# q_2 $end
$var wire 1 E# q_1 $end
$var wire 1 F# q_0 $end
$var wire 32 G# opcode_in [31:0] $end
$var wire 5 H# opcode [4:0] $end
$var wire 1 I# op_system $end
$var wire 1 J# op_store $end
$var wire 1 K# op_op_imm $end
$var wire 1 L# op_op $end
$var wire 1 M# op_lui $end
$var wire 1 N# op_load $end
$var wire 1 O# op_jalr $end
$var wire 1 P# op_jal $end
$var wire 1 Q# op_branch $end
$var wire 1 R# op_auipc $end
$var wire 32 S# immediate_u [31:0] $end
$var wire 32 T# immediate_s [31:0] $end
$var wire 32 U# immediate_mux [31:0] $end
$var wire 32 V# immediate_j [31:0] $end
$var wire 32 W# immediate_i [31:0] $end
$var wire 6 X# immediate_cssp [7:2] $end
$var wire 6 Y# immediate_clsp [7:2] $end
$var wire 5 Z# immediate_cls [4:0] $end
$var wire 11 [# immediate_cj [11:1] $end
$var wire 8 \# immediate_ciw [7:0] $end
$var wire 6 ]# immediate_ci [5:0] $end
$var wire 8 ^# immediate_cb [8:1] $end
$var wire 6 _# immediate_c16sp [9:4] $end
$var wire 32 `# immediate_b [31:0] $end
$var wire 32 a# i_opcode_in [31:0] $end
$var wire 1 b# hz_rs1 $end
$var wire 7 c# funct7 [6:0] $end
$var wire 3 d# funct3_c [2:0] $end
$var wire 3 e# funct3 [2:0] $end
$var wire 2 f# funct2_cl [1:0] $end
$var wire 2 g# funct2_ch [1:0] $end
$var wire 1 h# cf3_x01 $end
$var wire 1 i# cf3_11x $end
$var wire 1 j# cf3_110 $end
$var wire 1 k# cf3_100 $end
$var wire 1 l# cf3_011 $end
$var wire 1 m# cf3_010 $end
$var wire 1 n# cf3_000 $end
$var wire 32 o# c_opcode_in [31:0] $end
$var wire 3 p# c_ar_f3 [2:0] $end
$var wire 1 q# alu_imm $end
$var reg 3 r# c_funct3 [2:0] $end
$var reg 7 s# c_funct7 [6:0] $end
$var reg 5 t# c_opcode [4:0] $end
$var reg 5 u# c_rd [4:0] $end
$var reg 5 v# c_rs1 [4:0] $end
$var reg 5 w# c_rs2 [4:0] $end
$upscope $end
$scope module fetch_i $end
$var wire 32 x# data_t0 [31:0] $end
$var wire 32 y# i_br_addr [31:0] $end
$var wire 1 L i_br_en $end
$var wire 1 # i_clk $end
$var wire 1 ! i_clk_ce $end
$var wire 32 z# i_data_in [31:0] $end
$var wire 1 & i_rst $end
$var wire 32 {# o_id_ir [31:0] $end
$var wire 32 |# o_id_pc [31:0] $end
$var wire 32 }# o_id_ret [31:0] $end
$var wire 32 ~# o_if_pc [31:0] $end
$var wire 1 !$ pc_next_c $end
$var wire 32 "$ pc_t0 [31:0] $end
$var wire 1 #$ t2_en $end
$var wire 1 $$ valid_o_t1 $end
$var wire 1 %$ valid_out $end
$var wire 1 &$ valid_o_t2 $end
$var wire 32 '$ ret_out [31:0] $end
$var wire 32 ($ pc_out [31:0] $end
$var wire 32 )$ pc_next [31:0] $end
$var wire 32 *$ pc_mux [31:0] $end
$var wire 1 F o_hz_br $end
$var wire 1 E i_hz_data $end
$var wire 1 +$ data_t0_cl $end
$var wire 1 ,$ data_t0_ch $end
$var wire 32 -$ data_out [31:0] $end
$var wire 32 .$ data_o_t2 [31:0] $end
$var wire 32 /$ data_o_t1 [31:0] $end
$var wire 1 0$ c_data_t1_1 $end
$var reg 32 1$ data_t1 [31:0] $end
$var reg 32 2$ data_t2 [31:0] $end
$var reg 32 3$ if_pc [31:0] $end
$var reg 32 4$ pc_t1 [31:0] $end
$var reg 32 5$ pc_t2 [31:0] $end
$var reg 32 6$ ret_t1 [31:0] $end
$var reg 32 7$ ret_t2 [31:0] $end
$var reg 1 8$ t2_mode $end
$var reg 1 9$ valid_t1 $end
$var reg 1 &$ valid_t2 $end
$upscope $end
$scope module hazard_i $end
$var wire 1 :$ hz_dat_rs1 $end
$var wire 1 ;$ hz_dat_rs2 $end
$var wire 1 <$ hz_data $end
$var wire 32 =$ i_ex_ret [31:0] $end
$var wire 1 c i_ex_wb_en $end
$var wire 2 >$ i_ex_wb_mux [1:0] $end
$var wire 5 ?$ i_ex_wb_reg [4:0] $end
$var wire 1 D i_hz_rs1 $end
$var wire 1 C i_hz_rs2 $end
$var wire 32 @$ i_ma_res [31:0] $end
$var wire 32 A$ i_ma_ret [31:0] $end
$var wire 1 j i_ma_wb_en $end
$var wire 2 B$ i_ma_wb_mux [1:0] $end
$var wire 5 C$ i_ma_wb_reg [4:0] $end
$var wire 5 D$ i_rs1 [4:0] $end
$var wire 5 E$ i_rs2 [4:0] $end
$var wire 32 F$ i_wb_wb_d [31:0] $end
$var wire 1 p i_wb_wb_en $end
$var wire 5 G$ i_wb_wb_reg [4:0] $end
$var wire 1 E o_hz_data $end
$var wire 32 H$ o_rs1_d [31:0] $end
$var wire 32 I$ o_rs2_d [31:0] $end
$var wire 32 J$ rs1_d [31:0] $end
$var wire 32 K$ rs2_d [31:0] $end
$var wire 32 L$ i_rs2_raw_d [31:0] $end
$var wire 32 M$ i_rs1_raw_d [31:0] $end
$var wire 32 N$ i_ma_rd_dat [31:0] $end
$upscope $end
$scope module memory_i $end
$var wire 32 O$ data_rd_short [31:0] $end
$var wire 32 P$ data_rd_signed [31:0] $end
$var wire 32 Q$ i_data_rd [31:0] $end
$var wire 32 R$ i_data_wr [31:0] $end
$var wire 2 S$ i_length [1:0] $end
$var wire 2 T$ i_shift [1:0] $end
$var wire 1 U$ i_signed_rd $end
$var wire 32 V$ o_data_rd [31:0] $end
$var wire 32 W$ o_data_wr [31:0] $end
$var wire 32 X$ sign_extension [31:0] $end
$var wire 1 Y$ sign_bit $end
$var wire 4 Z$ o_we [3:0] $end
$var reg 32 [$ data_rd_shift [31:0] $end
$var reg 32 \$ data_wr_shift [31:0] $end
$var reg 32 ]$ length_mask [31:0] $end
$var reg 4 ^$ we_lenght [3:0] $end
$var reg 4 _$ we_shifted [3:0] $end
$upscope $end
$scope module regs_i $end
$var wire 5 `$ i_addr_rd_a [4:0] $end
$var wire 5 a$ i_addr_rd_b [4:0] $end
$var wire 5 b$ i_addr_wr [4:0] $end
$var wire 1 ! i_ce $end
$var wire 1 K i_clk $end
$var wire 32 c$ i_dat_wr [31:0] $end
$var wire 1 p i_we $end
$var wire 32 d$ o_dat_rd_a [31:0] $end
$var wire 32 e$ o_dat_rd_b [31:0] $end
$var reg 32 f$ dat_rd_a_reg [31:0] $end
$var reg 32 g$ dat_rd_b_reg [31:0] $end
$scope begin $ivl_for_loop0 $end
$var integer 32 h$ i [31:0] $end
$upscope $end
$upscope $end
$upscope $end
$upscope $end
$enddefinitions $end
#0
$dumpvars
b100000 h$
bx g$
bx f$
bx e$
bx d$
bx c$
bx b$
bx a$
bx `$
bx _$
bx ^$
bx ]$
bx \$
b0 [$
bx Z$
0Y$
b0 X$
bx W$
b0 V$
xU$
bx T$
bx S$
bx R$
b0 Q$
b0 P$
b0 O$
b0 N$
bx M$
bx L$
bx K$
bx J$
bx I$
bx H$
bx G$
bx F$
bx E$
bx D$
bx C$
bx B$
bx A$
bx @$
bx ?$
bx >$
bx =$
x<$
x;$
x:$
x9$
x8$
bx 7$
bx 6$
bx 5$
bx 4$
bx 3$
bx 2$
bx 1$
x0$
bx /$
bx .$
bx -$
x,$
x+$
bx *$
bx )$
bx ($
bx '$
x&$
x%$
x$$
x#$
bx "$
x!$
bx ~#
bx }#
bx |#
bx {#
bx z#
bx y#
bx x#
b0 w#
b0 v#
b0 u#
bx t#
bx s#
b0 r#
xq#
bx p#
bx000000000000000000xxxxxxx o#
xn#
xm#
xl#
xk#
xj#
xi#
xh#
bx g#
bx f#
bx e#
bx d#
bx c#
xb#
bx a#
bx0 `#
bx _#
bx ^#
bx ]#
bx \#
bx [#
bx Z#
bx Y#
bx X#
bx W#
bx0 V#
bx U#
bx T#
bx000000000000 S#
xR#
xQ#
xP#
xO#
xN#
xM#
xL#
xK#
xJ#
xI#
bx H#
bx G#
xF#
xE#
xD#
xC#
bx B#
bx A#
b1xxx @#
x?#
x>#
x=#
bx <#
bx ;#
b1xxx :#
x9#
x8#
bx 7#
x6#
x5#
bx 4#
x3#
bx 2#
bx 1#
bx 0#
bx /#
bx .#
bx -#
bx ,#
bx +#
x*#
x)#
x(#
x'#
x&#
x%#
x$#
x##
x"#
x!#
x~"
x}"
x|"
x{"
xz"
xy"
xx"
xw"
xv"
xu"
xt"
xs"
xr"
xq"
xp"
xo"
xn"
xm"
xl"
xk"
xj"
xi"
xh"
xg"
xf"
xe"
xd"
xc"
xb"
xa"
x`"
x_"
x^"
x]"
x\"
x["
xZ"
xY"
xX"
xW"
xV"
xU"
xT"
xS"
xR"
xQ"
xP"
xO"
xN"
xM"
xL"
xK"
xJ"
xI"
xH"
xG"
xF"
xE"
xD"
xC"
xB"
xA"
x@"
x?"
x>"
x="
x<"
x;"
x:"
x9"
bx 8"
bx 7"
bx 6"
bx 5"
x4"
x3"
b0 2"
01"
b0 0"
b0 /"
b0 ."
x-"
x,"
x+"
x*"
b0 )"
bx ("
bx '"
bx &"
bx %"
bx $"
bx #"
b0x ""
b0x !"
x~
0}
b0 |
x{
xz
bx y
bx x
bx w
bx v
bx u
bx t
bx s
bx r
bx q
xp
bx o
bx n
xm
bx l
bx k
xj
bx i
bx h
bx g
bx f
bx e
bx d
xc
xb
bx a
bx `
bx _
bx ^
bx ]
bx \
x[
xZ
bx Y
bx X
bx W
xV
xU
xT
bx S
bx R
0Q
xP
xO
bx N
xM
xL
1K
xJ
xI
bx H
bx G
xF
xE
xD
xC
bx B
bx A
bx @
bx ?
bx >
b0 =
bx <
bx ;
bx :
bx 9
bx 8
bx 7
bx 6
bx 5
bx 4
bx 3
x2
x1
bx 0
bx /
x.
bx -
bx ,
bx +
bx *
x)
1(
1'
1&
b0 %
bx $
0#
bx "
1!
$end
#1
11
16#
13#
15#
0i"
1##
0o"
0E
0<$
0s"
1D
1b#
0:$
0J
0)#
0I
0*#
0C
0(#
1P
1?"
0'#
0M
0@"
b0 >
b0 -#
b0 U#
0M"
b0 0
b0 2#
b0 7#
0N#
1K#
0R#
0&#
0J#
1O
1q#
0%#
0L#
0M#
0"#
0Q#
0O#
0$#
0P#
02
0I#
b100 :
b100 .#
b100 H#
b0 G
b0 ,#
b0 c#
b1000 u#
0n"
b10 v#
0R"
0J"
1p"
0K"
1k"
0_"
0L"
0X"
0{"
0y"
0U"
0|"
0x"
0c"
b100 t#
0l"
0r"
0O"
0`"
0;$
b1000 9
b1000 /#
b1000 B#
b0 H
b0 +#
b0 e#
b1000 `#
b1000 T#
0d"
0Q"
0I"
0H"
0g"
0m"
0u"
0T"
0["
0Z"
0}"
b0 p#
0N"
0Y"
0G"
0F"
b10000010000010011 o#
b0 s#
0z"
1t"
1S"
1D"
0w"
0V"
0b"
0v"
0a"
0j"
0E"
0f"
0W"
0!#
0e"
0~"
0h#
0i#
0A"
0h"
0\"
0]"
0^"
0B"
0q"
0P"
0C"
b10 8
b10 0#
b10 D$
b10 `$
b10 4#
0C#
0D#
0E#
1F#
b0 Y#
b0 X#
b0 ^#
b0 [#
b0 Z#
b0 _#
b0 ]#
b0 \#
b0 f#
b0 g#
1n#
0m#
0l#
0k#
0j#
b0 d#
09#
18#
b0 ;#
0>#
1?#
0=#
b0 A#
b1000 :#
b1000 @#
b0 5
b0 1#
b0 E$
b0 a$
b0 <#
b10000000000000000 S#
b10000000000000000 V#
b0 W#
b0 "
b0 N
b0 y
b0 %"
b0 y#
b1 <
b1 Z$
b1 _$
b10000010000010011 G#
0#$
0*"
0L
03"
b0 #"
b0 $"
b0 ("
14"
b0 x
b0 w
b0 v
b1 ^$
b11111111 ]$
b0 B
b0 a#
b0 {#
b0 -$
b0 @
b0 }#
b0 '$
b0 A
b0 |#
b0 ($
1F
0%$
0$$
b0 .$
10$
b0 /$
0,"
0-"
0z
0+"
09"
b0 ""
b0 !"
b0 R
b0 u
1>"
b0 S
b0 t
b0 '"
b0 /
b0 *
b0 S$
1U$
b0 T$
b0 n
b0 -
b0 ;
b0 W$
b0 \$
b0 ,
b0 ?
b0 ~#
b0 "$
b0 3$
08$
b0 7$
b0 6$
b0 5$
b0 4$
0&$
09$
b0 2$
b0 1$
0b
0c
b0 d
b0 >$
b0 e
b0 ?$
0Z
0[
0{
0T
0U
0V
b0 _
0~
b0 X
b0 s
b0 W
b0 r
b0 &"
b0 7"
0:"
b0 \
b0 8"
b0 ^
b0 =$
b0 ]
b0 Y
1="
0<"
0;"
b0 a
b0 6"
b0 `
b0 5"
0j
b0 k
b0 B$
b0 l
b0 C$
0.
0)
0m
b0 f
b0 h
b0 A$
b0 +
b0 g
b0 @$
b0 i
b0 R$
0p
b0 q
b0 G$
b0 b$
b0 o
b0 F$
b0 c$
0K
1#
#2
b100 *$
b100 )$
0!$
0+$
1,$
b0 4
b0 I$
b0 K$
b0 3
b0 L$
b0 e$
b0 g$
b0 7
b0 H$
b0 J$
b0 6
b0 M$
b0 d$
b0 f$
b10000000000000001101111 x#
b10000000000000001101111 $
b10000000000000001101111 z#
1K
0#
#3
0K
1#
#4
1K
0#
#5
0K
1#
#6
1K
0#
#7
0K
1#
#8
1K
0#
#9
0K
1#
#10
1K
0#
0&
#11
05#
0##
b0 v#
1M
1@"
b100 >
b100 -#
b100 U#
0p"
b111 p#
0P
0?"
0D
0b#
b10 0
b10 2#
b10 7#
b0 8
b0 0#
b0 D$
b0 `$
b0 4#
0K#
1$#
1P#
b11011 :
b11011 .#
b11011 H#
b100 5
b100 1#
b100 E$
b100 a$
b100 <#
b0 9
b0 /#
b0 B#
b10000000000000000000000 S#
b100 V#
b0 `#
b0 T#
b100 W#
0k"
b10000000000000001101111 G#
0t"
0S"
0D"
b0 w#
b10000 o#
b0 u#
1C#
0F#
b110110 Y#
b1110001 ^#
b1010101 [#
b10001 Z#
b1111 _#
b11011 ]#
b11 \#
b11 f#
19#
08#
b11011 ;#
b1011 :#
0F
1%$
b10000000000000001101111 B
b10000000000000001101111 a#
b10000000000000001101111 {#
b10000000000000001101111 -$
b100 @
b100 }#
b100 '$
1$$
b10000000000000001101111 /$
b1000 *$
b100 6$
19$
b10000000000000001101111 1$
b100 ,
b100 ?
b100 ~#
b1000 )$
b100 "$
b100 3$
0K
1#
#12
b10010011 x#
b10010011 $
b10010011 z#
1K
0#
#13
11
16#
13#
1##
0M
0@"
b0 >
b0 -#
b0 U#
1P
1?"
1D
1b#
b0 0
b0 2#
b0 7#
1K#
0$#
0P#
b100 :
b100 .#
b100 H#
b0 5
b0 1#
b0 E$
b0 a$
b0 <#
b1 9
b1 /#
b1 B#
b0 S#
b0 V#
b100000000000 `#
b1 T#
b0 W#
b0 p#
b10010011 G#
b1 Y#
b10000 X#
b10 ^#
b100010 [#
b0 Z#
b10000 _#
b100 ]#
b10000 \#
b0 f#
b100 ;#
1>#
b1 A#
b1100 :#
b1001 @#
b100 "
b100 N
b100 y
b100 %"
b100 y#
b10010011 B
b10010011 a#
b10010011 {#
b10010011 -$
b100 x
b100 w
b100 #"
b100 $"
b100 ("
1L
13"
b100 *$
b1000 @
b1000 }#
b1000 '$
b100 A
b100 |#
b100 ($
b10000000000000001101111 .$
b10010011 /$
b1 ""
b1 !"
b100 R
b100 u
19"
b1000 ,
b1000 ?
b1000 ~#
b1100 )$
b1000 "$
b1000 3$
b100 7$
b1000 6$
b100 4$
1&$
b10000000000000001101111 2$
b10010011 1$
1c
b10 d
b10 >$
1U
1V
b11011 \
b11011 8"
b100 ^
b100 =$
b100 Y
0K
1#
#14
b100010011 x#
b100010011 $
b100010011 z#
1K
0#
#15
15#
b10 8
b10 0#
b10 D$
b10 `$
b10 4#
b10000000000000000 S#
b10000000000000000 V#
b10 v#
1p"
11
16#
b10000010000010011 o#
b1000 u#
13#
1k"
b1000 9
b1000 /#
b1000 B#
b1000 `#
b1000 T#
1t"
1S"
1D"
b1000 *$
b0 "
b0 N
b0 y
b0 %"
b0 y#
b10000010000010011 G#
0C#
1F#
b0 Y#
b0 X#
b0 ^#
b0 [#
b0 _#
b0 ]#
b0 \#
09#
18#
b0 ;#
0>#
b0 A#
b1000 :#
b1000 @#
0L
03"
b0 x
b0 w
b0 #"
b0 $"
b0 ("
1F
0%$
b0 B
b0 a#
b0 {#
b0 -$
b100 n
09"
b0 ""
b0 !"
b0 R
b0 u
0$$
b1100 @
b1100 }#
b1100 '$
b1000 A
b1000 |#
b1000 ($
b0 .$
b0 /$
1j
b10 k
b10 B$
b100 h
b100 A$
b100 +
b100 g
b100 @$
0c
b0 d
b0 >$
0U
0V
b0 \
b0 8"
b0 ^
b0 =$
b0 Y
0&$
09$
b1000 7$
b1100 6$
b100 5$
b1000 4$
b0 2$
b0 1$
b100 ,
b100 ?
b100 ~#
b1000 )$
b100 "$
b100 3$
0K
1#
#16
b10010011 x#
b10010011 $
b10010011 z#
1K
0#
#17
05#
b0 v#
0p"
b0 8
b0 0#
b0 D$
b0 `$
b0 4#
b1 9
b1 /#
b1 B#
b0 S#
b0 V#
b100000000000 `#
b1 T#
0k"
b10010011 G#
0t"
0S"
0D"
b0 s#
b10000 o#
b0 u#
1C#
0F#
b1 Y#
b10000 X#
b10 ^#
b100010 [#
b10000 _#
b100 ]#
b10000 \#
19#
08#
b100 ;#
1>#
b1 A#
b1100 :#
b1001 @#
0F
1%$
b10010011 B
b10010011 a#
b10010011 {#
b10010011 -$
b1100 *$
b1000 @
b1000 }#
b1000 '$
b100 A
b100 |#
b100 ($
1$$
b10010011 /$
b0 n
b1000 ,
b1000 ?
b1000 ~#
b1100 )$
b1000 "$
b1000 3$
b1100 7$
b1000 6$
b1000 5$
b100 4$
19$
b10010011 1$
0j
b0 k
b0 B$
b0 h
b0 A$
b0 +
b0 g
b0 @$
1p
b100 o
b100 F$
b100 c$
0K
1#
#18
b100010011 x#
b100010011 $
b100010011 z#
1K
0#
#19
b10 9
b10 /#
b10 B#
b10 `#
b10 T#
b100010011 G#
b100000 X#
b1000000010 [#
b100000 \#
0?#
1=#
b10 A#
b1010 @#
b100010011 B
b100010011 a#
b100010011 {#
b100010011 -$
b1100 @
b1100 }#
b1100 '$
b1000 A
b1000 |#
b1000 ($
b10010011 .$
b100010011 /$
b10000 *$
0p
b0 o
b0 F$
b0 c$
1c
b1 e
b1 ?$
1{
1T
1U
b100 \
b100 8"
b1000 ^
b1000 =$
b100 ]
b1000 7$
b1100 6$
b100 5$
b1000 4$
1&$
b10010011 2$
b100010011 1$
b1100 ,
b1100 ?
b1100 ~#
b10000 )$
b1100 "$
b1100 3$
0K
1#
#20
b110010011 x#
b110010011 $
b110010011 z#
1K
0#
#21
b11 9
b11 /#
b11 B#
b100000000010 `#
b11 T#
b110010011 G#
b110000 X#
b1000100010 [#
b110000 \#
1?#
0=#
b11 A#
b1011 @#
b110010011 B
b110010011 a#
b110010011 {#
b110010011 -$
b10100 *$
b10000 @
b10000 }#
b10000 '$
b1100 A
b1100 |#
b1100 ($
b100010011 .$
b110010011 /$
b10000 ,
b10000 ?
b10000 ~#
b10100 )$
b10000 "$
b10000 3$
b1100 7$
b10000 6$
b1000 5$
b1100 4$
b100010011 2$
b110010011 1$
b10 e
b10 ?$
b1100 ^
b1100 =$
b1000 ]
1j
b1 l
b1 C$
b1000 h
b1000 A$
0K
1#
#22
b1000010011 x#
b1000010011 $
b1000010011 z#
1K
0#
#23
b100 9
b100 /#
b100 B#
b100 `#
b100 T#
b1000010011 G#
b1 X#
b10000010 [#
b1000000 \#
b100 A#
b1100 @#
b1000010011 B
b1000010011 a#
b1000010011 {#
b1000010011 -$
b10100 @
b10100 }#
b10100 '$
b10000 A
b10000 |#
b10000 ($
b110010011 .$
b1000010011 /$
b11000 *$
1p
b1 q
b1 G$
b1 b$
b10 l
b10 C$
b1100 h
b1100 A$
b11 e
b11 ?$
b10000 ^
b10000 =$
b1100 ]
b10000 7$
b10100 6$
b1100 5$
b10000 4$
b110010011 2$
b1000010011 1$
b10100 ,
b10100 ?
b10100 ~#
b11000 )$
b10100 "$
b10100 3$
0K
1#
