hdl/cpu_log.vcd
$date
	Wed Jun 29 09:37:20 2022
$end
$version
	Icarus Verilog
$end
$timescale
	1s
$end
$scope module cpu_tb $end
$scope module DUT $end
$var wire 1 ! clk_ce $end
$var wire 1 " csr_clr $end
$var wire 1 # csr_rd $end
$var wire 1 $ csr_set $end
$var wire 1 % csr_wr $end
$var wire 1 & csr_wr_en $end
$var wire 1 ' hz_dat_rsa $end
$var wire 1 ( hz_dat_rsb $end
$var wire 1 ) hz_data $end
$var wire 1 * i_clk $end
$var wire 32 + i_data_in_d [31:0] $end
$var wire 32 , i_data_in_i [31:0] $end
$var wire 1 - i_rst $end
$var wire 1 . i_valid_d $end
$var wire 1 / i_valid_i $end
$var wire 1 0 ma_rd_en $end
$var wire 4 1 ma_wr_en [3:0] $end
$var wire 32 2 o_addr_i [31:0] $end
$var wire 1 3 o_rd_d $end
$var wire 4 4 o_we_d [3:0] $end
$var wire 2 5 wb_mux [1:0] $end
$var wire 1 6 wb_en $end
$var wire 32 7 wb_dat_mux [31:0] $end
$var wire 1 8 system $end
$var wire 32 9 rsb_d [31:0] $end
$var wire 5 : rsb [4:0] $end
$var wire 32 ; rsa_d [31:0] $end
$var wire 5 < rsa [4:0] $end
$var wire 5 = rd [4:0] $end
$var wire 32 > pc_next [31:0] $end
$var wire 32 ? pc_mux [31:0] $end
$var wire 5 @ opcode [4:0] $end
$var wire 32 A o_data_out_d [31:0] $end
$var wire 32 B o_addr_d [31:0] $end
$var wire 32 C ma_wr_dat [31:0] $end
$var wire 4 D ma_we [3:0] $end
$var wire 32 E ma_res_dat [31:0] $end
$var wire 32 F ma_rd_dat [31:0] $end
$var wire 32 G immediate [31:0] $end
$var wire 1 H hz_rsb $end
$var wire 1 I hz_rsa $end
$var wire 7 J funct7 [6:0] $end
$var wire 3 K funct3 [2:0] $end
$var wire 1 L d_wr $end
$var wire 1 M d_rd $end
$var wire 32 N csr_wr_data [31:0] $end
$var wire 32 O csr_rd_data [31:0] $end
$var wire 1 P clk_n $end
$var wire 1 Q branch_en $end
$var wire 1 R alu_pc $end
$var wire 32 S alu_out [31:0] $end
$var wire 1 T alu_imm $end
$var wire 1 U alu_en $end
$var wire 1 V alu_busy $end
$var wire 32 W alu_b_mux [31:0] $end
$var wire 32 X alu_a_mux [31:0] $end
$var reg 1 Y ex_alu_en $end
$var reg 1 Z ex_alu_imm $end
$var reg 1 [ ex_alu_pc $end
$var reg 3 \ ex_funct3 [2:0] $end
$var reg 7 ] ex_funct7 [6:0] $end
$var reg 32 ^ ex_imm [31:0] $end
$var reg 1 _ ex_ma_rd $end
$var reg 1 ` ex_ma_wr $end
$var reg 5 a ex_opcode [4:0] $end
$var reg 32 b ex_pc [31:0] $end
$var reg 32 c ex_ret [31:0] $end
$var reg 5 d ex_rsa [4:0] $end
$var reg 32 e ex_rsa_d [31:0] $end
$var reg 32 f ex_rsb_d [31:0] $end
$var reg 1 g ex_system $end
$var reg 1 h ex_wb_en $end
$var reg 2 i ex_wb_mux [1:0] $end
$var reg 5 j ex_wb_reg [4:0] $end
$var reg 1 k hz_branch $end
$var reg 32 l id_ir [31:0] $end
$var reg 32 m id_pc [31:0] $end
$var reg 32 n id_ret [31:0] $end
$var reg 32 o if_pc [31:0] $end
$var reg 3 p ma_funct3 [2:0] $end
$var reg 1 0 ma_rd $end
$var reg 32 q ma_res [31:0] $end
$var reg 32 r ma_ret [31:0] $end
$var reg 32 s ma_rsb_d [31:0] $end
$var reg 1 t ma_wb_en $end
$var reg 2 u ma_wb_mux [1:0] $end
$var reg 5 v ma_wb_reg [4:0] $end
$var reg 1 w ma_wr $end
$var reg 32 x wb_wb_d [31:0] $end
$var reg 1 y wb_wb_en $end
$var reg 5 z wb_wb_reg [4:0] $end
$scope module alu_i $end
$var wire 1 Y i_alu_en $end
$var wire 1 Z i_alu_imm $end
$var wire 1 P i_clk_n $end
$var wire 3 { i_funct3 [2:0] $end
$var wire 7 | i_funct7 [6:0] $end
$var wire 32 } i_in_a [31:0] $end
$var wire 32 ~ i_in_b [31:0] $end
$var wire 32 !" logic_and [31:0] $end
$var wire 32 "" logic_or [31:0] $end
$var wire 32 #" logic_xor [31:0] $end
$var wire 1 V o_busy $end
$var wire 1 $" op_subtract $end
$var wire 32 %" shift_result [31:0] $end
$var wire 1 &" shift_busy $end
$var wire 32 '" o_alu_out [31:0] $end
$var wire 32 (" mux_67 [31:0] $end
$var wire 32 )" mux_47 [31:0] $end
$var wire 32 *" mux_45 [31:0] $end
$var wire 32 +" mux_23 [31:0] $end
$var wire 32 ," mux_07 [31:0] $end
$var wire 32 -" mux_03 [31:0] $end
$var wire 32 ." mux_01 [31:0] $end
$var wire 32 /" md_result [31:0] $end
$var wire 1 0" md_enable $end
$var wire 1 1" md_busy $end
$var wire 1 2" funct7_5 $end
$var wire 1 3" funct7_0 $end
$var wire 32 4" comp_u [31:0] $end
$var wire 32 5" comp [31:0] $end
$var wire 32 6" adder_out [31:0] $end
$var wire 32 7" adder_in_b [31:0] $end
$scope module muldiv_i $end
$var wire 1 Y i_alu_en $end
$var wire 1 Z i_alu_imm $end
$var wire 1 P i_clk_n $end
$var wire 3 8" i_funct3 [2:0] $end
$var wire 1 3" i_funct7_0 $end
$var wire 32 9" i_in_a [31:0] $end
$var wire 32 :" i_in_b [31:0] $end
$var wire 1 ;" md_d_a_signed $end
$var wire 1 <" md_d_b_signed $end
$var wire 1 =" md_d_en $end
$var wire 1 >" md_div_sign $end
$var wire 1 ?" md_enable $end
$var wire 1 @" md_m_a_signed $end
$var wire 1 A" md_m_en $end
$var wire 1 B" md_m_sign $end
$var wire 1 C" md_rem_sign $end
$var wire 1 D" md_sign_a $end
$var wire 1 E" md_sign_b $end
$var wire 1 1" o_busy $end
$var wire 1 0" o_enable $end
$var wire 32 F" o_result [31:0] $end
$var wire 32 G" md_mul [31:0] $end
$var wire 64 H" md_m_q [63:0] $end
$var wire 1 I" md_m_busy $end
$var wire 1 J" md_m_b_signed $end
$var wire 32 K" md_in_b [31:0] $end
$var wire 32 L" md_in_a [31:0] $end
$var wire 32 M" md_div [31:0] $end
$var wire 32 N" md_d_sub [31:0] $end
$var wire 1 O" md_d_sign $end
$var wire 32 P" md_d_res [31:0] $end
$var wire 32 Q" md_d_rem [31:0] $end
$var wire 32 R" md_d_div [31:0] $end
$var wire 1 S" md_d_busy $end
$var wire 32 T" md_b [31:0] $end
$var wire 32 U" md_a [31:0] $end
$var wire 32 V" in_b_n [31:0] $end
$var wire 32 W" in_a_n [31:0] $end
$var wire 1 X" div_cmp $end
$var reg 64 Y" md_d_a [63:0] $end
$var reg 32 Z" md_d_b [31:0] $end
$var reg 6 [" md_d_cnt [5:0] $end
$var reg 32 \" md_d_q [31:0] $end
$var reg 64 ]" md_m_a_reg [63:0] $end
$var reg 32 ^" md_m_b_reg [31:0] $end
$var reg 64 _" md_m_mul [63:0] $end
$upscope $end
$scope module shifter_i $end
$var wire 1 Y i_alu_en $end
$var wire 1 P i_clk_n $end
$var wire 3 `" i_funct3 [2:0] $end
$var wire 1 2" i_funct7_5 $end
$var wire 32 a" i_in_a [31:0] $end
$var wire 5 b" i_in_b [4:0] $end
$var wire 32 c" o_result [31:0] $end
$var wire 1 d" op_shift $end
$var wire 1 e" op_sll $end
$var wire 1 f" op_sra $end
$var wire 1 g" op_srl $end
$var wire 32 h" shift_right [31:0] $end
$var wire 32 i" shift_left [31:0] $end
$var wire 1 &" o_busy $end
$var reg 5 j" shift_amount [4:0] $end
$var reg 1 k" shift_dir_left $end
$var reg 32 l" shift_result [31:0] $end
$upscope $end
$upscope $end
$scope module branch_i $end
$var wire 1 m" branch_enable $end
$var wire 32 n" i_dat_a [31:0] $end
$var wire 32 o" i_dat_b [31:0] $end
$var wire 3 p" i_funct3 [2:0] $end
$var wire 5 q" i_opcode [4:0] $end
$var wire 1 Q o_branch_en $end
$var wire 1 r" op_jump $end
$var wire 1 s" op_branch $end
$var wire 1 t" lower_u $end
$var wire 1 u" lower $end
$var wire 1 v" equal $end
$var reg 1 w" condition $end
$upscope $end
$scope module csr_i $end
$var wire 32 x" clr_data [31:0] $end
$var wire 12 y" i_adr [11:0] $end
$var wire 1 * i_clk $end
$var wire 1 " i_clr $end
$var wire 1 # i_rd $end
$var wire 1 $ i_set $end
$var wire 1 % i_wr $end
$var wire 32 z" i_wr_data [31:0] $end
$var wire 32 {" o_rd_data [31:0] $end
$var wire 32 |" set_data [31:0] $end
$var wire 1 }" write_enable $end
$var wire 32 ~" write_data [31:0] $end
$var reg 32 !# read_data [31:0] $end
$var reg 32 "# reg_200 [31:0] $end
$var reg 32 ## reg_800 [31:0] $end
$var reg 32 $# reg_F00 [31:0] $end
$upscope $end
$scope module decoder_i $end
$var wire 1 %# alu_en $end
$var wire 1 &# alu_pc $end
$var wire 1 '# format_b $end
$var wire 1 (# format_i $end
$var wire 1 )# format_j $end
$var wire 1 *# format_r $end
$var wire 1 +# format_s $end
$var wire 1 ,# format_u $end
$var wire 1 -# hz_rsb $end
$var wire 32 .# i_opcode_in [31:0] $end
$var wire 1 /# ma_rd $end
$var wire 1 0# ma_wr $end
$var wire 1 U o_alu_en $end
$var wire 1 T o_alu_imm $end
$var wire 1 R o_alu_pc $end
$var wire 3 1# o_funct3 [2:0] $end
$var wire 7 2# o_funct7 [6:0] $end
$var wire 1 I o_hz_rsa $end
$var wire 1 H o_hz_rsb $end
$var wire 32 3# o_immediate [31:0] $end
$var wire 1 M o_ma_rd $end
$var wire 1 L o_ma_wr $end
$var wire 5 4# o_opcode [4:0] $end
$var wire 5 5# o_rd [4:0] $end
$var wire 5 6# o_rsa [4:0] $end
$var wire 5 7# o_rsb [4:0] $end
$var wire 1 8 o_system $end
$var wire 1 6 o_wb_en $end
$var wire 2 8# o_wb_mux [1:0] $end
$var wire 1 9# opcode_valid $end
$var wire 5 :# rsa [4:0] $end
$var wire 1 ;# wb_en $end
$var wire 2 <# wb_mux [1:0] $end
$var wire 5 =# rsb [4:0] $end
$var wire 5 ># rd [4:0] $end
$var wire 5 ?# opcode [4:0] $end
$var wire 1 @# op_system $end
$var wire 1 A# op_store $end
$var wire 1 B# op_op_imm $end
$var wire 1 C# op_op $end
$var wire 1 D# op_lui $end
$var wire 1 E# op_load $end
$var wire 1 F# op_jalr $end
$var wire 1 G# op_jal $end
$var wire 1 H# op_branch $end
$var wire 1 I# op_auipc $end
$var wire 32 J# immediate_u [31:0] $end
$var wire 32 K# immediate_s [31:0] $end
$var wire 32 L# immediate_mux [31:0] $end
$var wire 32 M# immediate_j [31:0] $end
$var wire 32 N# immediate_i [31:0] $end
$var wire 32 O# immediate_b [31:0] $end
$var wire 1 P# hz_rsa $end
$var wire 7 Q# funct7 [6:0] $end
$var wire 3 R# funct3 [2:0] $end
$var wire 1 S# alu_imm $end
$upscope $end
$scope module memory_i $end
$var wire 32 T# data_rd_short [31:0] $end
$var wire 32 U# data_rd_signed [31:0] $end
$var wire 32 V# data_wr_s [31:0] $end
$var wire 32 W# i_data_rd [31:0] $end
$var wire 32 X# i_data_wr [31:0] $end
$var wire 2 Y# i_length [1:0] $end
$var wire 2 Z# i_shift [1:0] $end
$var wire 1 [# i_signed_rd $end
$var wire 32 \# o_data_rd [31:0] $end
$var wire 32 ]# o_data_wr [31:0] $end
$var wire 32 ^# sign_extension [31:0] $end
$var wire 1 _# sign_bit $end
$var wire 4 `# o_we [3:0] $end
$var reg 32 a# data_rd_shift [31:0] $end
$var reg 32 b# data_wr_shift [31:0] $end
$var reg 32 c# length_mask [31:0] $end
$var reg 4 d# we_lenght [3:0] $end
$var reg 4 e# we_shifted [3:0] $end
$upscope $end
$scope module regs_i $end
$var wire 5 f# i_addr_rd_a [4:0] $end
$var wire 5 g# i_addr_rd_b [4:0] $end
$var wire 5 h# i_addr_wr [4:0] $end
$var wire 1 ! i_ce $end
$var wire 1 P i_clk $end
$var wire 32 i# i_dat_wr [31:0] $end
$var wire 1 y i_we $end
$var wire 32 j# o_dat_rd_a [31:0] $end
$var wire 32 k# o_dat_rd_b [31:0] $end
$var reg 32 l# dat_rd_a [31:0] $end
$var reg 32 m# dat_rd_b [31:0] $end
$scope begin $ivl_for_loop0 $end
$var integer 32 n# i [31:0] $end
$upscope $end
$upscope $end
$upscope $end
$upscope $end
$enddefinitions $end
#0
$dumpvars
b100000 n#
bx m#
bx l#
bx k#
bx j#
bx i#
bx h#
bx g#
bx f#
bx e#
bx d#
bx c#
bx b#
b0 a#
bx `#
0_#
b0 ^#
bx ]#
b0 \#
x[#
bx Z#
bx Y#
bx X#
b0 W#
bx V#
b0 U#
b0 T#
xS#
bx R#
bx Q#
xP#
bx0 O#
bx N#
bx0 M#
bx L#
bx K#
bx000000000000 J#
xI#
xH#
xG#
xF#
xE#
xD#
xC#
xB#
xA#
x@#
bx ?#
bx >#
bx =#
bx <#
x;#
bx :#
x9#
bx 8#
bx 7#
bx 6#
bx 5#
bx 4#
bx 3#
bx 2#
bx 1#
x0#
x/#
bx .#
x-#
x,#
x+#
x*#
x)#
x(#
x'#
x&#
x%#
b0 $#
b0 ##
b0 "#
b0 !#
bx ~"
x}"
bx |"
b0 {"
bx z"
bx y"
b0 x"
xw"
xv"
xu"
xt"
xs"
xr"
bx q"
bx p"
bx o"
bx n"
xm"
b0 l"
0k"
b0 j"
b0 i"
b0 h"
xg"
xf"
xe"
xd"
b0 c"
bx b"
bx a"
bx `"
b0 _"
b0 ^"
b0 ]"
b0 \"
b100000 ["
b0 Z"
b0 Y"
1X"
bx W"
bx V"
bx U"
bx T"
0S"
b0 R"
b0 Q"
b0 P"
xO"
b0 N"
b0 M"
bx L"
bx K"
xJ"
0I"
b0 H"
b0 G"
b0 F"
xE"
xD"
xC"
xB"
xA"
x@"
x?"
x>"
x="
x<"
x;"
bx :"
bx 9"
bx 8"
bx 7"
bx 6"
b0x 5"
b0x 4"
x3"
x2"
01"
x0"
b0 /"
bx ."
bx -"
bx ,"
b0x +"
bx *"
bx )"
bx ("
bx '"
0&"
b0 %"
x$"
bx #"
bx ""
bx !"
bx ~
bx }
bx |
bx {
bx z
xy
bx x
xw
bx v
bx u
xt
bx s
bx r
bx q
bx p
bx o
bx n
bx m
bx l
xk
bx j
bx i
xh
xg
bx f
bx e
bx d
bx c
bx b
bx a
x`
x_
bx ^
bx ]
bx \
x[
xZ
xY
bx X
bx W
0V
xU
xT
bx S
xR
xQ
1P
b0 O
bx N
xM
xL
bx K
bx J
xI
xH
bx G
b0 F
bx E
bx D
bx C
bx B
bx A
bx @
bx ?
bx >
bx =
bx <
bx ;
bx :
bx 9
x8
bx 7
x6
bx 5
bx 4
x3
bx 2
bx 1
x0
1/
1.
1-
bx ,
b0 +
0*
x)
x(
x'
x&
x%
x$
x#
x"
1!
$end
#1
b0 G
b0 3#
b0 L#
b0 E
0)
b0 S
b0 '"
1(#
0'
b0 ,"
0}"
0O"
1I
1P#
0(
06
0;#
b0 -"
b0 )"
b0 ~"
0B"
0>"
b100 ?
b0 U"
0C"
b1 D
b1 `#
b1 e#
0M
0/#
0L
00#
0H
0-#
0U
0%#
0,#
0R
0&#
b0 <
b0 6#
b0 f#
b0 :#
09#
b0 ."
b0 *"
b0 ("
0d"
0%
0$
0"
0D"
0A"
0="
0Q
0m"
b0 6"
b0 7"
b0 +"
b0 b"
b0 K"
b0 T"
b0 #"
b0 ""
b0 !"
b0 L"
b0 |"
b0 A
b1 d#
b11111111 c#
b0 C
b0 ]#
b0 b#
b1 5
b1 8#
b1 <#
1E#
0B#
0I#
0+#
0A#
1T
1S#
0*#
0C#
0D#
0'#
0H#
0F#
0)#
0G#
08
0@#
b0 @
b0 4#
b0 ?#
b0 :
b0 7#
b0 g#
b0 =#
b0 =
b0 5#
b0 >#
b0 K
b0 1#
b0 R#
b0 J
b0 2#
b0 Q#
b0 J#
b0 M#
b0 O#
b0 K#
b0 N#
0#
00"
0?"
0&
0f"
0g"
0$"
0@"
0E"
0;"
0<"
0e"
0r"
b0 y"
b0 5"
b0 4"
b0 V"
b0 W
b0 ~
b0 :"
1w"
b0 W"
b0 X
b0 }
b0 9"
b0 a"
b0 N
b0 z"
b0 4
b0 1
b0 Y#
1[#
b0 7
b0 Z#
b0 B
b0 V#
0k
b100 >
b0 2
b0 o
b0 l
b0 .#
b0 m
b0 n
0g
0h
b0 i
b0 j
0_
0`
0Y
0Z
0[
b0 d
02"
03"
b0 ]
b0 |
0J"
b0 \
b0 {
b0 8"
b0 `"
b0 p"
0s"
b0 a
b0 q"
b0 c
b0 b
b0 ^
1v"
0u"
0t"
b0 f
b0 o"
b0 e
b0 n"
0t
b0 u
b0 v
03
00
0w
b0 p
b0 r
b0 q
b0 s
b0 X#
0y
b0 z
b0 h#
b0 x
b0 i#
0P
1*
#2
b0 9
b0 k#
b0 m#
b0 ;
b0 j#
b0 l#
b10000000000000001101111 ,
1P
0*
#3
0P
1*
#4
1P
0*
#5
0P
1*
#6
1P
0*
#7
0P
1*
#8
1P
0*
#9
0P
1*
#10
1P
0*
0-
#11
0(#
1R
1&#
b100 G
b100 3#
b100 L#
16
1;#
0I
0P#
19#
b10 5
b10 8#
b10 <#
0E#
1)#
1G#
b11011 @
b11011 4#
b11011 ?#
b100 :
b100 7#
b100 g#
b100 =#
b10000000000000000000000 J#
b100 M#
b100 N#
b1000 ?
b1 i
1Z
b10000000000000001101111 l
b10000000000000001101111 .#
b100 n
b1000 >
b100 2
b100 o
0P
1*
#12
b10010011 ,
1P
0*
#13
16
1;#
19#
b100 E
b100 S
b100 '"
b100 ,"
1(#
b100 )"
b100 -"
0R
0&#
b0 G
b0 3#
b0 L#
b100 *"
b100 ("
b100 ."
1U
1%#
1I
1P#
b0 5
b0 8#
b0 <#
1Q
1m"
b100 #"
b100 ""
b100 6"
b100 7"
b1 +"
b100 b"
b100 K"
b100 T"
b100 ?
1B#
0)#
0G#
b100 @
b100 4#
b100 ?#
b0 :
b0 7#
b0 g#
b0 =#
b1 =
b1 5#
b1 >#
b0 J#
b0 M#
b100000000000 O#
b1 K#
b0 N#
1r"
b1 5"
b1 4"
b11111111111111111111111111111100 V"
b100 W
b100 ~
b100 :"
b100 y"
b1100 >
b1000 2
b1000 o
b10010011 l
b10010011 .#
b100 m
b1000 n
1h
b10 i
1[
b11011 a
b11011 q"
b100 c
b100 ^
b1 u
0P
1*
#14
b100010011 ,
1P
0*
#15
b0 E
b0 S
b0 '"
b0 ,"
b0 )"
b0 -"
b1000 ?
b0 *"
b0 ("
b0 ."
06
0;#
0Q
0m"
b0 #"
b0 ""
b0 6"
b0 7"
b0 +"
b0 b"
b0 K"
b0 T"
0U
0%#
09#
b100 7
0r"
b0 5"
b0 4"
b0 V"
b0 W
b0 ~
b0 :"
b0 y"
b1 5
b1 8#
b1 <#
1E#
0B#
b0 @
b0 4#
b0 ?#
b0 =
b0 5#
b0 >#
b0 O#
b0 K#
1t
b10 u
b100 r
b100 q
0h
b0 i
0Z
0[
b0 a
b0 q"
b0 c
b0 ^
b0 l
b0 .#
b1000 m
b1100 n
1k
b1000 >
b100 2
b100 o
0P
1*
#16
b10010011 ,
1P
0*
#17
16
1;#
1U
1%#
19#
b1100 ?
b0 5
b0 8#
b0 <#
0E#
1B#
b100 @
b100 4#
b100 ?#
b1 =
b1 5#
b1 >#
b100000000000 O#
b1 K#
b0 7
b1100 >
b1000 2
b1000 o
0k
b10010011 l
b10010011 .#
b100 m
b1000 n
0t
b0 u
b0 r
b0 q
1y
b100 x
b100 i#
0P
1*
#18
b100010011 ,
1P
0*
#19
b10 =
b10 5#
b10 >#
b10 O#
b10 K#
b10000 ?
0y
b0 x
b0 i#
1h
b1 j
1Y
1Z
b100 a
b100 q"
b1000 c
b100 b
b100010011 l
b100010011 .#
b1000 m
b1100 n
b10000 >
b1100 2
b1100 o
0P
1*
#20
b110010011 ,
1P
0*
#21
b10100 ?
b11 =
b11 5#
b11 >#
b100000000010 O#
b11 K#
b10100 >
b10000 2
b10000 o
b110010011 l
b110010011 .#
b1100 m
b10000 n
b10 j
b1100 c
b1000 b
1t
b1 v
b1000 r
0P
1*
#22
b1000010011 ,
1P
0*
#23
b100 =
b100 5#
b100 >#
b100 O#
b100 K#
b11000 ?
1y
b1 z
b1 h#
b10 v
b1100 r
b11 j
b10000 c
b1100 b
b1000010011 l
b1000010011 .#
b10000 m
b10100 n
b11000 >
b10100 2
b10100 o
0P
1*
#24
b1010010011 ,
1P
0*
#25
b11100 ?
b101 =
b101 5#
b101 >#
b100000000100 O#
b101 K#
b11100 >
b11000 2
b11000 o
b1010010011 l
b1010010011 .#
b10100 m
b11000 n
b100 j
b10100 c
b10000 b
b11 v
b10000 r
b10 z
b10 h#
0P
1*
#26
b1100010011 ,
1P
0*
#27
b110 =
b110 5#
b110 >#
b110 O#
b110 K#
b100000 ?
b11 z
b11 h#
b100 v
b10100 r
b101 j
b11000 c
b10100 b
b1100010011 l
b1100010011 .#
b11000 m
b11100 n
b100000 >
b11100 2
b11100 o
0P
1*
#28
b1110010011 ,
1P
0*
#29
b100100 ?
b111 =
b111 5#
b111 >#
b100000000110 O#
b111 K#
b100100 >
b100000 2
b100000 o
b1110010011 l
b1110010011 .#
b11100 m
b100000 n
b110 j
b11100 c
b11000 b
b101 v
b11000 r
b100 z
b100 h#
0P
1*
#30
b10000010011 ,
1P
0*
#31
b1000 =
b1000 5#
b1000 >#
b1000 O#
b1000 K#
b101000 ?
b101 z
b101 h#
b110 v
b11100 r
b111 j
b100000 c
b11100 b
b10000010011 l
b10000010011 .#
b100000 m
b100100 n
b101000 >
b100100 2
b100100 o
0P
1*
#32
b10010010011 ,
1P
0*
#33
b101100 ?
b1001 =
b1001 5#
b1001 >#
b100000001000 O#
b1001 K#
b101100 >
b101000 2
b101000 o
b10010010011 l
b10010010011 .#
b100100 m
b101000 n
b1000 j
b100100 c
b100000 b
b111 v
b100000 r
b110 z
b110 h#
0P
1*
#34
b10100010011 ,
1P
0*
#35
b1010 =
b1010 5#
b1010 >#
b1010 O#
b1010 K#
b110000 ?
b111 z
b111 h#
b1000 v
b100100 r
b1001 j
b101000 c
b100100 b
b10100010011 l
b10100010011 .#
b101000 m
b101100 n
b110000 >
b101100 2
b101100 o
0P
1*
#36
b10110010011 ,
1P
0*
#37
b110100 ?
b1011 =
b1011 5#
b1011 >#
b100000001010 O#
b1011 K#
b110100 >
b110000 2
b110000 o
b10110010011 l
b10110010011 .#
b101100 m
b110000 n
b1010 j
b101100 c
b101000 b
b1001 v
b101000 r
b1000 z
b1000 h#
0P
1*
#38
b11000010011 ,
1P
0*
#39
b1100 =
b1100 5#
b1100 >#
b1100 O#
b1100 K#
b111000 ?
b1001 z
b1001 h#
b1010 v
b101100 r
b1011 j
b110000 c
b101100 b
b11000010011 l
b11000010011 .#
b110000 m
b110100 n
b111000 >
b110100 2
b110100 o
0P
1*
#40
b11010010011 ,
1P
0*
#41
b111100 ?
b1101 =
b1101 5#
b1101 >#
b100000001100 O#
b1101 K#
b111100 >
b111000 2
b111000 o
b11010010011 l
b11010010011 .#
b110100 m
b111000 n
b1100 j
b110100 c
b110000 b
b1011 v
b110000 r
b1010 z
b1010 h#
0P
1*
#42
b11100010011 ,
1P
0*
#43
b1110 =
b1110 5#
b1110 >#
b1110 O#
b1110 K#
b1000000 ?
b1011 z
b1011 h#
b1100 v
b110100 r
b1101 j
b111000 c
b110100 b
b11100010011 l
b11100010011 .#
b111000 m
b111100 n
b1000000 >
b111100 2
b111100 o
0P
1*
#44
b11110010011 ,
1P
0*
#45
b1000100 ?
b1111 =
b1111 5#
b1111 >#
b100000001110 O#
b1111 K#
b1000100 >
b1000000 2
b1000000 o
b11110010011 l
b11110010011 .#
b111100 m
b1000000 n
b1110 j
b111100 c
b111000 b
b1101 v
b111000 r
b1100 z
b1100 h#
0P
1*
#46
b100000010011 ,
1P
0*
#47
b10000 =
b10000 5#
b10000 >#
b10000 O#
b10000 K#
b1001000 ?
b1101 z
b1101 h#
b1110 v
b111100 r
b1111 j
b1000000 c
b111100 b
b100000010011 l
b100000010011 .#
b1000000 m
b1000100 n
b1001000 >
b1000100 2
b1000100 o
0P
1*
#48
b100010010011 ,
1P
0*
#49
b1001100 ?
b10001 =
b10001 5#
b10001 >#
b100000010000 O#
b10001 K#
b1001100 >
b1001000 2
b1001000 o
b100010010011 l
b100010010011 .#
b1000100 m
b1001000 n
b10000 j
b1000100 c
b1000000 b
b1111 v
b1000000 r
b1110 z
b1110 h#
0P
1*
#50
b100100010011 ,
1P
0*
#51
b10010 =
b10010 5#
b10010 >#
b10010 O#
b10010 K#
b1010000 ?
b1111 z
b1111 h#
b10000 v
b1000100 r
b10001 j
b1001000 c
b1000100 b
b100100010011 l
b100100010011 .#
b1001000 m
b1001100 n
b1010000 >
b1001100 2
b1001100 o
0P
1*
#52
b100110010011 ,
1P
0*
#53
b1010100 ?
b10011 =
b10011 5#
b10011 >#
b100000010010 O#
b10011 K#
b1010100 >
b1010000 2
b1010000 o
b100110010011 l
b100110010011 .#
b1001100 m
b1010000 n
b10010 j
b1001100 c
b1001000 b
b10001 v
b1001000 r
b10000 z
b10000 h#
0P
1*
#54
b101000010011 ,
1P
0*
#55
b10100 =
b10100 5#
b10100 >#
b10100 O#
b10100 K#
b1011000 ?
b10001 z
b10001 h#
b10010 v
b1001100 r
b10011 j
b1010000 c
b1001100 b
b101000010011 l
b101000010011 .#
b1010000 m
b1010100 n
b1011000 >
b1010100 2
b1010100 o
0P
1*
#56
b101010010011 ,
1P
0*
#57
b1011100 ?
b10101 =
b10101 5#
b10101 >#
b100000010100 O#
b10101 K#
b1011100 >
b1011000 2
b1011000 o
b101010010011 l
b101010010011 .#
b1010100 m
b1011000 n
b10100 j
b1010100 c
b1010000 b
b10011 v
b1010000 r
b10010 z
b10010 h#
0P
1*
#58
b101100010011 ,
1P
0*
#59
b10110 =
b10110 5#
b10110 >#
b10110 O#
b10110 K#
b1100000 ?
b10011 z
b10011 h#
b10100 v
b1010100 r
b10101 j
b1011000 c
b1010100 b
b101100010011 l
b101100010011 .#
b1011000 m
b1011100 n
b1100000 >
b1011100 2
b1011100 o
0P
1*
#60
b101110010011 ,
1P
0*
#61
b1100100 ?
b10111 =
b10111 5#
b10111 >#
b100000010110 O#
b10111 K#
b1100100 >
b1100000 2
b1100000 o
b101110010011 l
b101110010011 .#
b1011100 m
b1100000 n
b10110 j
b1011100 c
b1011000 b
b10101 v
b1011000 r
b10100 z
b10100 h#
0P
1*
#62
b110000010011 ,
1P
0*
#63
b11000 =
b11000 5#
b11000 >#
b11000 O#
b11000 K#
b1101000 ?
b10101 z
b10101 h#
b10110 v
b1011100 r
b10111 j
b1100000 c
b1011100 b
b110000010011 l
b110000010011 .#
b1100000 m
b1100100 n
b1101000 >
b1100100 2
b1100100 o
0P
1*
#64
b110010010011 ,
1P
0*
#65
b1101100 ?
b11001 =
b11001 5#
b11001 >#
b100000011000 O#
b11001 K#
b1101100 >
b1101000 2
b1101000 o
b110010010011 l
b110010010011 .#
b1100100 m
b1101000 n
b11000 j
b1100100 c
b1100000 b
b10111 v
b1100000 r
b10110 z
b10110 h#
0P
1*
#66
b110100010011 ,
1P
0*
#67
b11010 =
b11010 5#
b11010 >#
b11010 O#
b11010 K#
b1110000 ?
b10111 z
b10111 h#
b11000 v
b1100100 r
b11001 j
b1101000 c
b1100100 b
b110100010011 l
b110100010011 .#
b1101000 m
b1101100 n
b1110000 >
b1101100 2
b1101100 o
0P
1*
#68
b110110010011 ,
1P
0*
#69
b1110100 ?
b11011 =
b11011 5#
b11011 >#
b100000011010 O#
b11011 K#
b1110100 >
b1110000 2
b1110000 o
b110110010011 l
b110110010011 .#
b1101100 m
b1110000 n
b11010 j
b1101100 c
b1101000 b
b11001 v
b1101000 r
b11000 z
b11000 h#
0P
1*
#70
b111000010011 ,
1P
0*
#71
b11100 =
b11100 5#
b11100 >#
b11100 O#
b11100 K#
b1111000 ?
b11001 z
b11001 h#
b11010 v
b1101100 r
b11011 j
b1110000 c
b1101100 b
b111000010011 l
b111000010011 .#
b1110000 m
b1110100 n
b1111000 >
b1110100 2
b1110100 o
0P
1*
#72
b111010010011 ,
1P
0*
#73
b1111100 ?
b11101 =
b11101 5#
b11101 >#
b100000011100 O#
b11101 K#
b1111100 >
b1111000 2
b1111000 o
b111010010011 l
b111010010011 .#
b1110100 m
b1111000 n
b11100 j
b1110100 c
b1110000 b
b11011 v
b1110000 r
b11010 z
b11010 h#
0P
1*
#74
b111100010011 ,
1P
0*
#75
b11110 =
b11110 5#
b11110 >#
b11110 O#
b11110 K#
b10000000 ?
b11011 z
b11011 h#
b11100 v
b1110100 r
b11101 j
b1111000 c
b1110100 b
b111100010011 l
b111100010011 .#
b1111000 m
b1111100 n
b10000000 >
b1111100 2
b1111100 o
0P
1*
#76
b111110010011 ,
1P
0*
#77
b10000100 ?
b11111 =
b11111 5#
b11111 >#
b100000011110 O#
b11111 K#
b10000100 >
b10000000 2
b10000000 o
b111110010011 l
b111110010011 .#
b1111100 m
b10000000 n
b11110 j
b1111100 c
b1111000 b
b11101 v
b1111000 r
b11100 z
b11100 h#
0P
1*
#78
b10011 ,
1P
0*
#79
b0 =
b0 5#
b0 >#
b0 O#
b0 K#
b10001000 ?
b11101 z
b11101 h#
b11110 v
b1111100 r
b11111 j
b10000000 c
b1111100 b
b10011 l
b10011 .#
b10000000 m
b10000100 n
b10001000 >
b10000100 2
b10000100 o
0P
1*
#80
1P
0*
#81
b10001100 ?
b10001100 >
b10001000 2
b10001000 o
b10000100 m
b10001000 n
b0 j
b10000100 c
b10000000 b
b11111 v
b10000000 r
b11110 z
b11110 h#
0P
1*
#82
b111111110001000010110111 ,
1P
0*
