hdl/cpu_log.vcd
$date
	Mon Aug 29 10:41:07 2022
$end
$version
	Icarus Verilog
$end
$timescale
	1s
$end
$scope module cpu_tb $end
$scope module DUT $end
$var wire 1 ! clk_ce $end
$var wire 1 " csr_clr $end
$var wire 1 # csr_rd $end
$var wire 1 $ csr_set $end
$var wire 1 % csr_wr $end
$var wire 1 & csr_wr_en $end
$var wire 1 ' hz_dat_rsa $end
$var wire 1 ( hz_dat_rsb $end
$var wire 1 ) hz_data $end
$var wire 1 * i_clk $end
$var wire 32 + i_data_in_d [31:0] $end
$var wire 32 , i_data_in_i [31:0] $end
$var wire 1 - i_rst $end
$var wire 1 . i_valid_d $end
$var wire 1 / i_valid_i $end
$var wire 1 0 ma_rd_en $end
$var wire 4 1 ma_wr_en [3:0] $end
$var wire 32 2 o_addr_i [31:0] $end
$var wire 1 3 o_rd_d $end
$var wire 4 4 o_we_d [3:0] $end
$var wire 2 5 wb_mux [1:0] $end
$var wire 1 6 wb_en $end
$var wire 32 7 wb_dat_mux [31:0] $end
$var wire 1 8 system $end
$var wire 32 9 rsb_d [31:0] $end
$var wire 5 : rsb [4:0] $end
$var wire 32 ; rsa_d [31:0] $end
$var wire 5 < rsa [4:0] $end
$var wire 5 = rd [4:0] $end
$var wire 5 > opcode [4:0] $end
$var wire 32 ? o_data_out_d [31:0] $end
$var wire 32 @ o_addr_d [31:0] $end
$var wire 32 A ma_wr_dat [31:0] $end
$var wire 4 B ma_we [3:0] $end
$var wire 32 C ma_res_dat [31:0] $end
$var wire 32 D ma_rd_dat [31:0] $end
$var wire 32 E immediate [31:0] $end
$var wire 32 F if_pc [31:0] $end
$var wire 32 G id_ret [31:0] $end
$var wire 32 H id_pc [31:0] $end
$var wire 32 I id_ir [31:0] $end
$var wire 1 J hz_rsb $end
$var wire 1 K hz_rsa $end
$var wire 1 L hz_br $end
$var wire 7 M funct7 [6:0] $end
$var wire 3 N funct3 [2:0] $end
$var wire 1 O d_wr $end
$var wire 1 P d_rd $end
$var wire 32 Q csr_wr_data [31:0] $end
$var wire 32 R csr_rd_data [31:0] $end
$var wire 1 S clk_n $end
$var wire 1 T br_en $end
$var wire 1 U alu_pc $end
$var wire 32 V alu_out [31:0] $end
$var wire 1 W alu_imm $end
$var wire 1 X alu_en $end
$var wire 1 Y alu_busy $end
$var wire 32 Z alu_b_mux [31:0] $end
$var wire 32 [ alu_a_mux [31:0] $end
$var reg 1 \ ex_alu_en $end
$var reg 1 ] ex_alu_imm $end
$var reg 1 ^ ex_alu_pc $end
$var reg 3 _ ex_funct3 [2:0] $end
$var reg 7 ` ex_funct7 [6:0] $end
$var reg 32 a ex_imm [31:0] $end
$var reg 1 b ex_ma_rd $end
$var reg 1 c ex_ma_wr $end
$var reg 5 d ex_opcode [4:0] $end
$var reg 32 e ex_pc [31:0] $end
$var reg 32 f ex_ret [31:0] $end
$var reg 5 g ex_rsa [4:0] $end
$var reg 32 h ex_rsa_d [31:0] $end
$var reg 32 i ex_rsb_d [31:0] $end
$var reg 1 j ex_system $end
$var reg 1 k ex_wb_en $end
$var reg 2 l ex_wb_mux [1:0] $end
$var reg 5 m ex_wb_reg [4:0] $end
$var reg 3 n ma_funct3 [2:0] $end
$var reg 1 0 ma_rd $end
$var reg 32 o ma_res [31:0] $end
$var reg 32 p ma_ret [31:0] $end
$var reg 32 q ma_rsb_d [31:0] $end
$var reg 1 r ma_wb_en $end
$var reg 2 s ma_wb_mux [1:0] $end
$var reg 5 t ma_wb_reg [4:0] $end
$var reg 1 u ma_wr $end
$var reg 32 v wb_wb_d [31:0] $end
$var reg 1 w wb_wb_en $end
$var reg 5 x wb_wb_reg [4:0] $end
$scope module alu_i $end
$var wire 1 \ i_alu_en $end
$var wire 1 ] i_alu_imm $end
$var wire 1 S i_clk_n $end
$var wire 3 y i_funct3 [2:0] $end
$var wire 7 z i_funct7 [6:0] $end
$var wire 32 { i_in_a [31:0] $end
$var wire 32 | i_in_b [31:0] $end
$var wire 32 } logic_and [31:0] $end
$var wire 32 ~ logic_or [31:0] $end
$var wire 32 !" logic_xor [31:0] $end
$var wire 1 Y o_busy $end
$var wire 1 "" op_subtract $end
$var wire 1 #" shift_busy $end
$var wire 32 $" shift_result [31:0] $end
$var wire 32 %" o_alu_out [31:0] $end
$var wire 32 &" md_result [31:0] $end
$var wire 1 '" md_enable $end
$var wire 1 (" md_busy $end
$var wire 1 )" funct7_5 $end
$var wire 1 *" funct7_0 $end
$var wire 32 +" comp_u [31:0] $end
$var wire 32 ," comp [31:0] $end
$var wire 32 -" adder_out [31:0] $end
$var wire 32 ." adder_in_b [31:0] $end
$var reg 32 /" mux [31:0] $end
$scope module muldiv_i $end
$var wire 1 \ i_alu_en $end
$var wire 1 ] i_alu_imm $end
$var wire 1 S i_clk_n $end
$var wire 3 0" i_funct3 [2:0] $end
$var wire 1 *" i_funct7_0 $end
$var wire 32 1" i_in_a [31:0] $end
$var wire 32 2" i_in_b [31:0] $end
$var wire 1 3" md_d_a_signed $end
$var wire 1 4" md_d_b_signed $end
$var wire 1 5" md_d_en $end
$var wire 1 6" md_div_sign $end
$var wire 1 7" md_enable $end
$var wire 1 8" md_m_a_signed $end
$var wire 1 9" md_m_busy $end
$var wire 1 :" md_m_sign $end
$var wire 1 ;" md_rem_sign $end
$var wire 1 <" md_sign_a $end
$var wire 1 =" md_sign_b $end
$var wire 1 (" o_busy $end
$var wire 1 '" o_enable $end
$var wire 32 >" o_result [31:0] $end
$var wire 32 ?" md_mul [31:0] $end
$var wire 64 @" md_m_q [63:0] $end
$var wire 64 A" md_m_mul [63:0] $end
$var wire 1 B" md_m_b_signed $end
$var wire 32 C" md_in_b [31:0] $end
$var wire 32 D" md_in_a [31:0] $end
$var wire 32 E" md_div [31:0] $end
$var wire 32 F" md_d_sub [31:0] $end
$var wire 1 G" md_d_sign $end
$var wire 32 H" md_d_res [31:0] $end
$var wire 32 I" md_d_rem [31:0] $end
$var wire 32 J" md_d_div [31:0] $end
$var wire 1 K" md_d_busy $end
$var wire 32 L" md_b [31:0] $end
$var wire 32 M" md_a [31:0] $end
$var wire 32 N" in_b_n [31:0] $end
$var wire 32 O" in_a_n [31:0] $end
$var wire 1 P" div_cmp $end
$var reg 64 Q" md_d_a [63:0] $end
$var reg 32 R" md_d_b [31:0] $end
$var reg 6 S" md_d_cnt [5:0] $end
$var reg 32 T" md_d_q [31:0] $end
$upscope $end
$scope module shifter_i $end
$var wire 1 \ i_alu_en $end
$var wire 1 S i_clk_n $end
$var wire 3 U" i_funct3 [2:0] $end
$var wire 1 )" i_funct7_5 $end
$var wire 32 V" i_in_a [31:0] $end
$var wire 5 W" i_in_b [4:0] $end
$var wire 1 #" o_busy $end
$var wire 1 X" op_sll $end
$var wire 1 Y" op_sra $end
$var wire 1 Z" op_srl $end
$var wire 32 [" shift_mask [31:0] $end
$var wire 32 \" shift_out [31:0] $end
$var wire 32 ]" shift_sll [31:0] $end
$var wire 32 ^" shift_sra [31:0] $end
$var wire 32 _" shift_srl [31:0] $end
$var wire 5 `" shift_amount [4:0] $end
$var wire 32 a" o_result [31:0] $end
$scope begin genblk1[0] $end
$upscope $end
$scope begin genblk1[1] $end
$upscope $end
$scope begin genblk1[2] $end
$upscope $end
$scope begin genblk1[3] $end
$upscope $end
$scope begin genblk1[4] $end
$upscope $end
$scope begin genblk1[5] $end
$upscope $end
$scope begin genblk1[6] $end
$upscope $end
$scope begin genblk1[7] $end
$upscope $end
$scope begin genblk1[8] $end
$upscope $end
$scope begin genblk1[9] $end
$upscope $end
$scope begin genblk1[10] $end
$upscope $end
$scope begin genblk1[11] $end
$upscope $end
$scope begin genblk1[12] $end
$upscope $end
$scope begin genblk1[13] $end
$upscope $end
$scope begin genblk1[14] $end
$upscope $end
$scope begin genblk1[15] $end
$upscope $end
$scope begin genblk1[16] $end
$upscope $end
$scope begin genblk1[17] $end
$upscope $end
$scope begin genblk1[18] $end
$upscope $end
$scope begin genblk1[19] $end
$upscope $end
$scope begin genblk1[20] $end
$upscope $end
$scope begin genblk1[21] $end
$upscope $end
$scope begin genblk1[22] $end
$upscope $end
$scope begin genblk1[23] $end
$upscope $end
$scope begin genblk1[24] $end
$upscope $end
$scope begin genblk1[25] $end
$upscope $end
$scope begin genblk1[26] $end
$upscope $end
$scope begin genblk1[27] $end
$upscope $end
$scope begin genblk1[28] $end
$upscope $end
$scope begin genblk1[29] $end
$upscope $end
$scope begin genblk1[30] $end
$upscope $end
$scope begin genblk1[31] $end
$upscope $end
$scope begin genblk2[0] $end
$upscope $end
$scope begin genblk2[1] $end
$upscope $end
$scope begin genblk2[2] $end
$upscope $end
$scope begin genblk2[3] $end
$upscope $end
$scope begin genblk2[4] $end
$upscope $end
$scope begin genblk2[5] $end
$upscope $end
$scope begin genblk2[6] $end
$upscope $end
$scope begin genblk2[7] $end
$upscope $end
$scope begin genblk2[8] $end
$upscope $end
$scope begin genblk2[9] $end
$upscope $end
$scope begin genblk2[10] $end
$upscope $end
$scope begin genblk2[11] $end
$upscope $end
$scope begin genblk2[12] $end
$upscope $end
$scope begin genblk2[13] $end
$upscope $end
$scope begin genblk2[14] $end
$upscope $end
$scope begin genblk2[15] $end
$upscope $end
$scope begin genblk2[16] $end
$upscope $end
$scope begin genblk2[17] $end
$upscope $end
$scope begin genblk2[18] $end
$upscope $end
$scope begin genblk2[19] $end
$upscope $end
$scope begin genblk2[20] $end
$upscope $end
$scope begin genblk2[21] $end
$upscope $end
$scope begin genblk2[22] $end
$upscope $end
$scope begin genblk2[23] $end
$upscope $end
$scope begin genblk2[24] $end
$upscope $end
$scope begin genblk2[25] $end
$upscope $end
$scope begin genblk2[26] $end
$upscope $end
$scope begin genblk2[27] $end
$upscope $end
$scope begin genblk2[28] $end
$upscope $end
$scope begin genblk2[29] $end
$upscope $end
$scope begin genblk2[30] $end
$upscope $end
$upscope $end
$upscope $end
$scope module branch_i $end
$var wire 1 b" br_en $end
$var wire 32 c" i_dat_a [31:0] $end
$var wire 32 d" i_dat_b [31:0] $end
$var wire 3 e" i_funct3 [2:0] $end
$var wire 5 f" i_opcode [4:0] $end
$var wire 1 T o_br_en $end
$var wire 1 g" op_jump $end
$var wire 1 h" op_branch $end
$var wire 1 i" lower_u $end
$var wire 1 j" lower $end
$var wire 1 k" equal $end
$var reg 1 l" condition $end
$upscope $end
$scope module csr_i $end
$var wire 32 m" clr_data [31:0] $end
$var wire 12 n" i_adr [11:0] $end
$var wire 1 * i_clk $end
$var wire 1 " i_clr $end
$var wire 1 # i_rd $end
$var wire 1 $ i_set $end
$var wire 1 % i_wr $end
$var wire 32 o" i_wr_data [31:0] $end
$var wire 32 p" o_rd_data [31:0] $end
$var wire 32 q" set_data [31:0] $end
$var wire 1 r" write_enable $end
$var wire 32 s" write_data [31:0] $end
$var reg 32 t" read_data [31:0] $end
$var reg 32 u" reg_200 [31:0] $end
$var reg 32 v" reg_800 [31:0] $end
$var reg 32 w" reg_F00 [31:0] $end
$upscope $end
$scope module decoder_i $end
$var wire 1 x" alu_en $end
$var wire 1 y" alu_pc $end
$var wire 1 z" format_b $end
$var wire 1 {" format_i $end
$var wire 1 |" format_j $end
$var wire 1 }" format_r $end
$var wire 1 ~" format_s $end
$var wire 1 !# format_u $end
$var wire 1 "# hz_rsb $end
$var wire 1 ## ma_rd $end
$var wire 1 $# ma_wr $end
$var wire 1 X o_alu_en $end
$var wire 1 W o_alu_imm $end
$var wire 1 U o_alu_pc $end
$var wire 3 %# o_funct3 [2:0] $end
$var wire 7 &# o_funct7 [6:0] $end
$var wire 1 K o_hz_rsa $end
$var wire 1 J o_hz_rsb $end
$var wire 32 '# o_immediate [31:0] $end
$var wire 1 P o_ma_rd $end
$var wire 1 O o_ma_wr $end
$var wire 5 (# o_opcode [4:0] $end
$var wire 5 )# o_rd [4:0] $end
$var wire 5 *# o_rsa [4:0] $end
$var wire 5 +# o_rsb [4:0] $end
$var wire 1 8 o_system $end
$var wire 1 6 o_wb_en $end
$var wire 2 ,# o_wb_mux [1:0] $end
$var wire 1 -# opcode_valid $end
$var wire 5 .# rsa [4:0] $end
$var wire 1 /# wb_en $end
$var wire 2 0# wb_mux [1:0] $end
$var wire 5 1# rsb [4:0] $end
$var wire 5 2# rd [4:0] $end
$var wire 5 3# opcode [4:0] $end
$var wire 1 4# op_system $end
$var wire 1 5# op_store $end
$var wire 1 6# op_op_imm $end
$var wire 1 7# op_op $end
$var wire 1 8# op_lui $end
$var wire 1 9# op_load $end
$var wire 1 :# op_jalr $end
$var wire 1 ;# op_jal $end
$var wire 1 <# op_branch $end
$var wire 1 =# op_auipc $end
$var wire 32 ># immediate_u [31:0] $end
$var wire 32 ?# immediate_s [31:0] $end
$var wire 32 @# immediate_mux [31:0] $end
$var wire 32 A# immediate_j [31:0] $end
$var wire 32 B# immediate_i [31:0] $end
$var wire 32 C# immediate_b [31:0] $end
$var wire 32 D# i_opcode_in [31:0] $end
$var wire 1 E# hz_rsa $end
$var wire 7 F# funct7 [6:0] $end
$var wire 3 G# funct3 [2:0] $end
$var wire 1 H# alu_imm $end
$upscope $end
$scope module fetch_i $end
$var wire 32 I# i_br_addr [31:0] $end
$var wire 1 T i_br_en $end
$var wire 1 * i_clk $end
$var wire 1 ! i_clk_ce $end
$var wire 32 J# i_data_in [31:0] $end
$var wire 1 ) i_hz_data $end
$var wire 1 - i_rst $end
$var wire 1 L o_hz_br $end
$var wire 32 K# o_id_ir [31:0] $end
$var wire 32 L# o_id_pc [31:0] $end
$var wire 32 M# o_id_ret [31:0] $end
$var wire 32 N# o_if_pc [31:0] $end
$var wire 32 O# pc_next [31:0] $end
$var wire 32 P# pc_mux [31:0] $end
$var reg 1 Q# hz_br $end
$var reg 32 R# id_ir [31:0] $end
$var reg 32 S# id_pc [31:0] $end
$var reg 32 T# id_ret [31:0] $end
$var reg 32 U# if_pc [31:0] $end
$upscope $end
$scope module memory_i $end
$var wire 32 V# data_rd_short [31:0] $end
$var wire 32 W# data_rd_signed [31:0] $end
$var wire 32 X# i_data_rd [31:0] $end
$var wire 32 Y# i_data_wr [31:0] $end
$var wire 2 Z# i_length [1:0] $end
$var wire 2 [# i_shift [1:0] $end
$var wire 1 \# i_signed_rd $end
$var wire 32 ]# o_data_rd [31:0] $end
$var wire 32 ^# o_data_wr [31:0] $end
$var wire 32 _# sign_extension [31:0] $end
$var wire 1 `# sign_bit $end
$var wire 4 a# o_we [3:0] $end
$var reg 32 b# data_rd_shift [31:0] $end
$var reg 32 c# data_wr_shift [31:0] $end
$var reg 32 d# length_mask [31:0] $end
$var reg 4 e# we_lenght [3:0] $end
$var reg 4 f# we_shifted [3:0] $end
$upscope $end
$scope module regs_i $end
$var wire 5 g# i_addr_rd_a [4:0] $end
$var wire 5 h# i_addr_rd_b [4:0] $end
$var wire 5 i# i_addr_wr [4:0] $end
$var wire 1 ! i_ce $end
$var wire 1 S i_clk $end
$var wire 32 j# i_dat_wr [31:0] $end
$var wire 1 w i_we $end
$var wire 32 k# o_dat_rd_a [31:0] $end
$var wire 32 l# o_dat_rd_b [31:0] $end
$var wire 1 m# write_pass_a_en $end
$var wire 1 n# write_pass_b_en $end
$var wire 1 o# write_pass_en $end
$var wire 32 p# dat_rd_b [31:0] $end
$var wire 32 q# dat_rd_a [31:0] $end
$var reg 32 r# dat_rd_a_reg [31:0] $end
$var reg 32 s# dat_rd_b_reg [31:0] $end
$scope begin $ivl_for_loop0 $end
$var integer 32 t# i [31:0] $end
$upscope $end
$upscope $end
$upscope $end
$upscope $end
$enddefinitions $end
#0
$dumpvars
b100000 t#
bx s#
bx r#
bx q#
bx p#
xo#
xn#
xm#
bx l#
bx k#
bx j#
bx i#
bx h#
bx g#
bx f#
bx e#
bx d#
bx c#
b0 b#
bx a#
0`#
b0 _#
bx ^#
b0 ]#
x\#
bx [#
bx Z#
bx Y#
b0 X#
b0 W#
b0 V#
bx U#
bx T#
bx S#
bx R#
xQ#
bx P#
bx O#
bx N#
bx M#
bx L#
bx K#
bx J#
bx I#
xH#
bx G#
bx F#
xE#
bx D#
bx0 C#
bx B#
bx0 A#
bx @#
bx ?#
bx000000000000 >#
x=#
x<#
x;#
x:#
x9#
x8#
x7#
x6#
x5#
x4#
bx 3#
bx 2#
bx 1#
bx 0#
x/#
bx .#
x-#
bx ,#
bx +#
bx *#
bx )#
bx (#
bx '#
bx &#
bx %#
x$#
x##
x"#
x!#
x~"
x}"
x|"
x{"
xz"
xy"
xx"
b0 w"
b0 v"
b0 u"
b0 t"
bx s"
xr"
bx q"
b0 p"
bx o"
bx n"
b0 m"
xl"
xk"
xj"
xi"
xh"
xg"
bx f"
bx e"
bx d"
bx c"
xb"
bx a"
bx `"
bx _"
bx ^"
bx ]"
bx \"
bx ["
xZ"
xY"
xX"
bx W"
bx V"
bx U"
b0 T"
b100000 S"
b0 R"
b0 Q"
1P"
bx O"
bx N"
bx M"
bx L"
0K"
b0 J"
b0 I"
b0 H"
xG"
b0 F"
b0 E"
bx D"
bx C"
xB"
bx A"
bx @"
bx ?"
bx >"
x="
x<"
x;"
x:"
09"
x8"
x7"
x6"
x5"
x4"
x3"
bx 2"
bx 1"
bx 0"
bx /"
bx ."
bx -"
b0x ,"
b0x +"
x*"
x)"
0("
x'"
bx &"
bx %"
bx $"
0#"
x""
bx !"
bx ~
bx }
bx |
bx {
bx z
bx y
bx x
xw
bx v
xu
bx t
bx s
xr
bx q
bx p
bx o
bx n
bx m
bx l
xk
xj
bx i
bx h
bx g
bx f
bx e
bx d
xc
xb
bx a
bx `
bx _
x^
x]
x\
bx [
bx Z
0Y
xX
xW
bx V
xU
xT
1S
b0 R
bx Q
xP
xO
bx N
bx M
xL
xK
xJ
bx I
bx H
bx G
bx F
bx E
b0 D
bx C
bx B
bx A
bx @
bx ?
bx >
bx =
bx <
bx ;
bx :
bx 9
x8
bx 7
x6
bx 5
bx 4
x3
bx 2
bx 1
x0
1/
1.
1-
bx ,
b0 +
0*
x)
x(
x'
x&
x%
x$
x#
x"
1!
$end
#1
b0 &"
b0 >"
b0 ?"
b0 E
b0 '#
b0 @#
b0 C
0)
1{"
0'
0r"
0G"
b0 V
b0 %"
b0 I#
b0 @"
b0 ^"
0P
0##
0(
1K
1E#
06
0/#
b0 s"
0:"
06"
b0 ]"
b0 $"
b0 a"
b0 _"
b100 P#
b0 /"
b0 A"
b0 M"
0;"
b1 B
b1 a#
b1 f#
0-#
0O
0$#
0J
0"#
0X
0x"
b0 <
b0 *#
b0 g#
b0 .#
0!#
0U
0y"
0%
0$
0"
0<"
05"
b0 \"
b0 ["
b0 `"
0T
0b"
b0 -"
b0 ."
b0 W"
b0 C"
b0 L"
b0 !"
b0 ~
b0 }
b0 D"
b0 q"
b1 e#
b11111111 d#
b0 ?
0n#
0m#
b0 B#
b0 ?#
b0 C#
b0 A#
b0 >#
b0 M
b0 &#
b0 F#
b0 N
b0 %#
b0 G#
b0 =
b0 )#
b0 2#
b0 :
b0 +#
b0 h#
b0 1#
b1 5
b1 ,#
b1 0#
19#
06#
0=#
0~"
05#
1W
1H#
0}"
07#
08#
0z"
0<#
0:#
0|"
0;#
08
04#
b0 >
b0 (#
b0 3#
0#
0'"
07"
0&
0Y"
0Z"
0""
08"
0="
03"
04"
0X"
0g"
b0 n"
b0 ,"
b0 +"
b0 N"
b0 Z
b0 |
b0 2"
1l"
b0 O"
b0 [
b0 {
b0 1"
b0 V"
b0 Q
b0 o"
b0 4
b0 1
b0 Z#
1\#
b0 7
b0 [#
b0 @
b0 A
b0 ^#
b0 c#
0o#
0L
0Q#
b100 O#
b0 2
b0 F
b0 N#
b0 U#
b0 I
b0 D#
b0 K#
b0 R#
b0 H
b0 L#
b0 S#
b0 G
b0 M#
b0 T#
0j
0k
b0 l
b0 m
0b
0c
0\
0]
0^
b0 g
0)"
0*"
b0 `
b0 z
0B"
b0 _
b0 y
b0 0"
b0 U"
b0 e"
0h"
b0 d
b0 f"
b0 f
b0 e
b0 a
1k"
0j"
0i"
b0 i
b0 d"
b0 h
b0 c"
0r
b0 s
b0 t
03
00
0u
b0 n
b0 p
b0 o
b0 q
b0 Y#
0w
b0 x
b0 i#
b0 v
b0 j#
0S
1*
#2
b0 9
b0 l#
b0 p#
b0 ;
b0 k#
b0 q#
b0 s#
b0 r#
b10000000000000001101111 ,
b10000000000000001101111 J#
1S
0*
#3
0S
1*
#4
1S
0*
#5
0S
1*
#6
1S
0*
#7
0S
1*
#8
1S
0*
#9
0S
1*
#10
1S
0*
0-
#11
0{"
16
1/#
1U
1y"
b100 E
b100 '#
b100 @#
1-#
0K
0E#
b100 B#
b100 A#
b10000000000000000000000 >#
b100 :
b100 +#
b100 h#
b100 1#
b10 5
b10 ,#
b10 0#
09#
1|"
1;#
b11011 >
b11011 (#
b11011 3#
b1000 P#
b1 l
1]
b10000000000000001101111 I
b10000000000000001101111 D#
b10000000000000001101111 K#
b10000000000000001101111 R#
b100 G
b100 M#
b100 T#
b1000 O#
b100 2
b100 F
b100 N#
b100 U#
0S
1*
#12
b10010011 ,
b10010011 J#
1S
0*
#13
16
1/#
1-#
b100 C
1{"
b100 V
b100 %"
b100 I#
0U
0y"
b0 E
b0 '#
b0 @#
b100 /"
b1111111111111111111111111111 ["
b11100 `"
1X
1x"
1K
1E#
b0 5
b0 ,#
b0 0#
1T
1b"
b100 !"
b100 ~
b100 -"
b100 ."
b100 W"
b100 C"
b100 L"
b100 P#
b0 B#
b1 ?#
b100000000000 C#
b0 A#
b0 >#
b1 =
b1 )#
b1 2#
b0 :
b0 +#
b0 h#
b0 1#
16#
0|"
0;#
b100 >
b100 (#
b100 3#
1g"
b1 ,"
b1 +"
b11111111111111111111111111111100 N"
b100 Z
b100 |
b100 2"
b100 n"
b1100 O#
b1000 2
b1000 F
b1000 N#
b1000 U#
b10010011 I
b10010011 D#
b10010011 K#
b10010011 R#
b100 H
b100 L#
b100 S#
b1000 G
b1000 M#
b1000 T#
1k
b10 l
1^
b11011 d
b11011 f"
b100 f
b100 a
b1 s
0S
1*
#14
b100010011 ,
b100010011 J#
1S
0*
#15
b0 C
b0 V
b0 %"
b0 I#
b1000 P#
b0 /"
b0 ["
b0 `"
06
0/#
0T
0b"
b0 !"
b0 ~
b0 -"
b0 ."
b0 W"
b0 C"
b0 L"
0-#
0P
0##
0X
0x"
b100 7
0g"
b0 ,"
b0 +"
b0 N"
b0 Z
b0 |
b0 2"
b0 n"
b1 5
b1 ,#
b1 0#
19#
06#
b0 >
b0 (#
b0 3#
b0 ?#
b0 C#
b0 =
b0 )#
b0 2#
1r
b10 s
b100 p
b100 o
0k
b0 l
0]
0^
b0 d
b0 f"
b0 f
b0 a
b0 I
b0 D#
b0 K#
b0 R#
b1000 H
b1000 L#
b1000 S#
b1100 G
b1100 M#
b1100 T#
1L
1Q#
b1000 O#
b100 2
b100 F
b100 N#
b100 U#
0S
1*
#16
b10010011 ,
b10010011 J#
1S
0*
#17
16
1/#
1-#
1X
1x"
b1100 P#
b1 ?#
b100000000000 C#
b1 =
b1 )#
b1 2#
b0 5
b0 ,#
b0 0#
09#
16#
b100 >
b100 (#
b100 3#
b0 7
b1100 O#
b1000 2
b1000 F
b1000 N#
b1000 U#
0L
0Q#
b10010011 I
b10010011 D#
b10010011 K#
b10010011 R#
b100 H
b100 L#
b100 S#
b1000 G
b1000 M#
b1000 T#
0r
b0 s
b0 p
b0 o
1w
b100 v
b100 j#
0S
1*
#18
b100010011 ,
b100010011 J#
1S
0*
#19
b10 ?#
b10 C#
b10 =
b10 )#
b10 2#
b10000 P#
0w
b0 v
b0 j#
1k
b1 m
1\
1]
b100 d
b100 f"
b1000 f
b100 e
b100010011 I
b100010011 D#
b100010011 K#
b100010011 R#
b1000 H
b1000 L#
b1000 S#
b1100 G
b1100 M#
b1100 T#
b10000 O#
b1100 2
b1100 F
b1100 N#
b1100 U#
0S
1*
#20
b110010011 ,
b110010011 J#
1S
0*
#21
b10100 P#
b11 ?#
b100000000010 C#
b11 =
b11 )#
b11 2#
b10100 O#
b10000 2
b10000 F
b10000 N#
b10000 U#
b110010011 I
b110010011 D#
b110010011 K#
b110010011 R#
b1100 H
b1100 L#
b1100 S#
b10000 G
b10000 M#
b10000 T#
b10 m
b1100 f
b1000 e
1r
b1 t
b1000 p
0S
1*
#22
b1000010011 ,
b1000010011 J#
1S
0*
#23
1o#
b100 ?#
b100 C#
b100 =
b100 )#
b100 2#
b11000 P#
1w
b1 x
b1 i#
b10 t
b1100 p
b11 m
b10000 f
b1100 e
b1000010011 I
b1000010011 D#
b1000010011 K#
b1000010011 R#
b10000 H
b10000 L#
b10000 S#
b10100 G
b10100 M#
b10100 T#
b11000 O#
b10100 2
b10100 F
b10100 N#
b10100 U#
0S
1*
#24
b1010010011 ,
b1010010011 J#
1S
0*
#25
b11100 P#
b101 ?#
b100000000100 C#
b101 =
b101 )#
b101 2#
b11100 O#
b11000 2
b11000 F
b11000 N#
b11000 U#
b1010010011 I
b1010010011 D#
b1010010011 K#
b1010010011 R#
b10100 H
b10100 L#
b10100 S#
b11000 G
b11000 M#
b11000 T#
b100 m
b10100 f
b10000 e
b11 t
b10000 p
b10 x
b10 i#
0S
1*
#26
b1100010011 ,
b1100010011 J#
1S
0*
#27
b110 ?#
b110 C#
b110 =
b110 )#
b110 2#
b100000 P#
b11 x
b11 i#
b100 t
b10100 p
b101 m
b11000 f
b10100 e
b1100010011 I
b1100010011 D#
b1100010011 K#
b1100010011 R#
b11000 H
b11000 L#
b11000 S#
b11100 G
b11100 M#
b11100 T#
b100000 O#
b11100 2
b11100 F
b11100 N#
b11100 U#
0S
1*
#28
b1110010011 ,
b1110010011 J#
1S
0*
#29
b100100 P#
b111 ?#
b100000000110 C#
b111 =
b111 )#
b111 2#
b100100 O#
b100000 2
b100000 F
b100000 N#
b100000 U#
b1110010011 I
b1110010011 D#
b1110010011 K#
b1110010011 R#
b11100 H
b11100 L#
b11100 S#
b100000 G
b100000 M#
b100000 T#
b110 m
b11100 f
b11000 e
b101 t
b11000 p
b100 x
b100 i#
0S
1*
#30
b10000010011 ,
b10000010011 J#
1S
0*
#31
b1000 ?#
b1000 C#
b1000 =
b1000 )#
b1000 2#
b101000 P#
b101 x
b101 i#
b110 t
b11100 p
b111 m
b100000 f
b11100 e
b10000010011 I
b10000010011 D#
b10000010011 K#
b10000010011 R#
b100000 H
b100000 L#
b100000 S#
b100100 G
b100100 M#
b100100 T#
b101000 O#
b100100 2
b100100 F
b100100 N#
b100100 U#
0S
1*
#32
b10010010011 ,
b10010010011 J#
1S
0*
#33
b101100 P#
b1001 ?#
b100000001000 C#
b1001 =
b1001 )#
b1001 2#
b101100 O#
b101000 2
b101000 F
b101000 N#
b101000 U#
b10010010011 I
b10010010011 D#
b10010010011 K#
b10010010011 R#
b100100 H
b100100 L#
b100100 S#
b101000 G
b101000 M#
b101000 T#
b1000 m
b100100 f
b100000 e
b111 t
b100000 p
b110 x
b110 i#
0S
1*
#34
b10100010011 ,
b10100010011 J#
1S
0*
#35
b1010 ?#
b1010 C#
b1010 =
b1010 )#
b1010 2#
b110000 P#
b111 x
b111 i#
b1000 t
b100100 p
b1001 m
b101000 f
b100100 e
b10100010011 I
b10100010011 D#
b10100010011 K#
b10100010011 R#
b101000 H
b101000 L#
b101000 S#
b101100 G
b101100 M#
b101100 T#
b110000 O#
b101100 2
b101100 F
b101100 N#
b101100 U#
0S
1*
#36
b10110010011 ,
b10110010011 J#
1S
0*
#37
b110100 P#
b1011 ?#
b100000001010 C#
b1011 =
b1011 )#
b1011 2#
b110100 O#
b110000 2
b110000 F
b110000 N#
b110000 U#
b10110010011 I
b10110010011 D#
b10110010011 K#
b10110010011 R#
b101100 H
b101100 L#
b101100 S#
b110000 G
b110000 M#
b110000 T#
b1010 m
b101100 f
b101000 e
b1001 t
b101000 p
b1000 x
b1000 i#
0S
1*
#38
b11000010011 ,
b11000010011 J#
1S
0*
#39
b1100 ?#
b1100 C#
b1100 =
b1100 )#
b1100 2#
b111000 P#
b1001 x
b1001 i#
b1010 t
b101100 p
b1011 m
b110000 f
b101100 e
b11000010011 I
b11000010011 D#
b11000010011 K#
b11000010011 R#
b110000 H
b110000 L#
b110000 S#
b110100 G
b110100 M#
b110100 T#
b111000 O#
b110100 2
b110100 F
b110100 N#
b110100 U#
0S
1*
#40
b11010010011 ,
b11010010011 J#
1S
0*
#41
b111100 P#
b1101 ?#
b100000001100 C#
b1101 =
b1101 )#
b1101 2#
b111100 O#
b111000 2
b111000 F
b111000 N#
b111000 U#
b11010010011 I
b11010010011 D#
b11010010011 K#
b11010010011 R#
b110100 H
b110100 L#
b110100 S#
b111000 G
b111000 M#
b111000 T#
b1100 m
b110100 f
b110000 e
b1011 t
b110000 p
b1010 x
b1010 i#
0S
1*
#42
b11100010011 ,
b11100010011 J#
1S
0*
#43
b1110 ?#
b1110 C#
b1110 =
b1110 )#
b1110 2#
b1000000 P#
b1011 x
b1011 i#
b1100 t
b110100 p
b1101 m
b111000 f
b110100 e
b11100010011 I
b11100010011 D#
b11100010011 K#
b11100010011 R#
b111000 H
b111000 L#
b111000 S#
b111100 G
b111100 M#
b111100 T#
b1000000 O#
b111100 2
b111100 F
b111100 N#
b111100 U#
0S
1*
#44
b11110010011 ,
b11110010011 J#
1S
0*
#45
b1000100 P#
b1111 ?#
b100000001110 C#
b1111 =
b1111 )#
b1111 2#
b1000100 O#
b1000000 2
b1000000 F
b1000000 N#
b1000000 U#
b11110010011 I
b11110010011 D#
b11110010011 K#
b11110010011 R#
b111100 H
b111100 L#
b111100 S#
b1000000 G
b1000000 M#
b1000000 T#
b1110 m
b111100 f
b111000 e
b1101 t
b111000 p
b1100 x
b1100 i#
0S
1*
