hdl/cpu_log.vcd
$date
	Fri Sep  2 10:29:15 2022
$end
$version
	Icarus Verilog
$end
$timescale
	1s
$end
$scope module cpu_tb $end
$scope module DUT $end
$var wire 1 ! clk_ce $end
$var wire 1 " csr_clr $end
$var wire 1 # csr_rd $end
$var wire 1 $ csr_set $end
$var wire 1 % csr_wr $end
$var wire 1 & csr_wr_en $end
$var wire 1 ' hz_dat_rs1 $end
$var wire 1 ( hz_dat_rs2 $end
$var wire 1 ) hz_data $end
$var wire 1 * i_clk $end
$var wire 32 + i_data_in_d [31:0] $end
$var wire 32 , i_data_in_i [31:0] $end
$var wire 1 - i_rst $end
$var wire 1 . i_valid_d $end
$var wire 1 / i_valid_i $end
$var wire 1 0 ma_rd_en $end
$var wire 4 1 ma_wr_en [3:0] $end
$var wire 32 2 o_addr_i [31:0] $end
$var wire 1 3 o_rd_d $end
$var wire 4 4 o_we_d [3:0] $end
$var wire 2 5 wb_mux [1:0] $end
$var wire 1 6 wb_en $end
$var wire 32 7 wb_dat_mux [31:0] $end
$var wire 1 8 system $end
$var wire 32 9 rs2_d [31:0] $end
$var wire 5 : rs2 [4:0] $end
$var wire 32 ; rs1_d [31:0] $end
$var wire 5 < rs1 [4:0] $end
$var wire 5 = rd [4:0] $end
$var wire 5 > opcode [4:0] $end
$var wire 32 ? o_data_out_d [31:0] $end
$var wire 32 @ o_addr_d [31:0] $end
$var wire 32 A ma_wr_dat [31:0] $end
$var wire 4 B ma_we [3:0] $end
$var wire 32 C ma_res_dat [31:0] $end
$var wire 32 D ma_rd_dat [31:0] $end
$var wire 32 E immediate [31:0] $end
$var wire 32 F if_pc [31:0] $end
$var wire 32 G id_ret [31:0] $end
$var wire 32 H id_pc [31:0] $end
$var wire 32 I id_ir [31:0] $end
$var wire 1 J hz_rs2 $end
$var wire 1 K hz_rs1 $end
$var wire 1 L hz_br $end
$var wire 7 M funct7 [6:0] $end
$var wire 3 N funct3 [2:0] $end
$var wire 1 O d_wr $end
$var wire 1 P d_rd $end
$var wire 32 Q csr_wr_data [31:0] $end
$var wire 32 R csr_rd_data [31:0] $end
$var wire 1 S clk_n $end
$var wire 1 T br_en $end
$var wire 1 U alu_pc $end
$var wire 32 V alu_out [31:0] $end
$var wire 1 W alu_imm $end
$var wire 1 X alu_en $end
$var wire 1 Y alu_busy $end
$var wire 32 Z alu_b_mux [31:0] $end
$var wire 32 [ alu_a_mux [31:0] $end
$var reg 1 \ ex_alu_en $end
$var reg 1 ] ex_alu_imm $end
$var reg 1 ^ ex_alu_pc $end
$var reg 3 _ ex_funct3 [2:0] $end
$var reg 7 ` ex_funct7 [6:0] $end
$var reg 32 a ex_imm [31:0] $end
$var reg 1 b ex_ma_rd $end
$var reg 1 c ex_ma_wr $end
$var reg 5 d ex_opcode [4:0] $end
$var reg 32 e ex_pc [31:0] $end
$var reg 32 f ex_ret [31:0] $end
$var reg 5 g ex_rs1 [4:0] $end
$var reg 32 h ex_rs1_d [31:0] $end
$var reg 32 i ex_rs2_d [31:0] $end
$var reg 1 j ex_system $end
$var reg 1 k ex_wb_en $end
$var reg 2 l ex_wb_mux [1:0] $end
$var reg 5 m ex_wb_reg [4:0] $end
$var reg 3 n ma_funct3 [2:0] $end
$var reg 1 0 ma_rd $end
$var reg 32 o ma_res [31:0] $end
$var reg 32 p ma_ret [31:0] $end
$var reg 32 q ma_rs2_d [31:0] $end
$var reg 1 r ma_wb_en $end
$var reg 2 s ma_wb_mux [1:0] $end
$var reg 5 t ma_wb_reg [4:0] $end
$var reg 1 u ma_wr $end
$var reg 32 v wb_wb_d [31:0] $end
$var reg 1 w wb_wb_en $end
$var reg 5 x wb_wb_reg [4:0] $end
$scope module alu_i $end
$var wire 1 \ i_alu_en $end
$var wire 1 ] i_alu_imm $end
$var wire 1 S i_clk_n $end
$var wire 3 y i_funct3 [2:0] $end
$var wire 7 z i_funct7 [6:0] $end
$var wire 32 { i_in_a [31:0] $end
$var wire 32 | i_in_b [31:0] $end
$var wire 32 } logic_and [31:0] $end
$var wire 32 ~ logic_or [31:0] $end
$var wire 32 !" logic_xor [31:0] $end
$var wire 1 "" md_en $end
$var wire 1 Y o_busy $end
$var wire 1 #" op_subtract $end
$var wire 1 $" shift_busy $end
$var wire 1 %" shift_en $end
$var wire 32 &" shift_result [31:0] $end
$var wire 32 '" o_alu_out [31:0] $end
$var wire 32 (" md_result [31:0] $end
$var wire 1 )" md_busy $end
$var wire 1 *" funct7_5 $end
$var wire 1 +" funct7_0 $end
$var wire 32 ," comp_u [31:0] $end
$var wire 32 -" comp [31:0] $end
$var wire 32 ." adder_out [31:0] $end
$var wire 32 /" adder_in_b [31:0] $end
$var reg 32 0" mux [31:0] $end
$scope module muldiv_i $end
$var wire 1 S i_clk_n $end
$var wire 3 1" i_funct3 [2:0] $end
$var wire 32 2" i_in_a [31:0] $end
$var wire 32 3" i_in_b [31:0] $end
$var wire 1 "" i_md_en $end
$var wire 1 4" md_d_a_signed $end
$var wire 1 5" md_d_b_signed $end
$var wire 1 6" md_d_en $end
$var wire 1 7" md_div_sign $end
$var wire 1 8" md_m_a_signed $end
$var wire 1 9" md_m_busy $end
$var wire 1 :" md_m_sign $end
$var wire 1 ;" md_rem_sign $end
$var wire 1 <" md_sign_a $end
$var wire 1 =" md_sign_b $end
$var wire 1 )" o_busy $end
$var wire 32 >" o_result [31:0] $end
$var wire 32 ?" md_mul [31:0] $end
$var wire 64 @" md_m_q [63:0] $end
$var wire 64 A" md_m_mul [63:0] $end
$var wire 1 B" md_m_b_signed $end
$var wire 32 C" md_in_b [31:0] $end
$var wire 32 D" md_in_a [31:0] $end
$var wire 32 E" md_div [31:0] $end
$var wire 32 F" md_d_sub [31:0] $end
$var wire 1 G" md_d_sign $end
$var wire 32 H" md_d_res [31:0] $end
$var wire 32 I" md_d_rem [31:0] $end
$var wire 32 J" md_d_div [31:0] $end
$var wire 1 K" md_d_busy $end
$var wire 32 L" md_b [31:0] $end
$var wire 32 M" md_a [31:0] $end
$var wire 32 N" in_b_n [31:0] $end
$var wire 32 O" in_a_n [31:0] $end
$var wire 1 P" div_cmp $end
$var reg 64 Q" md_d_a [63:0] $end
$var reg 32 R" md_d_b [31:0] $end
$var reg 6 S" md_d_cnt [5:0] $end
$var reg 32 T" md_d_q [31:0] $end
$upscope $end
$scope module shifter_i $end
$var wire 1 S i_clk_n $end
$var wire 3 U" i_funct3 [2:0] $end
$var wire 32 V" i_in_a [31:0] $end
$var wire 5 W" i_in_b [4:0] $end
$var wire 1 *" i_op_alt $end
$var wire 1 %" i_shift_en $end
$var wire 1 $" o_busy $end
$var wire 1 X" op_sll $end
$var wire 1 Y" op_sra $end
$var wire 1 Z" op_srl $end
$var wire 32 [" shift_mask [31:0] $end
$var wire 32 \" shift_out [31:0] $end
$var wire 32 ]" shift_sll [31:0] $end
$var wire 32 ^" shift_sra [31:0] $end
$var wire 32 _" shift_srl [31:0] $end
$var wire 5 `" shift_amount [4:0] $end
$var wire 32 a" o_result [31:0] $end
$scope begin genblk1[0] $end
$upscope $end
$scope begin genblk1[1] $end
$upscope $end
$scope begin genblk1[2] $end
$upscope $end
$scope begin genblk1[3] $end
$upscope $end
$scope begin genblk1[4] $end
$upscope $end
$scope begin genblk1[5] $end
$upscope $end
$scope begin genblk1[6] $end
$upscope $end
$scope begin genblk1[7] $end
$upscope $end
$scope begin genblk1[8] $end
$upscope $end
$scope begin genblk1[9] $end
$upscope $end
$scope begin genblk1[10] $end
$upscope $end
$scope begin genblk1[11] $end
$upscope $end
$scope begin genblk1[12] $end
$upscope $end
$scope begin genblk1[13] $end
$upscope $end
$scope begin genblk1[14] $end
$upscope $end
$scope begin genblk1[15] $end
$upscope $end
$scope begin genblk1[16] $end
$upscope $end
$scope begin genblk1[17] $end
$upscope $end
$scope begin genblk1[18] $end
$upscope $end
$scope begin genblk1[19] $end
$upscope $end
$scope begin genblk1[20] $end
$upscope $end
$scope begin genblk1[21] $end
$upscope $end
$scope begin genblk1[22] $end
$upscope $end
$scope begin genblk1[23] $end
$upscope $end
$scope begin genblk1[24] $end
$upscope $end
$scope begin genblk1[25] $end
$upscope $end
$scope begin genblk1[26] $end
$upscope $end
$scope begin genblk1[27] $end
$upscope $end
$scope begin genblk1[28] $end
$upscope $end
$scope begin genblk1[29] $end
$upscope $end
$scope begin genblk1[30] $end
$upscope $end
$scope begin genblk1[31] $end
$upscope $end
$scope begin genblk2[0] $end
$upscope $end
$scope begin genblk2[1] $end
$upscope $end
$scope begin genblk2[2] $end
$upscope $end
$scope begin genblk2[3] $end
$upscope $end
$scope begin genblk2[4] $end
$upscope $end
$scope begin genblk2[5] $end
$upscope $end
$scope begin genblk2[6] $end
$upscope $end
$scope begin genblk2[7] $end
$upscope $end
$scope begin genblk2[8] $end
$upscope $end
$scope begin genblk2[9] $end
$upscope $end
$scope begin genblk2[10] $end
$upscope $end
$scope begin genblk2[11] $end
$upscope $end
$scope begin genblk2[12] $end
$upscope $end
$scope begin genblk2[13] $end
$upscope $end
$scope begin genblk2[14] $end
$upscope $end
$scope begin genblk2[15] $end
$upscope $end
$scope begin genblk2[16] $end
$upscope $end
$scope begin genblk2[17] $end
$upscope $end
$scope begin genblk2[18] $end
$upscope $end
$scope begin genblk2[19] $end
$upscope $end
$scope begin genblk2[20] $end
$upscope $end
$scope begin genblk2[21] $end
$upscope $end
$scope begin genblk2[22] $end
$upscope $end
$scope begin genblk2[23] $end
$upscope $end
$scope begin genblk2[24] $end
$upscope $end
$scope begin genblk2[25] $end
$upscope $end
$scope begin genblk2[26] $end
$upscope $end
$scope begin genblk2[27] $end
$upscope $end
$scope begin genblk2[28] $end
$upscope $end
$scope begin genblk2[29] $end
$upscope $end
$scope begin genblk2[30] $end
$upscope $end
$upscope $end
$upscope $end
$scope module branch_i $end
$var wire 1 b" br_en $end
$var wire 32 c" i_dat_a [31:0] $end
$var wire 32 d" i_dat_b [31:0] $end
$var wire 3 e" i_funct3 [2:0] $end
$var wire 5 f" i_opcode [4:0] $end
$var wire 1 T o_br_en $end
$var wire 1 g" op_jump $end
$var wire 1 h" op_branch $end
$var wire 1 i" lower_u $end
$var wire 1 j" lower $end
$var wire 1 k" equal $end
$var reg 1 l" condition $end
$upscope $end
$scope module csr_i $end
$var wire 32 m" clr_data [31:0] $end
$var wire 12 n" i_adr [11:0] $end
$var wire 1 * i_clk $end
$var wire 1 " i_clr $end
$var wire 1 # i_rd $end
$var wire 1 $ i_set $end
$var wire 1 % i_wr $end
$var wire 32 o" i_wr_data [31:0] $end
$var wire 32 p" o_rd_data [31:0] $end
$var wire 32 q" set_data [31:0] $end
$var wire 1 r" write_enable $end
$var wire 32 s" write_data [31:0] $end
$var reg 32 t" read_data [31:0] $end
$var reg 32 u" reg_200 [31:0] $end
$var reg 32 v" reg_800 [31:0] $end
$var reg 32 w" reg_F00 [31:0] $end
$upscope $end
$scope module decoder_i $end
$var wire 1 x" alu_en $end
$var wire 1 y" alu_pc $end
$var wire 1 z" c_add $end
$var wire 1 {" c_addi $end
$var wire 1 |" c_addi16sp $end
$var wire 1 }" c_addi4spn $end
$var wire 1 ~" c_alu $end
$var wire 1 !# c_andi $end
$var wire 1 "# c_ar $end
$var wire 1 ## c_b $end
$var wire 1 $# c_j $end
$var wire 1 %# c_jr $end
$var wire 1 &# c_li $end
$var wire 1 '# c_lui $end
$var wire 1 (# c_lw $end
$var wire 1 )# c_lwsp $end
$var wire 1 *# c_slli $end
$var wire 1 +# c_sri $end
$var wire 1 ,# c_sub $end
$var wire 1 -# c_sw $end
$var wire 1 .# c_swsp $end
$var wire 1 /# format_b $end
$var wire 1 0# format_i $end
$var wire 1 1# format_j $end
$var wire 1 2# format_r $end
$var wire 1 3# format_s $end
$var wire 1 4# format_u $end
$var wire 1 5# hz_rs2 $end
$var wire 1 6# ma_rd $end
$var wire 1 7# ma_wr $end
$var wire 1 X o_alu_en $end
$var wire 1 W o_alu_imm $end
$var wire 1 U o_alu_pc $end
$var wire 3 8# o_funct3 [2:0] $end
$var wire 7 9# o_funct7 [6:0] $end
$var wire 1 K o_hz_rs1 $end
$var wire 1 J o_hz_rs2 $end
$var wire 32 :# o_immediate [31:0] $end
$var wire 1 P o_ma_rd $end
$var wire 1 O o_ma_wr $end
$var wire 5 ;# o_opcode [4:0] $end
$var wire 5 <# o_rd [4:0] $end
$var wire 5 =# o_rs1 [4:0] $end
$var wire 5 ># o_rs2 [4:0] $end
$var wire 1 8 o_system $end
$var wire 1 6 o_wb_en $end
$var wire 2 ?# o_wb_mux [1:0] $end
$var wire 1 @# opcode_valid $end
$var wire 5 A# rs1 [4:0] $end
$var wire 1 B# valid_c $end
$var wire 1 C# wb_en $end
$var wire 2 D# wb_mux [1:0] $end
$var wire 5 E# rs2_cs [4:0] $end
$var wire 5 F# rs2_cl [4:0] $end
$var wire 5 G# rs2 [4:0] $end
$var wire 5 H# rs1_cs [4:0] $end
$var wire 5 I# rs1_cl [4:0] $end
$var wire 5 J# rd [4:0] $end
$var wire 1 K# quad_3 $end
$var wire 1 L# quad_2 $end
$var wire 1 M# quad_1 $end
$var wire 1 N# quad_0 $end
$var wire 32 O# opcode_in [31:0] $end
$var wire 5 P# opcode [4:0] $end
$var wire 1 Q# op_system $end
$var wire 1 R# op_store $end
$var wire 1 S# op_op_imm $end
$var wire 1 T# op_op $end
$var wire 1 U# op_lui $end
$var wire 1 V# op_load $end
$var wire 1 W# op_jalr $end
$var wire 1 X# op_jal $end
$var wire 1 Y# op_branch $end
$var wire 1 Z# op_auipc $end
$var wire 32 [# immediate_u [31:0] $end
$var wire 32 \# immediate_s [31:0] $end
$var wire 32 ]# immediate_mux [31:0] $end
$var wire 32 ^# immediate_j [31:0] $end
$var wire 32 _# immediate_i [31:0] $end
$var wire 6 `# immediate_cssp [7:2] $end
$var wire 6 a# immediate_clsp [7:2] $end
$var wire 5 b# immediate_cls [4:0] $end
$var wire 11 c# immediate_cj [11:1] $end
$var wire 8 d# immediate_ciw [7:0] $end
$var wire 6 e# immediate_ci [5:0] $end
$var wire 8 f# immediate_cb [8:1] $end
$var wire 6 g# immediate_ca [5:0] $end
$var wire 6 h# immediate_c16sp [9:4] $end
$var wire 32 i# immediate_b [31:0] $end
$var wire 32 j# i_opcode_in [31:0] $end
$var wire 1 k# hz_rs1 $end
$var wire 7 l# funct7 [6:0] $end
$var wire 3 m# funct3_c [2:0] $end
$var wire 3 n# funct3 [2:0] $end
$var wire 2 o# funct2_cl [1:0] $end
$var wire 2 p# funct2_ch [1:0] $end
$var wire 5 q# c_rs2 [4:0] $end
$var wire 5 r# c_rs1 [4:0] $end
$var wire 5 s# c_rd [4:0] $end
$var wire 32 t# c_opcode_in [31:0] $end
$var wire 5 u# c_opcode [4:0] $end
$var wire 7 v# c_funct7 [6:0] $end
$var wire 3 w# c_funct3 [2:0] $end
$var wire 3 x# c_ar_f3 [2:0] $end
$var wire 1 y# alu_imm $end
$upscope $end
$scope module fetch_i $end
$var wire 32 z# data_t0 [31:0] $end
$var wire 32 {# i_br_addr [31:0] $end
$var wire 1 T i_br_en $end
$var wire 1 * i_clk $end
$var wire 1 ! i_clk_ce $end
$var wire 32 |# i_data_in [31:0] $end
$var wire 1 ) i_hz_data $end
$var wire 1 - i_rst $end
$var wire 32 }# o_id_ir [31:0] $end
$var wire 32 ~# o_id_pc [31:0] $end
$var wire 32 !$ o_id_ret [31:0] $end
$var wire 32 "$ o_if_pc [31:0] $end
$var wire 1 #$ pc_next_c $end
$var wire 32 $$ pc_t0 [31:0] $end
$var wire 1 %$ unaligned_n $end
$var wire 1 &$ valid_o_t1 $end
$var wire 1 '$ valid_out $end
$var wire 1 ($ valid_o_t2 $end
$var wire 32 )$ ret_out [31:0] $end
$var wire 32 *$ pc_out [31:0] $end
$var wire 32 +$ pc_next [31:0] $end
$var wire 32 ,$ pc_mux [31:0] $end
$var wire 1 L o_hz_br $end
$var wire 1 -$ data_t0_cl $end
$var wire 1 .$ data_t0_ch $end
$var wire 32 /$ data_out [31:0] $end
$var wire 32 0$ data_o_t2 [31:0] $end
$var wire 32 1$ data_o_t1 [31:0] $end
$var wire 1 2$ c_data_t1_1 $end
$var reg 32 3$ data_t1 [31:0] $end
$var reg 32 4$ data_t2 [31:0] $end
$var reg 32 5$ if_pc [31:0] $end
$var reg 32 6$ pc_t1 [31:0] $end
$var reg 32 7$ pc_t2 [31:0] $end
$var reg 32 8$ ret_t1 [31:0] $end
$var reg 32 9$ ret_t2 [31:0] $end
$var reg 1 :$ t2_en $end
$var reg 1 ;$ valid_t1 $end
$var reg 1 ($ valid_t2 $end
$upscope $end
$scope module memory_i $end
$var wire 32 <$ data_rd_short [31:0] $end
$var wire 32 =$ data_rd_signed [31:0] $end
$var wire 32 >$ i_data_rd [31:0] $end
$var wire 32 ?$ i_data_wr [31:0] $end
$var wire 2 @$ i_length [1:0] $end
$var wire 2 A$ i_shift [1:0] $end
$var wire 1 B$ i_signed_rd $end
$var wire 32 C$ o_data_rd [31:0] $end
$var wire 32 D$ o_data_wr [31:0] $end
$var wire 32 E$ sign_extension [31:0] $end
$var wire 1 F$ sign_bit $end
$var wire 4 G$ o_we [3:0] $end
$var reg 32 H$ data_rd_shift [31:0] $end
$var reg 32 I$ data_wr_shift [31:0] $end
$var reg 32 J$ length_mask [31:0] $end
$var reg 4 K$ we_lenght [3:0] $end
$var reg 4 L$ we_shifted [3:0] $end
$upscope $end
$scope module regs_i $end
$var wire 5 M$ i_addr_rd_a [4:0] $end
$var wire 5 N$ i_addr_rd_b [4:0] $end
$var wire 5 O$ i_addr_wr [4:0] $end
$var wire 1 ! i_ce $end
$var wire 1 S i_clk $end
$var wire 32 P$ i_dat_wr [31:0] $end
$var wire 1 w i_we $end
$var wire 32 Q$ o_dat_rd_a [31:0] $end
$var wire 32 R$ o_dat_rd_b [31:0] $end
$var wire 1 S$ write_pass_a_en $end
$var wire 1 T$ write_pass_b_en $end
$var wire 1 U$ write_pass_en $end
$var wire 32 V$ dat_rd_b [31:0] $end
$var wire 32 W$ dat_rd_a [31:0] $end
$var reg 32 X$ dat_rd_a_reg [31:0] $end
$var reg 32 Y$ dat_rd_b_reg [31:0] $end
$scope begin $ivl_for_loop0 $end
$var integer 32 Z$ i [31:0] $end
$upscope $end
$upscope $end
$upscope $end
$upscope $end
$enddefinitions $end
#0
$dumpvars
b100000 Z$
bx Y$
bx X$
bx W$
bx V$
xU$
xT$
xS$
bx R$
bx Q$
bx P$
bx O$
bx N$
bx M$
bx L$
bx K$
bx J$
bx I$
b0 H$
bx G$
0F$
b0 E$
bx D$
b0 C$
xB$
bx A$
bx @$
bx ?$
b0 >$
b0 =$
b0 <$
x;$
x:$
bx 9$
bx 8$
bx 7$
bx 6$
bx 5$
bx 4$
bx 3$
x2$
bx 1$
bx 0$
bx /$
x.$
x-$
bx ,$
bx +$
bx *$
bx )$
x($
x'$
x&$
x%$
bx $$
x#$
bx "$
bx !$
bx ~#
bx }#
bx |#
bx {#
bx z#
xy#
bx x#
bx w#
bx v#
bx u#
bx t#
bx s#
bx r#
bx q#
bx p#
bx o#
bx n#
bx m#
bx l#
xk#
bx j#
bx0 i#
bx h#
bx g#
bx f#
bx e#
bx d#
bx c#
bx b#
bx a#
bx `#
bx _#
bx0 ^#
bx ]#
bx \#
bx000000000000 [#
xZ#
xY#
xX#
xW#
xV#
xU#
xT#
xS#
xR#
xQ#
bx P#
bx O#
xN#
xM#
xL#
xK#
bx J#
bx I#
b1xxx H#
bx G#
bx F#
b1xxx E#
bx D#
xC#
xB#
bx A#
x@#
bx ?#
bx >#
bx =#
bx <#
bx ;#
bx :#
bx 9#
bx 8#
x7#
x6#
x5#
x4#
x3#
x2#
x1#
x0#
x/#
x.#
x-#
x,#
x+#
x*#
x)#
x(#
x'#
x&#
x%#
x$#
x##
x"#
x!#
x~"
x}"
x|"
x{"
xz"
xy"
xx"
b0 w"
b0 v"
b0 u"
b0 t"
bx s"
xr"
bx q"
b0 p"
bx o"
bx n"
b0 m"
xl"
xk"
xj"
xi"
xh"
xg"
bx f"
bx e"
bx d"
bx c"
xb"
bx a"
bx `"
bx _"
bx ^"
bx ]"
bx \"
bx ["
xZ"
xY"
xX"
bx W"
bx V"
bx U"
b0 T"
b100000 S"
b0 R"
b0 Q"
1P"
bx O"
bx N"
bx M"
bx L"
0K"
b0 J"
b0 I"
b0 H"
xG"
b0 F"
b0 E"
bx D"
bx C"
xB"
bx A"
bx @"
bx ?"
bx >"
x="
x<"
x;"
x:"
09"
x8"
x7"
x6"
x5"
x4"
bx 3"
bx 2"
bx 1"
bx 0"
bx /"
bx ."
b0x -"
b0x ,"
x+"
x*"
0)"
bx ("
bx '"
bx &"
x%"
0$"
x#"
x""
bx !"
bx ~
bx }
bx |
bx {
bx z
bx y
bx x
xw
bx v
xu
bx t
bx s
xr
bx q
bx p
bx o
bx n
bx m
bx l
xk
xj
bx i
bx h
bx g
bx f
bx e
bx d
xc
xb
bx a
bx `
bx _
x^
x]
x\
bx [
bx Z
0Y
xX
xW
bx V
xU
xT
1S
b0 R
bx Q
xP
xO
bx N
bx M
xL
xK
xJ
bx I
bx H
bx G
bx F
bx E
b0 D
bx C
bx B
bx A
bx @
bx ?
bx >
bx =
bx <
bx ;
bx :
bx 9
x8
bx 7
x6
bx 5
bx 4
x3
bx 2
bx 1
x0
1/
1.
1-
bx ,
b0 +
0*
x)
x(
x'
x&
x%
x$
x#
x"
1!
$end
#1
16
1C#
1@#
1B#
b0 E
b0 :#
b0 ]#
0)
10#
0'
1K
1k#
0(
0P
06#
0O
07#
0J
05#
1X
1x"
04#
0U
0y"
b10 <
b10 =#
b10 M$
b10 A#
b0 5
b0 ?#
b0 D#
0V#
1S#
0Z#
03#
0R#
1W
1y#
02#
0T#
0U#
0/#
0Y#
0W#
01#
0X#
08
0Q#
b100 >
b100 ;#
b100 P#
b0 :
b0 >#
b0 N$
b0 G#
b1000 =
b1000 <#
b1000 J#
b0 N
b0 8#
b0 n#
b0 M
b0 9#
b0 l#
b10000000000000000 [#
b10000000000000000 ^#
b1000 i#
b1000 \#
b0 _#
b10000010000010011 O#
b0 ("
b0 >"
b1000 s#
b10 r#
b0 q#
b0 w#
b0 v#
b10000010000010011 t#
b100 u#
0+#
0'#
b0 ?"
0##
0$#
b0 x#
0,#
0"#
0!#
1}"
0(#
0-#
0~"
0*#
0)#
0.#
0%#
0z"
0|"
0{"
0&#
b0 C
b0 a#
b0 `#
b0 f#
b0 c#
b0 g#
b0 b#
b0 h#
b0 e#
b0 d#
0K#
0L#
0M#
1N#
b0 o#
b0 p#
b0 m#
b0 F#
b0 I#
b1000 E#
b1000 H#
0r"
0G"
b0 V
b0 '"
b0 {#
b0 @"
b0 ^"
b0 s"
0:"
07"
b0 ]"
b0 &"
b0 a"
b0 _"
b0 0"
b0 A"
b0 M"
0;"
b1 B
b1 G$
b1 L$
0%$
0%
0$
0"
0<"
06"
b0 \"
b0 ["
b0 `"
0T
0b"
b0 ."
b0 /"
b0 W"
b0 C"
b0 L"
b0 !"
b0 ~
b0 }
b0 D"
b0 q"
b1 K$
b11111111 J$
b0 ?
0T$
0S$
b0 I
b0 j#
b0 }#
b0 /$
b0 G
b0 !$
b0 )$
b0 H
b0 ~#
b0 *$
1L
0'$
0&$
b0 0$
12$
b0 1$
0#
0%"
0""
0&
0Y"
0Z"
0#"
08"
0="
04"
05"
0X"
0g"
b0 n"
b0 -"
b0 ,"
b0 N"
b0 Z
b0 |
b0 3"
1l"
b0 O"
b0 [
b0 {
b0 2"
b0 V"
b0 Q
b0 o"
b0 4
b0 1
b0 @$
1B$
b0 7
b0 A$
b0 @
b0 A
b0 D$
b0 I$
0U$
b0 2
b0 F
b0 "$
b0 $$
b0 5$
0:$
b0 9$
b0 8$
b0 7$
b0 6$
0($
0;$
b0 4$
b0 3$
0j
0k
b0 l
b0 m
0b
0c
0\
0]
0^
b0 g
0*"
0+"
b0 `
b0 z
0B"
b0 _
b0 y
b0 1"
b0 U"
b0 e"
0h"
b0 d
b0 f"
b0 f
b0 e
b0 a
1k"
0j"
0i"
b0 i
b0 d"
b0 h
b0 c"
0r
b0 s
b0 t
03
00
0u
b0 n
b0 p
b0 o
b0 q
b0 ?$
0w
b0 x
b0 O$
b0 v
b0 P$
0S
1*
#2
b100 ,$
b100 +$
0#$
b0 9
b0 R$
b0 V$
b0 ;
b0 Q$
b0 W$
0-$
1.$
b0 Y$
b0 X$
b10000000000000001101111 z#
b10000000000000001101111 ,
b10000000000000001101111 |#
1S
0*
#3
0S
1*
#4
1S
0*
#5
0S
1*
#6
1S
0*
#7
0S
1*
#8
1S
0*
#9
0S
1*
#10
1S
0*
0-
#11
0B#
00#
1U
1y"
b100 E
b100 :#
b100 ]#
b111 x#
0X
0x"
0K
0k#
b10 5
b10 ?#
b10 D#
b0 <
b0 =#
b0 M$
b0 A#
0S#
11#
1X#
b11011 >
b11011 ;#
b11011 P#
b100 :
b100 >#
b100 N$
b100 G#
b0 =
b0 <#
b0 J#
b10000000000000000000000 [#
b100 ^#
b0 i#
b0 \#
b100 _#
b0 r#
b0 u#
b10000000000000001101111 O#
0}"
b0 t#
b0 s#
b110110 a#
b1110001 f#
b1010101 c#
b11011 g#
b10001 b#
b1111 h#
b11011 e#
b11 d#
1K#
0N#
b11 o#
b11011 F#
b1011 E#
0L
1'$
b10000000000000001101111 I
b10000000000000001101111 j#
b10000000000000001101111 }#
b10000000000000001101111 /$
b100 G
b100 !$
b100 )$
1&$
b10000000000000001101111 1$
b1000 ,$
b100 8$
1;$
b10000000000000001101111 3$
b100 2
b100 F
b100 "$
b1000 +$
b100 $$
b100 5$
0S
1*
#12
b10010011 z#
b10010011 ,
b10010011 |#
1S
0*
#13
16
1C#
1@#
10#
0U
0y"
b0 E
b0 :#
b0 ]#
1X
1x"
1K
1k#
b0 5
b0 ?#
b0 D#
b100 C
1S#
01#
0X#
b100 >
b100 ;#
b100 P#
b0 :
b0 >#
b0 N$
b0 G#
b1 =
b1 <#
b1 J#
b0 [#
b0 ^#
b100000000000 i#
b1 \#
b0 _#
b0 x#
b100 V
b100 '"
b100 {#
b10010011 O#
b1 a#
b10000 `#
b10 f#
b100010 c#
b100 g#
b0 b#
b10000 h#
b100 e#
b10000 d#
b0 o#
b100 F#
b1 I#
b1100 E#
b1001 H#
b100 0"
b1111111111111111111111111111 ["
b11100 `"
b10010011 I
b10010011 j#
b10010011 }#
b10010011 /$
b100 !"
b100 ~
b100 ."
b100 /"
b100 W"
b100 C"
b100 L"
1T
1b"
b100 ,$
b1000 G
b1000 !$
b1000 )$
b100 H
b100 ~#
b100 *$
b10000000000000001101111 0$
b10010011 1$
b1 -"
b1 ,"
b11111111111111111111111111111100 N"
b100 Z
b100 |
b100 3"
1g"
b100 n"
b1000 2
b1000 F
b1000 "$
b1100 +$
b1000 $$
b1000 5$
b100 9$
b1000 8$
b100 6$
1($
b10000000000000001101111 4$
b10010011 3$
1k
b10 l
1]
1^
b11011 d
b11011 f"
b100 f
b100 a
0S
1*
#14
b100010011 z#
b100010011 ,
b100010011 |#
1S
0*
#15
1B#
b10 <
b10 =#
b10 M$
b10 A#
b10000000000000000 [#
b10000000000000000 ^#
16
1C#
b0 C
1X
1x"
1@#
b1000 s#
b10 r#
b10000010000010011 t#
b100 u#
b0 V
b0 '"
b0 {#
b0 5
b0 ?#
b0 D#
0V#
1S#
b100 >
b100 ;#
b100 P#
b1000 =
b1000 <#
b1000 J#
b1000 i#
b1000 \#
1}"
b1000 ,$
b0 0"
b0 ["
b0 `"
b10000010000010011 O#
b0 a#
b0 `#
b0 f#
b0 c#
b0 g#
b0 h#
b0 e#
b0 d#
0K#
1N#
b0 F#
b0 I#
b1000 E#
b1000 H#
0T
0b"
b0 !"
b0 ~
b0 ."
b0 /"
b0 W"
b0 C"
b0 L"
1L
0'$
b0 I
b0 j#
b0 }#
b0 /$
b100 7
0g"
b0 -"
b0 ,"
b0 N"
b0 Z
b0 |
b0 3"
b0 n"
0&$
b1100 G
b1100 !$
b1100 )$
b1000 H
b1000 ~#
b1000 *$
b0 0$
b0 1$
1r
b10 s
b100 p
b100 o
0k
b0 l
0]
0^
b0 d
b0 f"
b0 f
b0 a
0($
0;$
b1000 9$
b1100 8$
b100 7$
b1000 6$
b0 4$
b0 3$
b100 2
b100 F
b100 "$
b1000 +$
b100 $$
b100 5$
0S
1*
#16
b10010011 z#
b10010011 ,
b10010011 |#
1S
0*
#17
0B#
b0 <
b0 =#
b0 M$
b0 A#
b1 =
b1 <#
b1 J#
b0 [#
b0 ^#
b100000000000 i#
b1 \#
b0 r#
b0 u#
b10010011 O#
0}"
b0 t#
b0 s#
b1 a#
b10000 `#
b10 f#
b100010 c#
b100 g#
b10000 h#
b100 e#
b10000 d#
1K#
0N#
b100 F#
b1 I#
b1100 E#
b1001 H#
0L
1'$
b10010011 I
b10010011 j#
b10010011 }#
b10010011 /$
b1100 ,$
b1000 G
b1000 !$
b1000 )$
b100 H
b100 ~#
b100 *$
1&$
b10010011 1$
b0 7
b1000 2
b1000 F
b1000 "$
b1100 +$
b1000 $$
b1000 5$
b1100 9$
b1000 8$
b1000 7$
b100 6$
1;$
b10010011 3$
0r
b0 s
b0 p
b0 o
1w
b100 v
b100 P$
0S
1*
#18
b100010011 z#
b100010011 ,
b100010011 |#
1S
0*
