hdl/cpu_log.vcd
$date
	Sat Sep  3 13:34:42 2022
$end
$version
	Icarus Verilog
$end
$timescale
	1s
$end
$scope module cpu_tb $end
$scope module DUT $end
$var wire 1 ! clk_ce $end
$var wire 1 " i_clk $end
$var wire 32 # i_data_in_d [31:0] $end
$var wire 32 $ i_data_in_i [31:0] $end
$var wire 1 % i_rst $end
$var wire 1 & i_valid_d $end
$var wire 1 ' i_valid_i $end
$var wire 1 ( ma_rd_en $end
$var wire 32 ) ma_res_dat [31:0] $end
$var wire 4 * ma_wr_en [3:0] $end
$var wire 32 + o_addr_d [31:0] $end
$var wire 32 , o_addr_i [31:0] $end
$var wire 32 - o_data_out_d [31:0] $end
$var wire 1 . o_rd_d $end
$var wire 4 / o_we_d [3:0] $end
$var wire 2 0 wb_mux [1:0] $end
$var wire 1 1 wb_en $end
$var wire 32 2 wb_dat_mux [31:0] $end
$var wire 1 3 system $end
$var wire 32 4 rs2_d [31:0] $end
$var wire 5 5 rs2 [4:0] $end
$var wire 32 6 rs1_d [31:0] $end
$var wire 5 7 rs1 [4:0] $end
$var wire 5 8 rd [4:0] $end
$var wire 5 9 opcode [4:0] $end
$var wire 32 : ma_wr_dat [31:0] $end
$var wire 4 ; ma_we [3:0] $end
$var wire 32 < ma_rd_dat [31:0] $end
$var wire 32 = immediate [31:0] $end
$var wire 32 > if_pc [31:0] $end
$var wire 32 ? id_ret [31:0] $end
$var wire 32 @ id_pc [31:0] $end
$var wire 32 A id_ir [31:0] $end
$var wire 1 B hz_rs2 $end
$var wire 1 C hz_rs1 $end
$var wire 1 D hz_data $end
$var wire 1 E hz_br $end
$var wire 7 F funct7 [6:0] $end
$var wire 3 G funct3 [2:0] $end
$var wire 1 H d_wr $end
$var wire 1 I d_rd $end
$var wire 1 J clk_n $end
$var wire 1 K br_en $end
$var wire 1 L alu_pc $end
$var wire 32 M alu_out [31:0] $end
$var wire 1 N alu_imm $end
$var wire 1 O alu_en $end
$var wire 1 P alu_busy $end
$var wire 32 Q alu_b_mux [31:0] $end
$var wire 32 R alu_a_mux [31:0] $end
$var reg 1 S ex_alu_en $end
$var reg 1 T ex_alu_imm $end
$var reg 1 U ex_alu_pc $end
$var reg 3 V ex_funct3 [2:0] $end
$var reg 7 W ex_funct7 [6:0] $end
$var reg 32 X ex_imm [31:0] $end
$var reg 1 Y ex_ma_rd $end
$var reg 1 Z ex_ma_wr $end
$var reg 5 [ ex_opcode [4:0] $end
$var reg 32 \ ex_pc [31:0] $end
$var reg 32 ] ex_ret [31:0] $end
$var reg 5 ^ ex_rs1 [4:0] $end
$var reg 32 _ ex_rs1_d [31:0] $end
$var reg 32 ` ex_rs2_d [31:0] $end
$var reg 1 a ex_system $end
$var reg 1 b ex_wb_en $end
$var reg 2 c ex_wb_mux [1:0] $end
$var reg 5 d ex_wb_reg [4:0] $end
$var reg 3 e ma_funct3 [2:0] $end
$var reg 1 ( ma_rd $end
$var reg 32 f ma_res [31:0] $end
$var reg 32 g ma_ret [31:0] $end
$var reg 32 h ma_rs2_d [31:0] $end
$var reg 1 i ma_wb_en $end
$var reg 2 j ma_wb_mux [1:0] $end
$var reg 5 k ma_wb_reg [4:0] $end
$var reg 1 l ma_wr $end
$var reg 32 m wb_wb_d [31:0] $end
$var reg 1 n wb_wb_en $end
$var reg 5 o wb_wb_reg [4:0] $end
$scope module alu_i $end
$var wire 1 S i_alu_en $end
$var wire 1 T i_alu_imm $end
$var wire 1 J i_clk_n $end
$var wire 3 p i_funct3 [2:0] $end
$var wire 7 q i_funct7 [6:0] $end
$var wire 32 r i_in_a [31:0] $end
$var wire 32 s i_in_b [31:0] $end
$var wire 1 % i_rst $end
$var wire 32 t logic_and [31:0] $end
$var wire 32 u logic_or [31:0] $end
$var wire 32 v logic_xor [31:0] $end
$var wire 1 w md_en $end
$var wire 1 P o_busy $end
$var wire 1 x op_subtract $end
$var wire 1 y shift_en $end
$var wire 32 z shift_result [31:0] $end
$var wire 1 { shift_busy $end
$var wire 32 | o_alu_out [31:0] $end
$var wire 32 } md_result [31:0] $end
$var wire 1 ~ md_busy $end
$var wire 1 !" funct7_5 $end
$var wire 1 "" funct7_0 $end
$var wire 32 #" comp_u [31:0] $end
$var wire 32 $" comp [31:0] $end
$var wire 32 %" adder_out [31:0] $end
$var wire 32 &" adder_in_b [31:0] $end
$var reg 32 '" mux [31:0] $end
$scope module muldiv_i $end
$var wire 1 (" a_se $end
$var wire 1 )" b_se $end
$var wire 1 *" div_en $end
$var wire 1 +" div_s $end
$var wire 1 ," div_se $end
$var wire 1 J i_clk_n $end
$var wire 3 -" i_funct3 [2:0] $end
$var wire 32 ." i_in_a [31:0] $end
$var wire 32 /" i_in_b [31:0] $end
$var wire 1 w i_md_en $end
$var wire 1 % i_rst $end
$var wire 1 0" mul_a_se $end
$var wire 1 1" mul_en $end
$var wire 1 2" mul_s $end
$var wire 1 ~ o_busy $end
$var wire 1 3" rem_s $end
$var wire 32 4" o_result [31:0] $end
$var wire 64 5" mul_q [63:0] $end
$var wire 1 6" mul_busy $end
$var wire 1 7" mul_b_se $end
$var wire 32 8" mul [31:0] $end
$var wire 32 9" in_b_n [31:0] $end
$var wire 32 :" in_b [31:0] $end
$var wire 32 ;" in_a_n [31:0] $end
$var wire 32 <" in_a [31:0] $end
$var wire 32 =" div_sub [31:0] $end
$var wire 32 >" div_res [31:0] $end
$var wire 1 ?" div_rem_s $end
$var wire 32 @" div_rem [31:0] $end
$var wire 32 A" div_div [31:0] $end
$var wire 1 B" div_cmp $end
$var wire 1 C" div_busy $end
$var wire 32 D" div [31:0] $end
$var wire 32 E" b_s [31:0] $end
$var wire 32 F" a_s [31:0] $end
$var reg 64 G" div_a [63:0] $end
$var reg 32 H" div_b [31:0] $end
$var reg 6 I" div_cnt [5:0] $end
$var reg 32 J" div_q [31:0] $end
$var reg 64 K" mul_a_reg [63:0] $end
$var reg 32 L" mul_b_reg [31:0] $end
$var reg 64 M" mul_mul [63:0] $end
$upscope $end
$scope module shifter_i $end
$var wire 1 J i_clk_n $end
$var wire 3 N" i_funct3 [2:0] $end
$var wire 32 O" i_in_a [31:0] $end
$var wire 5 P" i_in_b [4:0] $end
$var wire 1 !" i_op_alt $end
$var wire 1 y i_shift_en $end
$var wire 32 Q" o_result [31:0] $end
$var wire 1 R" op_shift $end
$var wire 1 S" op_sll $end
$var wire 1 T" op_sra $end
$var wire 1 U" op_srl $end
$var wire 32 V" shift_right [31:0] $end
$var wire 32 W" shift_left [31:0] $end
$var wire 1 { o_busy $end
$var reg 5 X" shift_amount [4:0] $end
$var reg 1 Y" shift_dir_left $end
$var reg 32 Z" shift_result [31:0] $end
$upscope $end
$upscope $end
$scope module branch_i $end
$var wire 1 [" br_en $end
$var wire 1 \" condition $end
$var wire 32 ]" i_dat_a [31:0] $end
$var wire 32 ^" i_dat_b [31:0] $end
$var wire 3 _" i_funct3 [2:0] $end
$var wire 5 `" i_opcode [4:0] $end
$var wire 1 K o_br_en $end
$var wire 1 a" op_jump $end
$var wire 1 b" op_branch $end
$var wire 1 c" lower_u $end
$var wire 1 d" lower $end
$var wire 1 e" equal $end
$var reg 1 f" condition_mux $end
$upscope $end
$scope module decoder_i $end
$var wire 1 g" alu_en $end
$var wire 1 h" alu_pc $end
$var wire 1 i" c_add $end
$var wire 1 j" c_addi $end
$var wire 1 k" c_addi16sp $end
$var wire 1 l" c_addi4spn $end
$var wire 1 m" c_alu $end
$var wire 1 n" c_andi $end
$var wire 1 o" c_ar $end
$var wire 1 p" c_b $end
$var wire 1 q" c_branch $end
$var wire 1 r" c_f3_001 $end
$var wire 1 s" c_f3_010 $end
$var wire 1 t" c_f3_101 $end
$var wire 1 u" c_f3_111 $end
$var wire 1 v" c_f3_ar_f3 $end
$var wire 1 w" c_f3_imm_ci $end
$var wire 1 x" c_f7_imm_c16sp $end
$var wire 1 y" c_f7_imm_cb $end
$var wire 1 z" c_f7_imm_ci $end
$var wire 1 {" c_f7_imm_ciw $end
$var wire 1 |" c_f7_imm_cj $end
$var wire 1 }" c_f7_imm_cls $end
$var wire 1 ~" c_f7_imm_clsp $end
$var wire 1 !# c_f7_imm_cssp $end
$var wire 1 "# c_f7_sr $end
$var wire 1 ## c_f7_sub $end
$var wire 1 $# c_j $end
$var wire 1 %# c_jal $end
$var wire 1 &# c_jalr $end
$var wire 1 '# c_jr $end
$var wire 1 (# c_li $end
$var wire 1 )# c_load $end
$var wire 1 *# c_lui $end
$var wire 1 +# c_lw $end
$var wire 1 ,# c_lwsp $end
$var wire 1 -# c_op $end
$var wire 1 .# c_rd_imm_cb $end
$var wire 1 /# c_rd_imm_cls $end
$var wire 1 0# c_rd_imm_cssp $end
$var wire 1 1# c_rd_j $end
$var wire 1 2# c_rd_jr $end
$var wire 1 3# c_rd_rs1l $end
$var wire 1 4# c_rd_rs1s $end
$var wire 1 5# c_rd_rs2s $end
$var wire 1 6# c_rs1_imm_ci $end
$var wire 1 7# c_rs1_imm_cj $end
$var wire 1 8# c_rs1_rs1l $end
$var wire 1 9# c_rs1_rs1s $end
$var wire 1 :# c_rs1_sp $end
$var wire 1 ;# c_rs2_imm_c16sp $end
$var wire 1 <# c_rs2_imm_cih $end
$var wire 1 =# c_rs2_imm_cil $end
$var wire 1 ># c_rs2_imm_ciw $end
$var wire 1 ?# c_rs2_imm_cj $end
$var wire 1 @# c_rs2_imm_cls $end
$var wire 1 A# c_rs2_imm_clsp $end
$var wire 1 B# c_rs2_rs2l $end
$var wire 1 C# c_rs2_rs2s $end
$var wire 1 D# c_slli $end
$var wire 1 E# c_sri $end
$var wire 1 F# c_store $end
$var wire 1 G# c_sub $end
$var wire 1 H# c_sw $end
$var wire 1 I# c_swsp $end
$var wire 1 J# format_b $end
$var wire 1 K# format_i $end
$var wire 1 L# format_j $end
$var wire 1 M# format_r $end
$var wire 1 N# format_s $end
$var wire 1 O# format_u $end
$var wire 1 P# hz_rs2 $end
$var wire 1 Q# ma_rd $end
$var wire 1 R# ma_wr $end
$var wire 1 O o_alu_en $end
$var wire 1 N o_alu_imm $end
$var wire 1 L o_alu_pc $end
$var wire 3 S# o_funct3 [2:0] $end
$var wire 7 T# o_funct7 [6:0] $end
$var wire 1 C o_hz_rs1 $end
$var wire 1 B o_hz_rs2 $end
$var wire 32 U# o_immediate [31:0] $end
$var wire 1 I o_ma_rd $end
$var wire 1 H o_ma_wr $end
$var wire 5 V# o_opcode [4:0] $end
$var wire 5 W# o_rd [4:0] $end
$var wire 5 X# o_rs1 [4:0] $end
$var wire 5 Y# o_rs2 [4:0] $end
$var wire 1 3 o_system $end
$var wire 1 1 o_wb_en $end
$var wire 2 Z# o_wb_mux [1:0] $end
$var wire 1 [# opcode_valid $end
$var wire 5 \# rs1 [4:0] $end
$var wire 1 ]# wb_en $end
$var wire 2 ^# wb_mux [1:0] $end
$var wire 1 _# valid_c $end
$var wire 1 `# rs2_z $end
$var wire 1 a# rs2_nz $end
$var wire 5 b# rs2_cs [4:0] $end
$var wire 5 c# rs2_cl [4:0] $end
$var wire 5 d# rs2 [4:0] $end
$var wire 1 e# rs1_sp $end
$var wire 1 f# rs1_nz $end
$var wire 1 g# rs1_nsp $end
$var wire 5 h# rs1_cs [4:0] $end
$var wire 5 i# rs1_cl [4:0] $end
$var wire 5 j# rd [4:0] $end
$var wire 1 k# q_3 $end
$var wire 1 l# q_2 $end
$var wire 1 m# q_1 $end
$var wire 1 n# q_0 $end
$var wire 32 o# opcode_in [31:0] $end
$var wire 5 p# opcode [4:0] $end
$var wire 1 q# op_system $end
$var wire 1 r# op_store $end
$var wire 1 s# op_op_imm $end
$var wire 1 t# op_op $end
$var wire 1 u# op_lui $end
$var wire 1 v# op_load $end
$var wire 1 w# op_jalr $end
$var wire 1 x# op_jal $end
$var wire 1 y# op_branch $end
$var wire 1 z# op_auipc $end
$var wire 32 {# immediate_u [31:0] $end
$var wire 32 |# immediate_s [31:0] $end
$var wire 32 }# immediate_mux [31:0] $end
$var wire 32 ~# immediate_j [31:0] $end
$var wire 32 !$ immediate_i [31:0] $end
$var wire 6 "$ immediate_cssp [7:2] $end
$var wire 6 #$ immediate_clsp [7:2] $end
$var wire 5 $$ immediate_cls [4:0] $end
$var wire 11 %$ immediate_cj [11:1] $end
$var wire 8 &$ immediate_ciw [7:0] $end
$var wire 6 '$ immediate_ci [5:0] $end
$var wire 8 ($ immediate_cb [8:1] $end
$var wire 6 )$ immediate_c16sp [9:4] $end
$var wire 32 *$ immediate_b [31:0] $end
$var wire 32 +$ i_opcode_in [31:0] $end
$var wire 1 ,$ hz_rs1 $end
$var wire 7 -$ funct7 [6:0] $end
$var wire 3 .$ funct3_c [2:0] $end
$var wire 3 /$ funct3 [2:0] $end
$var wire 2 0$ funct2_cl [1:0] $end
$var wire 2 1$ funct2_ch [1:0] $end
$var wire 1 2$ cf3_x01 $end
$var wire 1 3$ cf3_11x $end
$var wire 1 4$ cf3_111 $end
$var wire 1 5$ cf3_110 $end
$var wire 1 6$ cf3_101 $end
$var wire 1 7$ cf3_100 $end
$var wire 1 8$ cf3_011 $end
$var wire 1 9$ cf3_010 $end
$var wire 1 :$ cf3_001 $end
$var wire 1 ;$ cf3_000 $end
$var wire 5 <$ c_rs2 [4:0] $end
$var wire 5 =$ c_rs1 [4:0] $end
$var wire 5 >$ c_rd [4:0] $end
$var wire 32 ?$ c_opcode_in [31:0] $end
$var wire 5 @$ c_opcode [4:0] $end
$var wire 7 A$ c_funct7 [6:0] $end
$var wire 3 B$ c_funct3 [2:0] $end
$var wire 3 C$ c_ar_f3 [2:0] $end
$var wire 1 D$ alu_imm $end
$upscope $end
$scope module fetch_i $end
$var wire 32 E$ data_t0 [31:0] $end
$var wire 32 F$ i_br_addr [31:0] $end
$var wire 1 K i_br_en $end
$var wire 1 " i_clk $end
$var wire 1 ! i_clk_ce $end
$var wire 32 G$ i_data_in [31:0] $end
$var wire 1 % i_rst $end
$var wire 32 H$ o_id_ir [31:0] $end
$var wire 32 I$ o_id_pc [31:0] $end
$var wire 32 J$ o_id_ret [31:0] $end
$var wire 32 K$ o_if_pc [31:0] $end
$var wire 1 L$ pc_next_c $end
$var wire 32 M$ pc_t0 [31:0] $end
$var wire 1 N$ unaligned_32 $end
$var wire 1 O$ valid_o_t1 $end
$var wire 1 P$ valid_out $end
$var wire 1 Q$ valid_o_t2 $end
$var wire 32 R$ ret_out [31:0] $end
$var wire 32 S$ pc_out [31:0] $end
$var wire 32 T$ pc_next [31:0] $end
$var wire 32 U$ pc_mux [31:0] $end
$var wire 1 E o_hz_br $end
$var wire 1 D i_hz_data $end
$var wire 1 V$ data_t0_cl $end
$var wire 1 W$ data_t0_ch $end
$var wire 32 X$ data_out [31:0] $end
$var wire 32 Y$ data_o_t2 [31:0] $end
$var wire 32 Z$ data_o_t1 [31:0] $end
$var wire 1 [$ c_data_t1_1 $end
$var reg 32 \$ data_t1 [31:0] $end
$var reg 32 ]$ data_t2 [31:0] $end
$var reg 32 ^$ if_pc [31:0] $end
$var reg 32 _$ pc_t1 [31:0] $end
$var reg 32 `$ pc_t2 [31:0] $end
$var reg 32 a$ ret_t1 [31:0] $end
$var reg 32 b$ ret_t2 [31:0] $end
$var reg 1 c$ t2_en $end
$var reg 1 d$ valid_t1 $end
$var reg 1 Q$ valid_t2 $end
$upscope $end
$scope module hazard_i $end
$var wire 1 e$ hz_dat_rs1 $end
$var wire 1 f$ hz_dat_rs2 $end
$var wire 1 g$ hz_data $end
$var wire 5 h$ i_ex_wb_reg [4:0] $end
$var wire 1 C i_hz_rs1 $end
$var wire 1 B i_hz_rs2 $end
$var wire 5 i$ i_ma_wb_reg [4:0] $end
$var wire 5 j$ i_rs1 [4:0] $end
$var wire 5 k$ i_rs2 [4:0] $end
$var wire 5 l$ i_wb_wb_reg [4:0] $end
$var wire 1 D o_hz_data $end
$upscope $end
$scope module memory_i $end
$var wire 32 m$ data_rd_short [31:0] $end
$var wire 32 n$ data_rd_signed [31:0] $end
$var wire 32 o$ i_data_rd [31:0] $end
$var wire 32 p$ i_data_wr [31:0] $end
$var wire 2 q$ i_length [1:0] $end
$var wire 2 r$ i_shift [1:0] $end
$var wire 1 s$ i_signed_rd $end
$var wire 32 t$ o_data_rd [31:0] $end
$var wire 32 u$ o_data_wr [31:0] $end
$var wire 32 v$ sign_extension [31:0] $end
$var wire 1 w$ sign_bit $end
$var wire 4 x$ o_we [3:0] $end
$var reg 32 y$ data_rd_shift [31:0] $end
$var reg 32 z$ data_wr_shift [31:0] $end
$var reg 32 {$ length_mask [31:0] $end
$var reg 4 |$ we_lenght [3:0] $end
$var reg 4 }$ we_shifted [3:0] $end
$upscope $end
$scope module regs_i $end
$var wire 5 ~$ i_addr_rd_a [4:0] $end
$var wire 5 !% i_addr_rd_b [4:0] $end
$var wire 5 "% i_addr_wr [4:0] $end
$var wire 1 ! i_ce $end
$var wire 1 J i_clk $end
$var wire 32 #% i_dat_wr [31:0] $end
$var wire 1 n i_we $end
$var wire 32 $% o_dat_rd_a [31:0] $end
$var wire 32 %% o_dat_rd_b [31:0] $end
$var wire 32 &% dat_rd_b [31:0] $end
$var wire 32 '% dat_rd_a [31:0] $end
$var reg 32 (% dat_rd_a_reg [31:0] $end
$var reg 32 )% dat_rd_b_reg [31:0] $end
$scope begin $ivl_for_loop0 $end
$var integer 32 *% i [31:0] $end
$upscope $end
$upscope $end
$upscope $end
$upscope $end
$enddefinitions $end
#0
$dumpvars
b100000 *%
bx )%
bx (%
bx '%
bx &%
bx %%
bx $%
bx #%
bx "%
bx !%
bx ~$
bx }$
bx |$
bx {$
bx z$
b0 y$
bx x$
0w$
b0 v$
bx u$
b0 t$
xs$
bx r$
bx q$
bx p$
b0 o$
b0 n$
b0 m$
bx l$
bx k$
bx j$
bx i$
bx h$
xg$
xf$
xe$
xd$
xc$
bx b$
bx a$
bx `$
bx _$
bx ^$
bx ]$
bx \$
x[$
bx Z$
bx Y$
bx X$
xW$
xV$
bx U$
bx T$
bx S$
bx R$
xQ$
xP$
xO$
xN$
bx M$
xL$
bx K$
bx J$
bx I$
bx H$
bx G$
bx F$
bx E$
xD$
bx C$
bx B$
bx A$
bx @$
bx ?$
bx >$
bx =$
bx <$
x;$
x:$
x9$
x8$
x7$
x6$
x5$
x4$
x3$
x2$
bx 1$
bx 0$
bx /$
bx .$
bx -$
x,$
bx +$
bx0 *$
bx )$
bx ($
bx '$
bx &$
bx %$
bx $$
bx #$
bx "$
bx !$
bx0 ~#
bx }#
bx |#
bx000000000000 {#
xz#
xy#
xx#
xw#
xv#
xu#
xt#
xs#
xr#
xq#
bx p#
bx o#
xn#
xm#
xl#
xk#
bx j#
bx i#
b1xxx h#
xg#
xf#
xe#
bx d#
bx c#
b1xxx b#
xa#
x`#
x_#
bx ^#
x]#
bx \#
x[#
bx Z#
bx Y#
bx X#
bx W#
bx V#
bx U#
bx T#
bx S#
xR#
xQ#
xP#
xO#
xN#
xM#
xL#
xK#
xJ#
xI#
xH#
xG#
xF#
xE#
xD#
xC#
xB#
xA#
x@#
x?#
x>#
x=#
x<#
x;#
x:#
x9#
x8#
x7#
x6#
x5#
x4#
x3#
x2#
x1#
x0#
x/#
x.#
x-#
x,#
x+#
x*#
x)#
x(#
x'#
x&#
x%#
x$#
x##
x"#
x!#
x~"
x}"
x|"
x{"
xz"
xy"
xx"
xw"
xv"
xu"
xt"
xs"
xr"
xq"
xp"
xo"
xn"
xm"
xl"
xk"
xj"
xi"
xh"
xg"
xf"
xe"
xd"
xc"
xb"
xa"
bx `"
bx _"
bx ^"
bx ]"
x\"
x["
b0 Z"
0Y"
b0 X"
b0 W"
b0 V"
xU"
xT"
xS"
xR"
b0 Q"
bx P"
bx O"
bx N"
b0 M"
b0 L"
b0 K"
b0 J"
b100000 I"
b0 H"
b0 G"
bx F"
bx E"
b0 D"
0C"
1B"
b0 A"
b0 @"
x?"
b0 >"
b0 ="
bx <"
bx ;"
bx :"
bx 9"
b0 8"
x7"
06"
b0 5"
b0 4"
x3"
x2"
x1"
x0"
bx /"
bx ."
bx -"
x,"
x+"
x*"
x)"
x("
bx '"
bx &"
bx %"
b0x $"
b0x #"
x""
x!"
0~
b0 }
bx |
0{
b0 z
xy
xx
xw
bx v
bx u
bx t
bx s
bx r
bx q
bx p
bx o
xn
bx m
xl
bx k
bx j
xi
bx h
bx g
bx f
bx e
bx d
bx c
xb
xa
bx `
bx _
bx ^
bx ]
bx \
bx [
xZ
xY
bx X
bx W
bx V
xU
xT
xS
bx R
bx Q
0P
xO
xN
bx M
xL
xK
1J
xI
xH
bx G
bx F
xE
xD
xC
xB
bx A
bx @
bx ?
bx >
bx =
b0 <
bx ;
bx :
bx 9
bx 8
bx 7
bx 6
bx 5
bx 4
x3
bx 2
x1
bx 0
bx /
x.
bx -
bx ,
bx +
bx *
bx )
x(
1'
1&
1%
bx $
b0 #
0"
1!
$end
#1
0D
0g$
1K#
0e$
b0 G
b0 S#
b0 /$
0L
0h"
1C
1,$
b0 =
b0 U#
b0 }#
0f$
0B
0P#
1O
1g"
0O#
b0 B$
b0 0
b0 Z#
b0 ^#
0v#
1s#
0z#
0N#
0r#
1N
1D$
0M#
0t#
0u#
0J#
0y#
0w#
03
0q#
b0 5
b0 Y#
b0 k$
b0 !%
b0 d#
03#
b0 F
b0 T#
b0 -$
b0 !$
b0 <$
b10 7
b10 X#
b10 j$
b10 ~$
b10 \#
09#
b0 A$
0=#
0L#
0x#
b100 9
b100 V#
b100 p#
b1000 8
b1000 W#
b1000 j#
b10000000000000000 {#
b10000000000000000 ~#
b1000 *$
b1000 |#
b100 @$
0H
0R#
0I
0Q#
01
0]#
0u"
b10 =$
b1000 >$
0[#
08#
0z"
0r"
1:#
0s"
15#
0)#
0t"
0"#
0E#
0C#
0}"
0F#
0B#
0-#
06#
0<#
0w"
0*#
0.#
0y"
0q"
0p"
01#
07#
0?#
0|"
0%#
0$#
0G#
b0 C$
0v"
0##
0o"
0n"
0D#
1>#
1{"
1l"
0A#
0~"
0,#
0@#
0+#
04#
0m"
00#
0!#
0I#
0/#
0H#
02$
03$
0i"
02#
0&#
0'#
0(#
0j"
0;#
0x"
0k"
b10000010000010000 o#
b10000010000010000 ?$
0_#
0k#
0l#
0m#
1n#
b0 #$
b0 "$
b0 ($
b0 %$
b0 $$
b0 )$
b0 '$
b0 &$
b0 0$
b0 1$
1;$
0:$
09$
08$
07$
06$
05$
04$
b0 .$
0a#
1`#
b0 c#
0f#
1g#
0e#
b0 i#
b1000 b#
b1000 h#
0?"
b0 )
b0 M
b0 |
b0 F$
0+"
02"
b0 '"
b0 <"
03"
b1 ;
b1 x$
b1 }$
0N$
0R"
0("
01"
0*"
0K
0["
b0 %"
b0 &"
b0 P"
b0 E"
b0 :"
1\"
b0 v
b0 u
b0 t
b0 F"
b1 |$
b11111111 {$
b0 A
b0 +$
b0 H$
b0 X$
b0 ?
b0 J$
b0 R$
b0 @
b0 I$
b0 S$
1E
0P$
0O$
b0 Y$
1[$
b0 Z$
0y
0w
0T"
0U"
0x
00"
0)"
0,"
0S"
0a"
b0 $"
b0 #"
b0 9"
b0 Q
b0 s
b0 /"
1f"
b0 ;"
b0 R
b0 r
b0 ."
b0 O"
b0 /
b0 *
b0 q$
1s$
b0 2
b0 r$
b0 -
b0 :
b0 u$
b0 z$
b0 ,
b0 >
b0 K$
b0 M$
b0 ^$
0c$
b0 b$
b0 a$
b0 `$
b0 _$
0Q$
0d$
b0 ]$
b0 \$
0a
0b
b0 c
b0 d
b0 h$
0Y
0Z
0S
0T
0U
b0 ^
0!"
0""
b0 W
b0 q
07"
b0 V
b0 p
b0 -"
b0 N"
b0 _"
0b"
b0 [
b0 `"
b0 ]
b0 \
b0 X
1e"
0d"
0c"
b0 `
b0 ^"
b0 _
b0 ]"
0i
b0 j
b0 k
b0 i$
0.
0(
0l
b0 e
b0 g
b0 +
b0 f
b0 h
b0 p$
0n
b0 o
b0 l$
b0 "%
b0 m
b0 #%
0J
1"
#2
b100 U$
b100 T$
0L$
0V$
1W$
b0 4
b0 %%
b0 &%
b0 )%
b0 6
b0 $%
b0 '%
b0 (%
b10000000000000001101111 E$
b10000000000000001101111 $
b10000000000000001101111 G$
1J
0"
#3
0J
1"
#4
1J
0"
#5
0J
1"
#6
1J
0"
#7
0J
1"
#8
1J
0"
#9
0J
1"
#10
1J
0"
0%
#11
0K#
b0 =$
1L
1h"
b100 =
b100 U#
b100 }#
11
1]#
0:#
b111 C$
0O
0g"
0C
0,$
b10 0
b10 Z#
b10 ^#
b0 7
b0 X#
b0 j$
b0 ~$
b0 \#
1[#
0s#
1L#
1x#
b11011 9
b11011 V#
b11011 p#
b100 5
b100 Y#
b100 k$
b100 !%
b100 d#
b0 8
b0 W#
b0 j#
b10000000000000000000000 {#
b100 ~#
b0 *$
b0 |#
b100 !$
05#
b10000000000000001101111 o#
0>#
0{"
0l"
b0 >$
b10011 ?$
1_#
1k#
0n#
b110110 #$
b1110001 ($
b1010101 %$
b10001 $$
b1111 )$
b11011 '$
b11 &$
b11 0$
1a#
0`#
b11011 c#
b1011 b#
0E
1P$
b10000000000000001101111 A
b10000000000000001101111 +$
b10000000000000001101111 H$
b10000000000000001101111 X$
b100 ?
b100 J$
b100 R$
1O$
b10000000000000001101111 Z$
b1000 U$
b100 a$
1d$
b10000000000000001101111 \$
b100 ,
b100 >
b100 K$
b1000 T$
b100 M$
b100 ^$
0J
1"
#12
b10010011 E$
b10010011 $
b10010011 G$
1J
0"
#13
11
1]#
1[#
1K#
0L
0h"
b0 =
b0 U#
b0 }#
1O
1g"
1C
1,$
b0 0
b0 Z#
b0 ^#
1s#
0L#
0x#
b100 9
b100 V#
b100 p#
b0 5
b0 Y#
b0 k$
b0 !%
b0 d#
b1 8
b1 W#
b1 j#
b0 {#
b0 ~#
b100000000000 *$
b1 |#
b0 !$
b0 C$
b100 )
b100 M
b100 |
b100 F$
b10010011 o#
b1 #$
b10000 "$
b10 ($
b100010 %$
b0 $$
b10000 )$
b100 '$
b10000 &$
b0 0$
b100 c#
1f#
b1 i#
b1100 b#
b1001 h#
b100 '"
b10010011 A
b10010011 +$
b10010011 H$
b10010011 X$
b100 v
b100 u
b100 %"
b100 &"
b100 P"
b100 E"
b100 :"
1K
1["
b100 U$
b1000 ?
b1000 J$
b1000 R$
b100 @
b100 I$
b100 S$
b10000000000000001101111 Y$
b10010011 Z$
b1 $"
b1 #"
b11111111111111111111111111111100 9"
b100 Q
b100 s
b100 /"
1a"
b1000 ,
b1000 >
b1000 K$
b1100 T$
b1000 M$
b1000 ^$
b100 b$
b1000 a$
b100 _$
1Q$
b10000000000000001101111 ]$
b10010011 \$
1b
b10 c
1T
1U
b11011 [
b11011 `"
b100 ]
b100 X
0J
1"
#14
b100010011 E$
b100010011 $
b100010011 G$
1J
0"
#15
b10 7
b10 X#
b10 j$
b10 ~$
b10 \#
b10000000000000000 {#
b10000000000000000 ~#
b10 =$
1:#
01
0]#
b1000 >$
0[#
15#
b0 )
b0 M
b0 |
b0 F$
b1000 8
b1000 W#
b1000 j#
b1000 *$
b1000 |#
1>#
1{"
1l"
b1000 U$
b0 '"
b10000010000010000 o#
b10000010000010000 ?$
0_#
0k#
1n#
b0 #$
b0 "$
b0 ($
b0 %$
b0 )$
b0 '$
b0 &$
0a#
1`#
b0 c#
0f#
b0 i#
b1000 b#
b1000 h#
0K
0["
b0 v
b0 u
b0 %"
b0 &"
b0 P"
b0 E"
b0 :"
1E
0P$
b0 A
b0 +$
b0 H$
b0 X$
b100 2
0a"
b0 $"
b0 #"
b0 9"
b0 Q
b0 s
b0 /"
0O$
b1100 ?
b1100 J$
b1100 R$
b1000 @
b1000 I$
b1000 S$
b0 Y$
b0 Z$
1i
b10 j
b100 g
b100 +
b100 f
0b
b0 c
0T
0U
b0 [
b0 `"
b0 ]
b0 X
0Q$
0d$
b1000 b$
b1100 a$
b100 `$
b1000 _$
b0 ]$
b0 \$
b100 ,
b100 >
b100 K$
b1000 T$
b100 M$
b100 ^$
0J
1"
#16
b10010011 E$
b10010011 $
b10010011 G$
1J
0"
#17
b0 =$
11
1]#
0:#
b0 7
b0 X#
b0 j$
b0 ~$
b0 \#
1[#
b1 8
b1 W#
b1 j#
b0 {#
b0 ~#
b100000000000 *$
b1 |#
05#
b10010011 o#
0>#
0{"
0l"
b0 >$
b10011 ?$
1_#
1k#
0n#
b1 #$
b10000 "$
b10 ($
b100010 %$
b10000 )$
b100 '$
b10000 &$
1a#
0`#
b100 c#
1f#
b1 i#
b1100 b#
b1001 h#
0E
1P$
b10010011 A
b10010011 +$
b10010011 H$
b10010011 X$
b1100 U$
b1000 ?
b1000 J$
b1000 R$
b100 @
b100 I$
b100 S$
1O$
b10010011 Z$
b0 2
b1000 ,
b1000 >
b1000 K$
b1100 T$
b1000 M$
b1000 ^$
b1100 b$
b1000 a$
b1000 `$
b100 _$
1d$
b10010011 \$
0i
b0 j
b0 g
b0 +
b0 f
1n
b100 m
b100 #%
0J
1"
#18
b100010011 E$
b100010011 $
b100010011 G$
1J
0"
