hdl/cpu_log.vcd
$date
	Fri Sep  2 14:02:08 2022
$end
$version
	Icarus Verilog
$end
$timescale
	1s
$end
$scope module cpu_tb $end
$scope module DUT $end
$var wire 1 ! clk_ce $end
$var wire 1 " i_clk $end
$var wire 32 # i_data_in_d [31:0] $end
$var wire 32 $ i_data_in_i [31:0] $end
$var wire 1 % i_rst $end
$var wire 1 & i_valid_d $end
$var wire 1 ' i_valid_i $end
$var wire 1 ( ma_rd_en $end
$var wire 32 ) ma_res_dat [31:0] $end
$var wire 4 * ma_wr_en [3:0] $end
$var wire 32 + o_addr_i [31:0] $end
$var wire 1 , o_rd_d $end
$var wire 4 - o_we_d [3:0] $end
$var wire 2 . wb_mux [1:0] $end
$var wire 1 / wb_en $end
$var wire 32 0 wb_dat_mux [31:0] $end
$var wire 1 1 system $end
$var wire 32 2 rs2_d [31:0] $end
$var wire 5 3 rs2 [4:0] $end
$var wire 32 4 rs1_d [31:0] $end
$var wire 5 5 rs1 [4:0] $end
$var wire 5 6 rd [4:0] $end
$var wire 5 7 opcode [4:0] $end
$var wire 32 8 o_data_out_d [31:0] $end
$var wire 32 9 o_addr_d [31:0] $end
$var wire 32 : ma_wr_dat [31:0] $end
$var wire 4 ; ma_we [3:0] $end
$var wire 32 < ma_rd_dat [31:0] $end
$var wire 32 = immediate [31:0] $end
$var wire 32 > if_pc [31:0] $end
$var wire 32 ? id_ret [31:0] $end
$var wire 32 @ id_pc [31:0] $end
$var wire 32 A id_ir [31:0] $end
$var wire 1 B hz_rs2 $end
$var wire 1 C hz_rs1 $end
$var wire 1 D hz_data $end
$var wire 1 E hz_br $end
$var wire 7 F funct7 [6:0] $end
$var wire 3 G funct3 [2:0] $end
$var wire 1 H d_wr $end
$var wire 1 I d_rd $end
$var wire 1 J clk_n $end
$var wire 1 K br_en $end
$var wire 1 L alu_pc $end
$var wire 32 M alu_out [31:0] $end
$var wire 1 N alu_imm $end
$var wire 1 O alu_en $end
$var wire 1 P alu_busy $end
$var wire 32 Q alu_b_mux [31:0] $end
$var wire 32 R alu_a_mux [31:0] $end
$var reg 1 S ex_alu_en $end
$var reg 1 T ex_alu_imm $end
$var reg 1 U ex_alu_pc $end
$var reg 3 V ex_funct3 [2:0] $end
$var reg 7 W ex_funct7 [6:0] $end
$var reg 32 X ex_imm [31:0] $end
$var reg 1 Y ex_ma_rd $end
$var reg 1 Z ex_ma_wr $end
$var reg 5 [ ex_opcode [4:0] $end
$var reg 32 \ ex_pc [31:0] $end
$var reg 32 ] ex_ret [31:0] $end
$var reg 5 ^ ex_rs1 [4:0] $end
$var reg 32 _ ex_rs1_d [31:0] $end
$var reg 32 ` ex_rs2_d [31:0] $end
$var reg 1 a ex_system $end
$var reg 1 b ex_wb_en $end
$var reg 2 c ex_wb_mux [1:0] $end
$var reg 5 d ex_wb_reg [4:0] $end
$var reg 3 e ma_funct3 [2:0] $end
$var reg 1 ( ma_rd $end
$var reg 32 f ma_res [31:0] $end
$var reg 32 g ma_ret [31:0] $end
$var reg 32 h ma_rs2_d [31:0] $end
$var reg 1 i ma_wb_en $end
$var reg 2 j ma_wb_mux [1:0] $end
$var reg 5 k ma_wb_reg [4:0] $end
$var reg 1 l ma_wr $end
$var reg 32 m wb_wb_d [31:0] $end
$var reg 1 n wb_wb_en $end
$var reg 5 o wb_wb_reg [4:0] $end
$scope module alu_i $end
$var wire 1 S i_alu_en $end
$var wire 1 T i_alu_imm $end
$var wire 1 J i_clk_n $end
$var wire 3 p i_funct3 [2:0] $end
$var wire 7 q i_funct7 [6:0] $end
$var wire 32 r i_in_a [31:0] $end
$var wire 32 s i_in_b [31:0] $end
$var wire 1 % i_rst $end
$var wire 32 t logic_and [31:0] $end
$var wire 32 u logic_or [31:0] $end
$var wire 32 v logic_xor [31:0] $end
$var wire 1 w md_en $end
$var wire 1 P o_busy $end
$var wire 1 x op_subtract $end
$var wire 1 y shift_busy $end
$var wire 1 z shift_en $end
$var wire 32 { shift_result [31:0] $end
$var wire 32 | o_alu_out [31:0] $end
$var wire 32 } md_result [31:0] $end
$var wire 1 ~ md_busy $end
$var wire 1 !" funct7_5 $end
$var wire 1 "" funct7_0 $end
$var wire 32 #" comp_u [31:0] $end
$var wire 32 $" comp [31:0] $end
$var wire 32 %" adder_out [31:0] $end
$var wire 32 &" adder_in_b [31:0] $end
$var reg 32 '" mux [31:0] $end
$scope module muldiv_i $end
$var wire 1 (" a_se $end
$var wire 1 )" b_se $end
$var wire 1 *" div_en $end
$var wire 1 +" div_s $end
$var wire 1 ," div_se $end
$var wire 1 J i_clk_n $end
$var wire 3 -" i_funct3 [2:0] $end
$var wire 32 ." i_in_a [31:0] $end
$var wire 32 /" i_in_b [31:0] $end
$var wire 1 w i_md_en $end
$var wire 1 % i_rst $end
$var wire 1 0" mul_a_se $end
$var wire 1 1" mul_busy $end
$var wire 1 2" mul_s $end
$var wire 1 ~ o_busy $end
$var wire 1 3" rem_s $end
$var wire 32 4" o_result [31:0] $end
$var wire 64 5" mul_q [63:0] $end
$var wire 64 6" mul_mul [63:0] $end
$var wire 1 7" mul_b_se $end
$var wire 32 8" mul [31:0] $end
$var wire 32 9" in_b_n [31:0] $end
$var wire 32 :" in_b [31:0] $end
$var wire 32 ;" in_a_n [31:0] $end
$var wire 32 <" in_a [31:0] $end
$var wire 32 =" div_sub [31:0] $end
$var wire 32 >" div_res [31:0] $end
$var wire 1 ?" div_rem_s $end
$var wire 32 @" div_rem [31:0] $end
$var wire 32 A" div_div [31:0] $end
$var wire 1 B" div_cmp $end
$var wire 1 C" div_busy $end
$var wire 32 D" div [31:0] $end
$var wire 32 E" b_s [31:0] $end
$var wire 32 F" a_s [31:0] $end
$var reg 64 G" div_a [63:0] $end
$var reg 32 H" div_b [31:0] $end
$var reg 6 I" div_cnt [5:0] $end
$var reg 32 J" div_q [31:0] $end
$upscope $end
$scope module shifter_i $end
$var wire 1 J i_clk_n $end
$var wire 3 K" i_funct3 [2:0] $end
$var wire 32 L" i_in_a [31:0] $end
$var wire 5 M" i_in_b [4:0] $end
$var wire 1 !" i_op_alt $end
$var wire 1 z i_shift_en $end
$var wire 1 y o_busy $end
$var wire 1 N" op_sll $end
$var wire 1 O" op_sra $end
$var wire 1 P" op_srl $end
$var wire 32 Q" shift_mask [31:0] $end
$var wire 32 R" shift_out [31:0] $end
$var wire 32 S" shift_sll [31:0] $end
$var wire 32 T" shift_sra [31:0] $end
$var wire 32 U" shift_srl [31:0] $end
$var wire 5 V" shift_amount [4:0] $end
$var wire 32 W" o_result [31:0] $end
$scope begin genblk1[0] $end
$upscope $end
$scope begin genblk1[1] $end
$upscope $end
$scope begin genblk1[2] $end
$upscope $end
$scope begin genblk1[3] $end
$upscope $end
$scope begin genblk1[4] $end
$upscope $end
$scope begin genblk1[5] $end
$upscope $end
$scope begin genblk1[6] $end
$upscope $end
$scope begin genblk1[7] $end
$upscope $end
$scope begin genblk1[8] $end
$upscope $end
$scope begin genblk1[9] $end
$upscope $end
$scope begin genblk1[10] $end
$upscope $end
$scope begin genblk1[11] $end
$upscope $end
$scope begin genblk1[12] $end
$upscope $end
$scope begin genblk1[13] $end
$upscope $end
$scope begin genblk1[14] $end
$upscope $end
$scope begin genblk1[15] $end
$upscope $end
$scope begin genblk1[16] $end
$upscope $end
$scope begin genblk1[17] $end
$upscope $end
$scope begin genblk1[18] $end
$upscope $end
$scope begin genblk1[19] $end
$upscope $end
$scope begin genblk1[20] $end
$upscope $end
$scope begin genblk1[21] $end
$upscope $end
$scope begin genblk1[22] $end
$upscope $end
$scope begin genblk1[23] $end
$upscope $end
$scope begin genblk1[24] $end
$upscope $end
$scope begin genblk1[25] $end
$upscope $end
$scope begin genblk1[26] $end
$upscope $end
$scope begin genblk1[27] $end
$upscope $end
$scope begin genblk1[28] $end
$upscope $end
$scope begin genblk1[29] $end
$upscope $end
$scope begin genblk1[30] $end
$upscope $end
$scope begin genblk1[31] $end
$upscope $end
$scope begin genblk2[0] $end
$upscope $end
$scope begin genblk2[1] $end
$upscope $end
$scope begin genblk2[2] $end
$upscope $end
$scope begin genblk2[3] $end
$upscope $end
$scope begin genblk2[4] $end
$upscope $end
$scope begin genblk2[5] $end
$upscope $end
$scope begin genblk2[6] $end
$upscope $end
$scope begin genblk2[7] $end
$upscope $end
$scope begin genblk2[8] $end
$upscope $end
$scope begin genblk2[9] $end
$upscope $end
$scope begin genblk2[10] $end
$upscope $end
$scope begin genblk2[11] $end
$upscope $end
$scope begin genblk2[12] $end
$upscope $end
$scope begin genblk2[13] $end
$upscope $end
$scope begin genblk2[14] $end
$upscope $end
$scope begin genblk2[15] $end
$upscope $end
$scope begin genblk2[16] $end
$upscope $end
$scope begin genblk2[17] $end
$upscope $end
$scope begin genblk2[18] $end
$upscope $end
$scope begin genblk2[19] $end
$upscope $end
$scope begin genblk2[20] $end
$upscope $end
$scope begin genblk2[21] $end
$upscope $end
$scope begin genblk2[22] $end
$upscope $end
$scope begin genblk2[23] $end
$upscope $end
$scope begin genblk2[24] $end
$upscope $end
$scope begin genblk2[25] $end
$upscope $end
$scope begin genblk2[26] $end
$upscope $end
$scope begin genblk2[27] $end
$upscope $end
$scope begin genblk2[28] $end
$upscope $end
$scope begin genblk2[29] $end
$upscope $end
$scope begin genblk2[30] $end
$upscope $end
$upscope $end
$upscope $end
$scope module branch_i $end
$var wire 1 X" br_en $end
$var wire 1 Y" condition $end
$var wire 32 Z" i_dat_a [31:0] $end
$var wire 32 [" i_dat_b [31:0] $end
$var wire 3 \" i_funct3 [2:0] $end
$var wire 5 ]" i_opcode [4:0] $end
$var wire 1 K o_br_en $end
$var wire 1 ^" op_jump $end
$var wire 1 _" op_branch $end
$var wire 1 `" lower_u $end
$var wire 1 a" lower $end
$var wire 1 b" equal $end
$var reg 1 c" condition_mux $end
$upscope $end
$scope module decoder_i $end
$var wire 1 d" alu_en $end
$var wire 1 e" alu_pc $end
$var wire 1 f" c_add $end
$var wire 1 g" c_addi $end
$var wire 1 h" c_addi16sp $end
$var wire 1 i" c_addi4spn $end
$var wire 1 j" c_alu $end
$var wire 1 k" c_andi $end
$var wire 1 l" c_ar $end
$var wire 1 m" c_b $end
$var wire 1 n" c_j $end
$var wire 1 o" c_jr $end
$var wire 1 p" c_li $end
$var wire 1 q" c_lui $end
$var wire 1 r" c_lw $end
$var wire 1 s" c_lwsp $end
$var wire 1 t" c_slli $end
$var wire 1 u" c_sri $end
$var wire 1 v" c_sub $end
$var wire 1 w" c_sw $end
$var wire 1 x" c_swsp $end
$var wire 1 y" format_b $end
$var wire 1 z" format_i $end
$var wire 1 {" format_j $end
$var wire 1 |" format_r $end
$var wire 1 }" format_s $end
$var wire 1 ~" format_u $end
$var wire 1 !# hz_rs2 $end
$var wire 1 "# ma_rd $end
$var wire 1 ## ma_wr $end
$var wire 1 O o_alu_en $end
$var wire 1 N o_alu_imm $end
$var wire 1 L o_alu_pc $end
$var wire 3 $# o_funct3 [2:0] $end
$var wire 7 %# o_funct7 [6:0] $end
$var wire 1 C o_hz_rs1 $end
$var wire 1 B o_hz_rs2 $end
$var wire 32 &# o_immediate [31:0] $end
$var wire 1 I o_ma_rd $end
$var wire 1 H o_ma_wr $end
$var wire 5 '# o_opcode [4:0] $end
$var wire 5 (# o_rd [4:0] $end
$var wire 5 )# o_rs1 [4:0] $end
$var wire 5 *# o_rs2 [4:0] $end
$var wire 1 1 o_system $end
$var wire 1 / o_wb_en $end
$var wire 2 +# o_wb_mux [1:0] $end
$var wire 1 ,# opcode_valid $end
$var wire 5 -# rs1 [4:0] $end
$var wire 1 .# valid_c $end
$var wire 1 /# wb_en $end
$var wire 2 0# wb_mux [1:0] $end
$var wire 5 1# rs2_cs [4:0] $end
$var wire 5 2# rs2_cl [4:0] $end
$var wire 5 3# rs2 [4:0] $end
$var wire 5 4# rs1_cs [4:0] $end
$var wire 5 5# rs1_cl [4:0] $end
$var wire 5 6# rd [4:0] $end
$var wire 1 7# quad_3 $end
$var wire 1 8# quad_2 $end
$var wire 1 9# quad_1 $end
$var wire 1 :# quad_0 $end
$var wire 32 ;# opcode_in [31:0] $end
$var wire 5 <# opcode [4:0] $end
$var wire 1 =# op_system $end
$var wire 1 ># op_store $end
$var wire 1 ?# op_op_imm $end
$var wire 1 @# op_op $end
$var wire 1 A# op_lui $end
$var wire 1 B# op_load $end
$var wire 1 C# op_jalr $end
$var wire 1 D# op_jal $end
$var wire 1 E# op_branch $end
$var wire 1 F# op_auipc $end
$var wire 32 G# immediate_u [31:0] $end
$var wire 32 H# immediate_s [31:0] $end
$var wire 32 I# immediate_mux [31:0] $end
$var wire 32 J# immediate_j [31:0] $end
$var wire 32 K# immediate_i [31:0] $end
$var wire 6 L# immediate_cssp [7:2] $end
$var wire 6 M# immediate_clsp [7:2] $end
$var wire 5 N# immediate_cls [4:0] $end
$var wire 11 O# immediate_cj [11:1] $end
$var wire 8 P# immediate_ciw [7:0] $end
$var wire 6 Q# immediate_ci [5:0] $end
$var wire 8 R# immediate_cb [8:1] $end
$var wire 6 S# immediate_ca [5:0] $end
$var wire 6 T# immediate_c16sp [9:4] $end
$var wire 32 U# immediate_b [31:0] $end
$var wire 32 V# i_opcode_in [31:0] $end
$var wire 1 W# hz_rs1 $end
$var wire 7 X# funct7 [6:0] $end
$var wire 3 Y# funct3_c [2:0] $end
$var wire 3 Z# funct3 [2:0] $end
$var wire 2 [# funct2_cl [1:0] $end
$var wire 2 \# funct2_ch [1:0] $end
$var wire 5 ]# c_rs2 [4:0] $end
$var wire 5 ^# c_rs1 [4:0] $end
$var wire 5 _# c_rd [4:0] $end
$var wire 32 `# c_opcode_in [31:0] $end
$var wire 5 a# c_opcode [4:0] $end
$var wire 7 b# c_funct7 [6:0] $end
$var wire 3 c# c_funct3 [2:0] $end
$var wire 3 d# c_ar_f3 [2:0] $end
$var wire 1 e# alu_imm $end
$upscope $end
$scope module fetch_i $end
$var wire 32 f# data_t0 [31:0] $end
$var wire 32 g# i_br_addr [31:0] $end
$var wire 1 K i_br_en $end
$var wire 1 " i_clk $end
$var wire 1 ! i_clk_ce $end
$var wire 32 h# i_data_in [31:0] $end
$var wire 1 % i_rst $end
$var wire 32 i# o_id_ir [31:0] $end
$var wire 32 j# o_id_pc [31:0] $end
$var wire 32 k# o_id_ret [31:0] $end
$var wire 32 l# o_if_pc [31:0] $end
$var wire 1 m# pc_next_c $end
$var wire 32 n# pc_t0 [31:0] $end
$var wire 1 o# unaligned_32 $end
$var wire 1 p# valid_o_t1 $end
$var wire 1 q# valid_out $end
$var wire 1 r# valid_o_t2 $end
$var wire 32 s# ret_out [31:0] $end
$var wire 32 t# pc_out [31:0] $end
$var wire 32 u# pc_next [31:0] $end
$var wire 32 v# pc_mux [31:0] $end
$var wire 1 E o_hz_br $end
$var wire 1 D i_hz_data $end
$var wire 1 w# data_t0_cl $end
$var wire 1 x# data_t0_ch $end
$var wire 32 y# data_out [31:0] $end
$var wire 32 z# data_o_t2 [31:0] $end
$var wire 32 {# data_o_t1 [31:0] $end
$var wire 1 |# c_data_t1_1 $end
$var reg 32 }# data_t1 [31:0] $end
$var reg 32 ~# data_t2 [31:0] $end
$var reg 32 !$ if_pc [31:0] $end
$var reg 32 "$ pc_t1 [31:0] $end
$var reg 32 #$ pc_t2 [31:0] $end
$var reg 32 $$ ret_t1 [31:0] $end
$var reg 32 %$ ret_t2 [31:0] $end
$var reg 1 &$ t2_en $end
$var reg 1 '$ valid_t1 $end
$var reg 1 r# valid_t2 $end
$upscope $end
$scope module hazard_i $end
$var wire 1 ($ hz_dat_rs1 $end
$var wire 1 )$ hz_dat_rs2 $end
$var wire 1 *$ hz_data $end
$var wire 5 +$ i_ex_wb_reg [4:0] $end
$var wire 1 C i_hz_rs1 $end
$var wire 1 B i_hz_rs2 $end
$var wire 5 ,$ i_ma_wb_reg [4:0] $end
$var wire 5 -$ i_rs1 [4:0] $end
$var wire 5 .$ i_rs2 [4:0] $end
$var wire 5 /$ i_wb_wb_reg [4:0] $end
$var wire 1 D o_hz_data $end
$upscope $end
$scope module memory_i $end
$var wire 32 0$ data_rd_short [31:0] $end
$var wire 32 1$ data_rd_signed [31:0] $end
$var wire 32 2$ i_data_rd [31:0] $end
$var wire 32 3$ i_data_wr [31:0] $end
$var wire 2 4$ i_length [1:0] $end
$var wire 2 5$ i_shift [1:0] $end
$var wire 1 6$ i_signed_rd $end
$var wire 32 7$ o_data_rd [31:0] $end
$var wire 32 8$ o_data_wr [31:0] $end
$var wire 32 9$ sign_extension [31:0] $end
$var wire 1 :$ sign_bit $end
$var wire 4 ;$ o_we [3:0] $end
$var reg 32 <$ data_rd_shift [31:0] $end
$var reg 32 =$ data_wr_shift [31:0] $end
$var reg 32 >$ length_mask [31:0] $end
$var reg 4 ?$ we_lenght [3:0] $end
$var reg 4 @$ we_shifted [3:0] $end
$upscope $end
$scope module regs_i $end
$var wire 5 A$ i_addr_rd_a [4:0] $end
$var wire 5 B$ i_addr_rd_b [4:0] $end
$var wire 5 C$ i_addr_wr [4:0] $end
$var wire 1 ! i_ce $end
$var wire 1 J i_clk $end
$var wire 32 D$ i_dat_wr [31:0] $end
$var wire 1 n i_we $end
$var wire 32 E$ o_dat_rd_a [31:0] $end
$var wire 32 F$ o_dat_rd_b [31:0] $end
$var wire 1 G$ write_pass_a_en $end
$var wire 1 H$ write_pass_b_en $end
$var wire 1 I$ write_pass_en $end
$var wire 32 J$ dat_rd_b [31:0] $end
$var wire 32 K$ dat_rd_a [31:0] $end
$var reg 32 L$ dat_rd_a_reg [31:0] $end
$var reg 32 M$ dat_rd_b_reg [31:0] $end
$scope begin $ivl_for_loop0 $end
$var integer 32 N$ i [31:0] $end
$upscope $end
$upscope $end
$upscope $end
$upscope $end
$enddefinitions $end
#0
$dumpvars
b100000 N$
bx M$
bx L$
bx K$
bx J$
xI$
xH$
xG$
bx F$
bx E$
bx D$
bx C$
bx B$
bx A$
bx @$
bx ?$
bx >$
bx =$
b0 <$
bx ;$
0:$
b0 9$
bx 8$
b0 7$
x6$
bx 5$
bx 4$
bx 3$
b0 2$
b0 1$
b0 0$
bx /$
bx .$
bx -$
bx ,$
bx +$
x*$
x)$
x($
x'$
x&$
bx %$
bx $$
bx #$
bx "$
bx !$
bx ~#
bx }#
x|#
bx {#
bx z#
bx y#
xx#
xw#
bx v#
bx u#
bx t#
bx s#
xr#
xq#
xp#
xo#
bx n#
xm#
bx l#
bx k#
bx j#
bx i#
bx h#
bx g#
bx f#
xe#
bx d#
bx c#
bx b#
bx a#
bx `#
bx _#
bx ^#
bx ]#
bx \#
bx [#
bx Z#
bx Y#
bx X#
xW#
bx V#
bx0 U#
bx T#
bx S#
bx R#
bx Q#
bx P#
bx O#
bx N#
bx M#
bx L#
bx K#
bx0 J#
bx I#
bx H#
bx000000000000 G#
xF#
xE#
xD#
xC#
xB#
xA#
x@#
x?#
x>#
x=#
bx <#
bx ;#
x:#
x9#
x8#
x7#
bx 6#
bx 5#
b1xxx 4#
bx 3#
bx 2#
b1xxx 1#
bx 0#
x/#
x.#
bx -#
x,#
bx +#
bx *#
bx )#
bx (#
bx '#
bx &#
bx %#
bx $#
x##
x"#
x!#
x~"
x}"
x|"
x{"
xz"
xy"
xx"
xw"
xv"
xu"
xt"
xs"
xr"
xq"
xp"
xo"
xn"
xm"
xl"
xk"
xj"
xi"
xh"
xg"
xf"
xe"
xd"
xc"
xb"
xa"
x`"
x_"
x^"
bx ]"
bx \"
bx ["
bx Z"
xY"
xX"
bx W"
bx V"
bx U"
bx T"
bx S"
bx R"
bx Q"
xP"
xO"
xN"
bx M"
bx L"
bx K"
b0 J"
b100000 I"
b0 H"
b0 G"
bx F"
bx E"
b0 D"
0C"
1B"
b0 A"
b0 @"
x?"
b0 >"
b0 ="
bx <"
bx ;"
bx :"
bx 9"
bx 8"
x7"
bx 6"
bx 5"
bx 4"
x3"
x2"
01"
x0"
bx /"
bx ."
bx -"
x,"
x+"
x*"
x)"
x("
bx '"
bx &"
bx %"
b0x $"
b0x #"
x""
x!"
0~
bx }
bx |
bx {
xz
0y
xx
xw
bx v
bx u
bx t
bx s
bx r
bx q
bx p
bx o
xn
bx m
xl
bx k
bx j
xi
bx h
bx g
bx f
bx e
bx d
bx c
xb
xa
bx `
bx _
bx ^
bx ]
bx \
bx [
xZ
xY
bx X
bx W
bx V
xU
xT
xS
bx R
bx Q
0P
xO
xN
bx M
xL
xK
1J
xI
xH
bx G
bx F
xE
xD
xC
xB
bx A
bx @
bx ?
bx >
bx =
b0 <
bx ;
bx :
bx 9
bx 8
bx 7
bx 6
bx 5
bx 4
bx 3
bx 2
x1
bx 0
x/
bx .
bx -
x,
bx +
bx *
bx )
x(
1'
1&
1%
bx $
b0 #
0"
1!
$end
#1
1/
1/#
1,#
1.#
b0 =
b0 &#
b0 I#
0D
0*$
1z"
0($
1C
1W#
0)$
0I
0"#
0H
0##
0B
0!#
1O
1d"
0~"
0L
0e"
b10 5
b10 )#
b10 -$
b10 A$
b10 -#
b0 .
b0 +#
b0 0#
0B#
1?#
0F#
0}"
0>#
1N
1e#
0|"
0@#
0A#
0y"
0E#
0C#
0{"
0D#
01
0=#
b100 7
b100 '#
b100 <#
b0 3
b0 *#
b0 .$
b0 B$
b0 3#
b1000 6
b1000 (#
b1000 6#
b0 G
b0 $#
b0 Z#
b0 F
b0 %#
b0 X#
b10000000000000000 G#
b10000000000000000 J#
b1000 U#
b1000 H#
b0 K#
b10000010000010011 ;#
b0 }
b0 4"
b1000 _#
b10 ^#
b0 ]#
b0 c#
b0 b#
b10000010000010011 `#
b100 a#
0u"
0q"
b0 8"
0m"
0n"
b0 d#
0v"
0l"
0k"
1i"
0r"
0w"
0j"
0t"
0s"
0x"
0o"
0f"
0h"
0g"
0p"
b0 M#
b0 L#
b0 R#
b0 O#
b0 S#
b0 N#
b0 T#
b0 Q#
b0 P#
07#
08#
09#
1:#
b0 [#
b0 \#
b0 Y#
b0 2#
b0 5#
b1000 1#
b1000 4#
0?"
b0 )
b0 M
b0 |
b0 g#
b0 5"
b0 T"
0+"
02"
b0 S"
b0 {
b0 W"
b0 U"
b0 '"
b0 6"
b0 <"
03"
b1 ;
b1 ;$
b1 @$
0o#
0("
0*"
b0 R"
b0 Q"
b0 V"
0K
0X"
b0 %"
b0 &"
b0 M"
b0 E"
b0 :"
1Y"
b0 v
b0 u
b0 t
b0 F"
b1 ?$
b11111111 >$
b0 8
0H$
0G$
b0 A
b0 V#
b0 i#
b0 y#
b0 ?
b0 k#
b0 s#
b0 @
b0 j#
b0 t#
1E
0q#
0p#
b0 z#
1|#
b0 {#
0z
0w
0O"
0P"
0x
00"
0)"
0,"
0N"
0^"
b0 $"
b0 #"
b0 9"
b0 Q
b0 s
b0 /"
1c"
b0 ;"
b0 R
b0 r
b0 ."
b0 L"
b0 -
b0 *
b0 4$
16$
b0 0
b0 5$
b0 9
b0 :
b0 8$
b0 =$
0I$
b0 +
b0 >
b0 l#
b0 n#
b0 !$
0&$
b0 %$
b0 $$
b0 #$
b0 "$
0r#
0'$
b0 ~#
b0 }#
0a
0b
b0 c
b0 d
b0 +$
0Y
0Z
0S
0T
0U
b0 ^
0!"
0""
b0 W
b0 q
07"
b0 V
b0 p
b0 -"
b0 K"
b0 \"
0_"
b0 [
b0 ]"
b0 ]
b0 \
b0 X
1b"
0a"
0`"
b0 `
b0 ["
b0 _
b0 Z"
0i
b0 j
b0 k
b0 ,$
0,
0(
0l
b0 e
b0 g
b0 f
b0 h
b0 3$
0n
b0 o
b0 /$
b0 C$
b0 m
b0 D$
0J
1"
#2
b100 v#
b100 u#
0m#
b0 2
b0 F$
b0 J$
b0 4
b0 E$
b0 K$
0w#
1x#
b0 M$
b0 L$
b10000000000000001101111 f#
b10000000000000001101111 $
b10000000000000001101111 h#
1J
0"
#3
0J
1"
#4
1J
0"
#5
0J
1"
#6
1J
0"
#7
0J
1"
#8
1J
0"
#9
0J
1"
#10
1J
0"
0%
#11
0.#
0z"
1L
1e"
b100 =
b100 &#
b100 I#
b111 d#
0O
0d"
0C
0W#
b10 .
b10 +#
b10 0#
b0 5
b0 )#
b0 -$
b0 A$
b0 -#
0?#
1{"
1D#
b11011 7
b11011 '#
b11011 <#
b100 3
b100 *#
b100 .$
b100 B$
b100 3#
b0 6
b0 (#
b0 6#
b10000000000000000000000 G#
b100 J#
b0 U#
b0 H#
b100 K#
b0 ^#
b0 a#
b10000000000000001101111 ;#
0i"
b0 `#
b0 _#
b110110 M#
b1110001 R#
b1010101 O#
b11011 S#
b10001 N#
b1111 T#
b11011 Q#
b11 P#
17#
0:#
b11 [#
b11011 2#
b1011 1#
0E
1q#
b10000000000000001101111 A
b10000000000000001101111 V#
b10000000000000001101111 i#
b10000000000000001101111 y#
b100 ?
b100 k#
b100 s#
1p#
b10000000000000001101111 {#
b1000 v#
b100 $$
1'$
b10000000000000001101111 }#
b100 +
b100 >
b100 l#
b1000 u#
b100 n#
b100 !$
0J
1"
#12
b10010011 f#
b10010011 $
b10010011 h#
1J
0"
#13
1/
1/#
1,#
1z"
0L
0e"
b0 =
b0 &#
b0 I#
1O
1d"
1C
1W#
b0 .
b0 +#
b0 0#
1?#
0{"
0D#
b100 7
b100 '#
b100 <#
b0 3
b0 *#
b0 .$
b0 B$
b0 3#
b1 6
b1 (#
b1 6#
b0 G#
b0 J#
b100000000000 U#
b1 H#
b0 K#
b0 d#
b100 )
b100 M
b100 |
b100 g#
b10010011 ;#
b1 M#
b10000 L#
b10 R#
b100010 O#
b100 S#
b0 N#
b10000 T#
b100 Q#
b10000 P#
b0 [#
b100 2#
b1 5#
b1100 1#
b1001 4#
b100 '"
b1111111111111111111111111111 Q"
b11100 V"
b10010011 A
b10010011 V#
b10010011 i#
b10010011 y#
b100 v
b100 u
b100 %"
b100 &"
b100 M"
b100 E"
b100 :"
1K
1X"
b100 v#
b1000 ?
b1000 k#
b1000 s#
b100 @
b100 j#
b100 t#
b10000000000000001101111 z#
b10010011 {#
b1 $"
b1 #"
b11111111111111111111111111111100 9"
b100 Q
b100 s
b100 /"
1^"
b1000 +
b1000 >
b1000 l#
b1100 u#
b1000 n#
b1000 !$
b100 %$
b1000 $$
b100 "$
1r#
b10000000000000001101111 ~#
b10010011 }#
1b
b10 c
1T
1U
b11011 [
b11011 ]"
b100 ]
b100 X
0J
1"
#14
b100010011 f#
b100010011 $
b100010011 h#
1J
0"
#15
1.#
b10 5
b10 )#
b10 -$
b10 A$
b10 -#
b10000000000000000 G#
b10000000000000000 J#
1/
1/#
1O
1d"
1,#
b1000 _#
b10 ^#
b10000010000010011 `#
b100 a#
b0 )
b0 M
b0 |
b0 g#
b0 .
b0 +#
b0 0#
0B#
1?#
b100 7
b100 '#
b100 <#
b1000 6
b1000 (#
b1000 6#
b1000 U#
b1000 H#
1i"
b1000 v#
b0 '"
b0 Q"
b0 V"
b10000010000010011 ;#
b0 M#
b0 L#
b0 R#
b0 O#
b0 S#
b0 T#
b0 Q#
b0 P#
07#
1:#
b0 2#
b0 5#
b1000 1#
b1000 4#
0K
0X"
b0 v
b0 u
b0 %"
b0 &"
b0 M"
b0 E"
b0 :"
1E
0q#
b0 A
b0 V#
b0 i#
b0 y#
b100 0
0^"
b0 $"
b0 #"
b0 9"
b0 Q
b0 s
b0 /"
0p#
b1100 ?
b1100 k#
b1100 s#
b1000 @
b1000 j#
b1000 t#
b0 z#
b0 {#
1i
b10 j
b100 g
b100 f
0b
b0 c
0T
0U
b0 [
b0 ]"
b0 ]
b0 X
0r#
0'$
b1000 %$
b1100 $$
b100 #$
b1000 "$
b0 ~#
b0 }#
b100 +
b100 >
b100 l#
b1000 u#
b100 n#
b100 !$
0J
1"
#16
b10010011 f#
b10010011 $
b10010011 h#
1J
0"
#17
0.#
b0 5
b0 )#
b0 -$
b0 A$
b0 -#
b1 6
b1 (#
b1 6#
b0 G#
b0 J#
b100000000000 U#
b1 H#
b0 ^#
b0 a#
b10010011 ;#
0i"
b0 `#
b0 _#
b1 M#
b10000 L#
b10 R#
b100010 O#
b100 S#
b10000 T#
b100 Q#
b10000 P#
17#
0:#
b100 2#
b1 5#
b1100 1#
b1001 4#
0E
1q#
b10010011 A
b10010011 V#
b10010011 i#
b10010011 y#
b1100 v#
b1000 ?
b1000 k#
b1000 s#
b100 @
b100 j#
b100 t#
1p#
b10010011 {#
b0 0
b1000 +
b1000 >
b1000 l#
b1100 u#
b1000 n#
b1000 !$
b1100 %$
b1000 $$
b1000 #$
b100 "$
1'$
b10010011 }#
0i
b0 j
b0 g
b0 f
1n
b100 m
b100 D$
0J
1"
#18
b100010011 f#
b100010011 $
b100010011 h#
1J
0"
#19
b10 6
b10 (#
b10 6#
b10 U#
b10 H#
b100010011 ;#
b100000 L#
b1000000010 O#
b100000 P#
b10 5#
b1010 4#
b100010011 A
b100010011 V#
b100010011 i#
b100010011 y#
1z
b1100 ?
b1100 k#
b1100 s#
b1000 @
b1000 j#
b1000 t#
b10010011 z#
b100010011 {#
b10000 v#
0n
b0 m
b0 D$
1b
b1 d
b1 +$
1S
1T
b100 [
b100 ]"
b1000 ]
b100 \
b1000 %$
b1100 $$
b100 #$
b1000 "$
1r#
b10010011 ~#
b100010011 }#
b1100 +
b1100 >
b1100 l#
b10000 u#
b1100 n#
b1100 !$
0J
1"
#20
b110010011 f#
b110010011 $
b110010011 h#
1J
0"
