hdl/cpu/cpu_log.vcd
$date
	Mon May 30 22:15:25 2022
$end
$version
	Icarus Verilog
$end
$timescale
	1s
$end
$scope module cpu_tb $end
$scope module DUT $end
$var wire 1 ! clk_ce $end
$var wire 1 " hz_dat_rsa $end
$var wire 1 # hz_dat_rsb $end
$var wire 1 $ hz_data $end
$var wire 1 % i_clk $end
$var wire 32 & i_data_in_d [31:0] $end
$var wire 32 ' i_data_in_i [31:0] $end
$var wire 1 ( i_rst $end
$var wire 1 ) i_valid_d $end
$var wire 1 * i_valid_i $end
$var wire 1 + ma_rd_en $end
$var wire 4 , ma_wr_en [3:0] $end
$var wire 32 - o_addr_i [31:0] $end
$var wire 1 . o_rd_d $end
$var wire 4 / o_we_d [3:0] $end
$var wire 2 0 wb_mux [1:0] $end
$var wire 1 1 wb_en $end
$var wire 32 2 wb_dat_mux [31:0] $end
$var wire 32 3 rsb_d [31:0] $end
$var wire 5 4 rsb [4:0] $end
$var wire 32 5 rsa_d [31:0] $end
$var wire 5 6 rsa [4:0] $end
$var wire 5 7 rd [4:0] $end
$var wire 32 8 pc_next [31:0] $end
$var wire 32 9 pc_mux [31:0] $end
$var wire 5 : opcode [4:0] $end
$var wire 32 ; o_data_out_d [31:0] $end
$var wire 32 < o_addr_d [31:0] $end
$var wire 32 = ma_wr_dat [31:0] $end
$var wire 4 > ma_we [3:0] $end
$var wire 32 ? ma_rd_dat [31:0] $end
$var wire 32 @ immediate [31:0] $end
$var wire 1 A i_clk_n $end
$var wire 1 B hz_rsb $end
$var wire 1 C hz_rsa $end
$var wire 7 D funct7 [6:0] $end
$var wire 3 E funct3 [2:0] $end
$var wire 1 F d_wr $end
$var wire 1 G d_rd $end
$var wire 1 H branch_en $end
$var wire 1 I alu_pc $end
$var wire 32 J alu_out [31:0] $end
$var wire 1 K alu_imm $end
$var wire 1 L alu_en $end
$var wire 32 M alu_b_mux [31:0] $end
$var wire 32 N alu_a_mux [31:0] $end
$var reg 1 O ex_alu_en $end
$var reg 1 P ex_alu_imm $end
$var reg 1 Q ex_alu_pc $end
$var reg 3 R ex_funct3 [2:0] $end
$var reg 1 S ex_funct7_4 $end
$var reg 32 T ex_imm [31:0] $end
$var reg 1 U ex_ma_rd $end
$var reg 1 V ex_ma_wr $end
$var reg 5 W ex_opcode [4:0] $end
$var reg 32 X ex_pc [31:0] $end
$var reg 32 Y ex_ret [31:0] $end
$var reg 32 Z ex_rsa_d [31:0] $end
$var reg 32 [ ex_rsb_d [31:0] $end
$var reg 1 \ ex_wb_en $end
$var reg 2 ] ex_wb_mux [1:0] $end
$var reg 5 ^ ex_wb_reg [4:0] $end
$var reg 1 _ hz_branch $end
$var reg 32 ` id_ir [31:0] $end
$var reg 32 a id_pc [31:0] $end
$var reg 32 b id_ret [31:0] $end
$var reg 32 c if_pc [31:0] $end
$var reg 32 d ma_alu [31:0] $end
$var reg 3 e ma_funct3 [2:0] $end
$var reg 1 f ma_rd $end
$var reg 32 g ma_ret [31:0] $end
$var reg 32 h ma_rsb_d [31:0] $end
$var reg 1 i ma_wb_en $end
$var reg 2 j ma_wb_mux [1:0] $end
$var reg 5 k ma_wb_reg [4:0] $end
$var reg 1 l ma_wr $end
$var reg 32 m wb_wb_d [31:0] $end
$var reg 1 n wb_wb_en $end
$var reg 5 o wb_wb_reg [4:0] $end
$scope module alu_i $end
$var wire 1 O i_alu_en $end
$var wire 1 P i_alu_imm $end
$var wire 3 p i_funct3 [2:0] $end
$var wire 1 S i_funct7_4 $end
$var wire 32 q i_in_a [31:0] $end
$var wire 32 r i_in_b [31:0] $end
$var wire 32 s logic_and [31:0] $end
$var wire 32 t logic_or [31:0] $end
$var wire 32 u logic_xor [31:0] $end
$var wire 32 v o_alu_out [31:0] $end
$var wire 1 w op_sll $end
$var wire 1 x op_sra $end
$var wire 1 y op_srl $end
$var wire 1 z op_subtract $end
$var wire 32 { shift_sll [31:0] $end
$var wire 32 | shift_sra [31:0] $end
$var wire 32 } shift_srl [31:0] $end
$var wire 32 ~ shift_combined [31:0] $end
$var wire 5 !" shift_amount [4:0] $end
$var wire 32 "" mux_67 [31:0] $end
$var wire 32 #" mux_47 [31:0] $end
$var wire 32 $" mux_45 [31:0] $end
$var wire 32 %" mux_23 [31:0] $end
$var wire 32 &" mux_07 [31:0] $end
$var wire 32 '" mux_03 [31:0] $end
$var wire 32 (" mux_01 [31:0] $end
$var wire 32 )" comp_unsigned [31:0] $end
$var wire 32 *" comp_signed [31:0] $end
$var wire 32 +" adder_out [31:0] $end
$var wire 32 ," adder_in_b [31:0] $end
$var reg 32 -" shift_mask [31:0] $end
$var reg 32 ." shift_out [31:0] $end
$upscope $end
$scope module branch_i $end
$var wire 1 /" branch_enable $end
$var wire 32 0" i_dat_a [31:0] $end
$var wire 32 1" i_dat_b [31:0] $end
$var wire 3 2" i_funct3 [2:0] $end
$var wire 5 3" i_opcode [4:0] $end
$var wire 1 H o_branch_en $end
$var wire 1 4" op_jump $end
$var wire 1 5" op_branch $end
$var wire 1 6" lower_u $end
$var wire 1 7" lower $end
$var wire 1 8" equal $end
$var reg 1 9" condition $end
$upscope $end
$scope module decoder_i $end
$var wire 1 :" alu_en $end
$var wire 1 ;" alu_pc $end
$var wire 1 <" format_b $end
$var wire 1 =" format_i $end
$var wire 1 >" format_j $end
$var wire 1 ?" format_r $end
$var wire 1 @" format_s $end
$var wire 1 A" format_u $end
$var wire 1 B" hz_rsb $end
$var wire 32 C" i_opcode_in [31:0] $end
$var wire 1 D" ma_rd $end
$var wire 1 E" ma_wr $end
$var wire 1 L o_alu_en $end
$var wire 1 K o_alu_imm $end
$var wire 1 I o_alu_pc $end
$var wire 3 F" o_funct3 [2:0] $end
$var wire 7 G" o_funct7 [6:0] $end
$var wire 1 C o_hz_rsa $end
$var wire 1 B o_hz_rsb $end
$var wire 32 H" o_immediate [31:0] $end
$var wire 1 G o_ma_rd $end
$var wire 1 F o_ma_wr $end
$var wire 5 I" o_opcode [4:0] $end
$var wire 5 J" o_rd [4:0] $end
$var wire 5 K" o_rsa [4:0] $end
$var wire 5 L" o_rsb [4:0] $end
$var wire 1 1 o_wb_en $end
$var wire 2 M" o_wb_mux [1:0] $end
$var wire 1 N" opcode_valid $end
$var wire 5 O" rsa [4:0] $end
$var wire 1 P" wb_en $end
$var wire 2 Q" wb_mux [1:0] $end
$var wire 5 R" rsb [4:0] $end
$var wire 5 S" rd [4:0] $end
$var wire 5 T" opcode [4:0] $end
$var wire 1 U" op_store $end
$var wire 1 V" op_op_imm $end
$var wire 1 W" op_op $end
$var wire 1 X" op_lui $end
$var wire 1 Y" op_load $end
$var wire 1 Z" op_jalr $end
$var wire 1 [" op_jal $end
$var wire 1 \" op_branch $end
$var wire 1 ]" op_auipc $end
$var wire 32 ^" immediate_u [31:0] $end
$var wire 32 _" immediate_s [31:0] $end
$var wire 32 `" immediate_mux [31:0] $end
$var wire 32 a" immediate_j [31:0] $end
$var wire 32 b" immediate_i [31:0] $end
$var wire 32 c" immediate_b [31:0] $end
$var wire 1 d" hz_rsa $end
$var wire 7 e" funct7 [6:0] $end
$var wire 3 f" funct3 [2:0] $end
$var wire 1 g" alu_imm $end
$upscope $end
$scope module memory_i $end
$var wire 32 h" data_rd_short [31:0] $end
$var wire 32 i" data_rd_signed [31:0] $end
$var wire 32 j" data_wr_s [31:0] $end
$var wire 32 k" i_data_rd [31:0] $end
$var wire 32 l" i_data_wr [31:0] $end
$var wire 2 m" i_length [1:0] $end
$var wire 2 n" i_shift [1:0] $end
$var wire 1 o" i_signed_rd $end
$var wire 32 p" o_data_rd [31:0] $end
$var wire 32 q" o_data_wr [31:0] $end
$var wire 32 r" sign_extension [31:0] $end
$var wire 1 s" sign_bit $end
$var wire 4 t" o_we [3:0] $end
$var reg 32 u" data_rd_shift [31:0] $end
$var reg 32 v" data_wr_shift [31:0] $end
$var reg 32 w" length_mask [31:0] $end
$var reg 4 x" we_lenght [3:0] $end
$var reg 4 y" we_shifted [3:0] $end
$upscope $end
$scope module regs_i $end
$var wire 5 z" i_addr_rd_a [4:0] $end
$var wire 5 {" i_addr_rd_b [4:0] $end
$var wire 5 |" i_addr_wr [4:0] $end
$var wire 1 A i_clk $end
$var wire 32 }" i_dat_wr [31:0] $end
$var wire 1 n i_we $end
$var wire 32 ~" o_dat_rd_a [31:0] $end
$var wire 32 !# o_dat_rd_b [31:0] $end
$var reg 32 "# dat_rd_a [31:0] $end
$var reg 32 ## dat_rd_b [31:0] $end
$scope begin $ivl_for_loop0 $end
$var integer 32 $# i [31:0] $end
$upscope $end
$upscope $end
$upscope $end
$upscope $end
$enddefinitions $end
#0
$dumpvars
b100000 $#
bx ##
bx "#
bx !#
bx ~"
bx }"
bx |"
bx {"
bx z"
bx y"
bx x"
bx w"
bx v"
b0 u"
bx t"
0s"
b0 r"
bx q"
b0 p"
xo"
bx n"
bx m"
bx l"
b0 k"
bx j"
b0 i"
b0 h"
xg"
bx f"
bx e"
xd"
bx0 c"
bx b"
bx0 a"
bx `"
bx _"
bx000000000000 ^"
x]"
x\"
x["
xZ"
xY"
xX"
xW"
xV"
xU"
bx T"
bx S"
bx R"
bx Q"
xP"
bx O"
xN"
bx M"
bx L"
bx K"
bx J"
bx I"
bx H"
bx G"
bx F"
xE"
xD"
bx C"
xB"
xA"
x@"
x?"
x>"
x="
x<"
x;"
x:"
x9"
x8"
x7"
x6"
x5"
x4"
bx 3"
bx 2"
bx 1"
bx 0"
x/"
bx ."
bx -"
bx ,"
bx +"
b0x *"
b0x )"
bx ("
bx '"
bx &"
b0x %"
bx $"
bx #"
bx ""
bx !"
bx ~
bx }
bx |
bx {
xz
xy
xx
xw
bx v
bx u
bx t
bx s
bx r
bx q
bx p
bx o
xn
bx m
xl
bx k
bx j
xi
bx h
bx g
xf
bx e
bx d
bx c
bx b
bx a
bx `
x_
bx ^
bx ]
x\
bx [
bx Z
bx Y
bx X
bx W
xV
xU
bx T
xS
bx R
xQ
xP
xO
bx N
bx M
xL
xK
bx J
xI
xH
xG
xF
bx E
bx D
xC
xB
1A
bx @
b0 ?
bx >
bx =
bx <
bx ;
bx :
bx 9
bx 8
bx 7
bx 6
bx 5
bx 4
bx 3
bx 2
x1
bx 0
bx /
x.
bx -
bx ,
x+
1*
1)
1(
bx '
b0 &
0%
x$
x#
x"
1!
$end
#1
b0 @
b0 H"
b0 `"
0$
0"
b0 J
b0 v
b0 &"
b0 |
1="
1C
1d"
0#
01
0P"
b0 '"
b0 #"
b0 ~
b0 -"
b100 9
b0 }
b0 {
b1 >
b1 t"
b1 y"
b0 ;
0G
0D"
0F
0E"
0B
0B"
0L
0:"
0A"
0I
0;"
b0 6
b0 K"
b0 z"
b0 O"
0N"
b0 ("
b0 $"
b0 ""
b0 !"
0H
0/"
b0 +"
b0 ,"
b0 %"
b0 u
b0 t
b0 s
b0 ."
b0 /
b0 ,
b1 x"
b11111111 w"
b0 =
b0 q"
b0 v"
b1 0
b1 M"
b1 Q"
1Y"
0V"
0]"
0@"
0U"
1K
1g"
0?"
0W"
0X"
0<"
0\"
0Z"
0>"
0["
b0 :
b0 I"
b0 T"
b0 4
b0 L"
b0 {"
b0 R"
b0 7
b0 J"
b0 S"
b0 E
b0 F"
b0 f"
b0 D
b0 G"
b0 e"
b0 ^"
b0 a"
b0 c"
b0 _"
b0 b"
0z
0x
0y
0w
04"
b0 *"
b0 )"
b0 M
b0 r
19"
b0 N
b0 q
0.
0+
b0 m"
1o"
b0 2
b0 n"
b0 <
b0 j"
0_
b100 8
b0 -
b0 c
b0 `
b0 C"
b0 a
b0 b
0\
b0 ]
b0 ^
0U
0V
0O
0P
0Q
0S
b0 R
b0 p
b0 2"
05"
b0 W
b0 3"
b0 Y
b0 X
b0 T
18"
07"
06"
b0 [
b0 1"
b0 Z
b0 0"
0i
b0 j
b0 k
0f
0l
b0 e
b0 g
b0 d
b0 h
b0 l"
0n
b0 o
b0 |"
b0 m
b0 }"
0A
1%
#2
b0 3
b0 !#
b0 ##
b0 5
b0 ~"
b0 "#
b10010011 '
1A
0%
#3
0A
1%
#4
1A
0%
#5
0A
1%
#6
1A
0%
#7
0A
1%
#8
1A
0%
#9
0A
1%
#10
1A
0%
0(
#11
11
1P"
1L
1:"
1N"
b0 0
b0 M"
b0 Q"
0Y"
1V"
b100 :
b100 I"
b100 T"
b1 7
b1 J"
b1 S"
b100000000000 c"
b1 _"
b1000 9
b1 ]
1P
b10010011 `
b10010011 C"
b100 b
b1000 8
b100 -
b100 c
0A
1%
#12
b100010011 '
1A
0%
#13
b1100 9
b10 7
b10 J"
b10 S"
b10 c"
b10 _"
b1100 8
b1000 -
b1000 c
b100010011 `
b100010011 C"
b100 a
b1000 b
1\
b0 ]
b1 ^
1O
b100 W
b100 3"
b100 Y
b1 j
0A
1%
#14
b110010011 '
1A
0%
#15
b11 7
b11 J"
b11 S"
b100000000010 c"
b11 _"
b10000 9
1i
b0 j
b1 k
b100 g
b10 ^
b1000 Y
b100 X
b110010011 `
b110010011 C"
b1000 a
b1100 b
b10000 8
b1100 -
b1100 c
0A
1%
#16
b1000010011 '
1A
0%
#17
b10100 9
b100 7
b100 J"
b100 S"
b100 c"
b100 _"
b10100 8
b10000 -
b10000 c
b1000010011 `
b1000010011 C"
b1100 a
b10000 b
b11 ^
b1100 Y
b1000 X
b10 k
b1000 g
1n
b1 o
b1 |"
0A
1%
#18
b1010010011 '
1A
0%
#19
b101 7
b101 J"
b101 S"
b100000000100 c"
b101 _"
b11000 9
b10 o
b10 |"
b11 k
b1100 g
b100 ^
b10000 Y
b1100 X
b1010010011 `
b1010010011 C"
b10000 a
b10100 b
b11000 8
b10100 -
b10100 c
0A
1%
#20
b1100010011 '
1A
0%
#21
b11100 9
b110 7
b110 J"
b110 S"
b110 c"
b110 _"
b11100 8
b11000 -
b11000 c
b1100010011 `
b1100010011 C"
b10100 a
b11000 b
b101 ^
b10100 Y
b10000 X
b100 k
b10000 g
b11 o
b11 |"
0A
1%
#22
b1110010011 '
1A
0%
#23
b111 7
b111 J"
b111 S"
b100000000110 c"
b111 _"
b100000 9
b100 o
b100 |"
b101 k
b10100 g
b110 ^
b11000 Y
b10100 X
b1110010011 `
b1110010011 C"
b11000 a
b11100 b
b100000 8
b11100 -
b11100 c
0A
1%
#24
b10000010011 '
1A
0%
#25
b100100 9
b1000 7
b1000 J"
b1000 S"
b1000 c"
b1000 _"
b100100 8
b100000 -
b100000 c
b10000010011 `
b10000010011 C"
b11100 a
b100000 b
b111 ^
b11100 Y
b11000 X
b110 k
b11000 g
b101 o
b101 |"
0A
1%
#26
b10010010011 '
1A
0%
#27
b1001 7
b1001 J"
b1001 S"
b100000001000 c"
b1001 _"
b101000 9
b110 o
b110 |"
b111 k
b11100 g
b1000 ^
b100000 Y
b11100 X
b10010010011 `
b10010010011 C"
b100000 a
b100100 b
b101000 8
b100100 -
b100100 c
0A
1%
#28
b10100010011 '
1A
0%
#29
b101100 9
b1010 7
b1010 J"
b1010 S"
b1010 c"
b1010 _"
b101100 8
b101000 -
b101000 c
b10100010011 `
b10100010011 C"
b100100 a
b101000 b
b1001 ^
b100100 Y
b100000 X
b1000 k
b100000 g
b111 o
b111 |"
0A
1%
#30
b10110010011 '
1A
0%
#31
b1011 7
b1011 J"
b1011 S"
b100000001010 c"
b1011 _"
b110000 9
b1000 o
b1000 |"
b1001 k
b100100 g
b1010 ^
b101000 Y
b100100 X
b10110010011 `
b10110010011 C"
b101000 a
b101100 b
b110000 8
b101100 -
b101100 c
0A
1%
#32
b11000010011 '
1A
0%
#33
b110100 9
b1100 7
b1100 J"
b1100 S"
b1100 c"
b1100 _"
b110100 8
b110000 -
b110000 c
b11000010011 `
b11000010011 C"
b101100 a
b110000 b
b1011 ^
b101100 Y
b101000 X
b1010 k
b101000 g
b1001 o
b1001 |"
0A
1%
#34
b11010010011 '
1A
0%
#35
b1101 7
b1101 J"
b1101 S"
b100000001100 c"
b1101 _"
b111000 9
b1010 o
b1010 |"
b1011 k
b101100 g
b1100 ^
b110000 Y
b101100 X
b11010010011 `
b11010010011 C"
b110000 a
b110100 b
b111000 8
b110100 -
b110100 c
0A
1%
#36
b11100010011 '
1A
0%
#37
b111100 9
b1110 7
b1110 J"
b1110 S"
b1110 c"
b1110 _"
b111100 8
b111000 -
b111000 c
b11100010011 `
b11100010011 C"
b110100 a
b111000 b
b1101 ^
b110100 Y
b110000 X
b1100 k
b110000 g
b1011 o
b1011 |"
0A
1%
#38
b11110010011 '
1A
0%
#39
b1111 7
b1111 J"
b1111 S"
b100000001110 c"
b1111 _"
b1000000 9
b1100 o
b1100 |"
b1101 k
b110100 g
b1110 ^
b111000 Y
b110100 X
b11110010011 `
b11110010011 C"
b111000 a
b111100 b
b1000000 8
b111100 -
b111100 c
0A
1%
#40
b100000010011 '
1A
0%
#41
b1000100 9
b10000 7
b10000 J"
b10000 S"
b10000 c"
b10000 _"
b1000100 8
b1000000 -
b1000000 c
b100000010011 `
b100000010011 C"
b111100 a
b1000000 b
b1111 ^
b111100 Y
b111000 X
b1110 k
b111000 g
b1101 o
b1101 |"
0A
1%
#42
b100010010011 '
1A
0%
#43
b10001 7
b10001 J"
b10001 S"
b100000010000 c"
b10001 _"
b1001000 9
b1110 o
b1110 |"
b1111 k
b111100 g
b10000 ^
b1000000 Y
b111100 X
b100010010011 `
b100010010011 C"
b1000000 a
b1000100 b
b1001000 8
b1000100 -
b1000100 c
0A
1%
#44
b100100010011 '
1A
0%
#45
b1001100 9
b10010 7
b10010 J"
b10010 S"
b10010 c"
b10010 _"
b1001100 8
b1001000 -
b1001000 c
b100100010011 `
b100100010011 C"
b1000100 a
b1001000 b
b10001 ^
b1000100 Y
b1000000 X
b10000 k
b1000000 g
b1111 o
b1111 |"
0A
1%
#46
b100110010011 '
1A
0%
#47
b10011 7
b10011 J"
b10011 S"
b100000010010 c"
b10011 _"
b1010000 9
b10000 o
b10000 |"
b10001 k
b1000100 g
b10010 ^
b1001000 Y
b1000100 X
b100110010011 `
b100110010011 C"
b1001000 a
b1001100 b
b1010000 8
b1001100 -
b1001100 c
0A
1%
#48
b101000010011 '
1A
0%
#49
b1010100 9
b10100 7
b10100 J"
b10100 S"
b10100 c"
b10100 _"
b1010100 8
b1010000 -
b1010000 c
b101000010011 `
b101000010011 C"
b1001100 a
b1010000 b
b10011 ^
b1001100 Y
b1001000 X
b10010 k
b1001000 g
b10001 o
b10001 |"
0A
1%
#50
b101010010011 '
1A
0%
#51
b10101 7
b10101 J"
b10101 S"
b100000010100 c"
b10101 _"
b1011000 9
b10010 o
b10010 |"
b10011 k
b1001100 g
b10100 ^
b1010000 Y
b1001100 X
b101010010011 `
b101010010011 C"
b1010000 a
b1010100 b
b1011000 8
b1010100 -
b1010100 c
0A
1%
#52
b101100010011 '
1A
0%
#53
b1011100 9
b10110 7
b10110 J"
b10110 S"
b10110 c"
b10110 _"
b1011100 8
b1011000 -
b1011000 c
b101100010011 `
b101100010011 C"
b1010100 a
b1011000 b
b10101 ^
b1010100 Y
b1010000 X
b10100 k
b1010000 g
b10011 o
b10011 |"
0A
1%
#54
b101110010011 '
1A
0%
#55
b10111 7
b10111 J"
b10111 S"
b100000010110 c"
b10111 _"
b1100000 9
b10100 o
b10100 |"
b10101 k
b1010100 g
b10110 ^
b1011000 Y
b1010100 X
b101110010011 `
b101110010011 C"
b1011000 a
b1011100 b
b1100000 8
b1011100 -
b1011100 c
0A
1%
#56
b110000010011 '
1A
0%
#57
b1100100 9
b11000 7
b11000 J"
b11000 S"
b11000 c"
b11000 _"
b1100100 8
b1100000 -
b1100000 c
b110000010011 `
b110000010011 C"
b1011100 a
b1100000 b
b10111 ^
b1011100 Y
b1011000 X
b10110 k
b1011000 g
b10101 o
b10101 |"
0A
1%
#58
b110010010011 '
1A
0%
#59
b11001 7
b11001 J"
b11001 S"
b100000011000 c"
b11001 _"
b1101000 9
b10110 o
b10110 |"
b10111 k
b1011100 g
b11000 ^
b1100000 Y
b1011100 X
b110010010011 `
b110010010011 C"
b1100000 a
b1100100 b
b1101000 8
b1100100 -
b1100100 c
0A
1%
#60
b110100010011 '
1A
0%
#61
b1101100 9
b11010 7
b11010 J"
b11010 S"
b11010 c"
b11010 _"
b1101100 8
b1101000 -
b1101000 c
b110100010011 `
b110100010011 C"
b1100100 a
b1101000 b
b11001 ^
b1100100 Y
b1100000 X
b11000 k
b1100000 g
b10111 o
b10111 |"
0A
1%
#62
b110110010011 '
1A
0%
#63
b11011 7
b11011 J"
b11011 S"
b100000011010 c"
b11011 _"
b1110000 9
b11000 o
b11000 |"
b11001 k
b1100100 g
b11010 ^
b1101000 Y
b1100100 X
b110110010011 `
b110110010011 C"
b1101000 a
b1101100 b
b1110000 8
b1101100 -
b1101100 c
0A
1%
#64
b111000010011 '
1A
0%
#65
b1110100 9
b11100 7
b11100 J"
b11100 S"
b11100 c"
b11100 _"
b1110100 8
b1110000 -
b1110000 c
b111000010011 `
b111000010011 C"
b1101100 a
b1110000 b
b11011 ^
b1101100 Y
b1101000 X
b11010 k
b1101000 g
b11001 o
b11001 |"
0A
1%
#66
b111010010011 '
1A
0%
#67
b11101 7
b11101 J"
b11101 S"
b100000011100 c"
b11101 _"
b1111000 9
b11010 o
b11010 |"
b11011 k
b1101100 g
b11100 ^
b1110000 Y
b1101100 X
b111010010011 `
b111010010011 C"
b1110000 a
b1110100 b
b1111000 8
b1110100 -
b1110100 c
0A
1%
#68
b111100010011 '
1A
0%
#69
b1111100 9
b11110 7
b11110 J"
b11110 S"
b11110 c"
b11110 _"
b1111100 8
b1111000 -
b1111000 c
b111100010011 `
b111100010011 C"
b1110100 a
b1111000 b
b11101 ^
b1110100 Y
b1110000 X
b11100 k
b1110000 g
b11011 o
b11011 |"
0A
1%
#70
b111110010011 '
1A
0%
#71
b11111 7
b11111 J"
b11111 S"
b100000011110 c"
b11111 _"
b10000000 9
b11100 o
b11100 |"
b11101 k
b1110100 g
b11110 ^
b1111000 Y
b1110100 X
b111110010011 `
b111110010011 C"
b1111000 a
b1111100 b
b10000000 8
b1111100 -
b1111100 c
0A
1%
#72
b10011 '
1A
0%
#73
b10000100 9
b0 7
b0 J"
b0 S"
b0 c"
b0 _"
b10000100 8
b10000000 -
b10000000 c
b10011 `
b10011 C"
b1111100 a
b10000000 b
b11111 ^
b1111100 Y
b1111000 X
b11110 k
b1111000 g
b11101 o
b11101 |"
0A
1%
#74
1A
0%
#75
b10001000 9
b11110 o
b11110 |"
b11111 k
b1111100 g
b0 ^
b10000000 Y
b1111100 X
b10000000 a
b10000100 b
b10001000 8
b10000100 -
b10000100 c
0A
1%
#76
b10010011 '
1A
0%
#77
b10001100 9
b1 7
b1 J"
b1 S"
b100000000000 c"
b1 _"
b10001100 8
b10001000 -
b10001000 c
b10010011 `
b10010011 C"
b10000100 a
b10001000 b
b10000100 Y
b10000000 X
b0 k
b10000000 g
b11111 o
b11111 |"
0A
1%
#78
b100010011 '
1A
0%
#79
b10 7
b10 J"
b10 S"
b10 c"
b10 _"
b10010000 9
b0 o
b0 |"
b10000100 g
b1 ^
b10001000 Y
b10000100 X
b100010011 `
b100010011 C"
b10001000 a
b10001100 b
b10010000 8
b10001100 -
b10001100 c
0A
1%
#80
b1000001000011100110011 '
1A
0%
#81
1$
b0 @
b0 H"
b0 `"
1"
1#
0="
1B
1B"
b1 6
b1 K"
b1 z"
b1 O"
b10010100 9
0V"
0K
0g"
1?"
1W"
b1100 :
b1100 I"
b1100 T"
b10 4
b10 L"
b10 {"
b10 R"
b1110 7
b1110 J"
b1110 S"
b1000001000000000000000 ^"
b1000000000000010 a"
b1110 c"
b1110 _"
b10 b"
b10010100 8
b10010000 -
b10010000 c
b1000001000011100110011 `
b1000001000011100110011 C"
b10001100 a
b10010000 b
b10 ^
b10001100 Y
b10001000 X
b1 k
b10001000 g
0A
1%
#82
b1110010011 '
1A
0%
#83
b1 o
b1 |"
b10 k
b10001100 g
0\
b0 ^
0O
0P
b0 W
b0 3"
b0 Y
b0 X
0A
1%
#84
1A
0%
#85
0"
0i
b0 k
b0 g
b10 o
b10 |"
0A
1%
#86
1A
0%
#87
0$
0#
0n
b0 o
b0 |"
0A
1%
#88
1A
0%
#89
11
1P"
1="
1N"
0B
0B"
b0 6
b0 K"
b0 z"
b0 O"
b10011000 9
1V"
1K
1g"
0?"
0W"
b100 :
b100 I"
b100 T"
b0 4
b0 L"
b0 {"
b0 R"
b111 7
b111 J"
b111 S"
b0 ^"
b0 a"
b100000000110 c"
b111 _"
b0 b"
b10011000 8
b10010100 -
b10010100 c
b1110010011 `
b1110010011 C"
b10010000 a
b10010100 b
1\
b1110 ^
1O
b1100 W
b1100 3"
b10010000 Y
b10001100 X
0A
1%
#90
b1000000000000110010011 '
1A
0%
#91
b10 @
b10 H"
b10 `"
b10 4
b10 L"
b10 {"
b10 R"
b11 7
b11 J"
b11 S"
b1000000000000000000000 ^"
b10 a"
b100000000010 c"
b11 _"
b10 b"
b10011100 9
1i
b1110 k
b10010000 g
b111 ^
1P
b100 W
b100 3"
b10010100 Y
b10010000 X
b1000000000000110010011 `
b1000000000000110010011 C"
b10010100 a
b10011000 b
b10011100 8
b10011000 -
b10011000 c
0A
1%
#92
b1001100011101110001011001100011 '
1A
0%
#93
1#
1$
b10 J
b10 v
b10 &"
b10011001100 @
b10011001100 H"
b10011001100 `"
1"
b10 #"
b10 '"
b111111111111111111111111111111 -"
0="
1B
1B"
01
0P"
b10 $"
b10 ""
b10 ("
b11110 !"
0L
0:"
1I
1;"
b1110 6
b1110 K"
b1110 z"
b1110 O"
b10 u
b10 t
b10 +"
b10 ,"
b1 %"
b10100000 9
0V"
1<"
1\"
b11000 :
b11000 I"
b11000 T"
b111 4
b111 L"
b111 {"
b111 R"
b1100 7
b1100 J"
b1100 S"
b1 E
b1 F"
b1 f"
b100110 D
b100110 G"
b100110 e"
b1001100011101110001000000000000 ^"
b1110001110011000110 a"
b10011001100 c"
b10011001100 _"
b10011000111 b"
b1 *"
b1 )"
b10 M
b10 r
b10100000 8
b10011100 -
b10011100 c
b1001100011101110001011001100011 `
b1001100011101110001011001100011 C"
b10011000 a
b10011100 b
b11 ^
b10011000 Y
b10010100 X
b10 T
b111 k
b10010100 g
1n
b1110 o
b1110 |"
0A
1%
#94
b100000000000010010011 '
1A
0%
#95
b0 J
b0 v
b0 &"
b0 #"
b0 '"
b0 -"
b0 $"
b0 ""
b0 ("
b0 !"
0"
b100 >
b100 t"
b100 y"
b10 2
b0 u
b0 t
b0 +"
b0 ,"
b0 %"
b10 n"
b0 *"
b0 )"
b0 M
b0 r
b111 o
b111 |"
b11 k
b10011000 g
b10 d
0\
b0 ^
0O
0P
b0 W
b0 3"
b0 Y
b0 X
b0 T
0A
1%
#96
1A
0%
#97
0$
b1 >
b1 t"
b1 y"
b0 2
0#
b0 n"
0i
b0 k
b0 g
b0 d
b11 o
b11 |"
b10 m
b10 }"
0A
1%
#98
1A
0%
#99
1N"
b11111111111111111111 -"
b10001010100 #"
b10101100100 J
b10101100100 v
b10101100100 &"
b1 @
b1 H"
b1 `"
b10100 !"
b10001010100 $"
b10011011100 ""
b1001100000000000000000000000 {
b10101100100 '"
1="
0B
0B"
11
1P"
b10011001100 ,"
b1 %"
b10001010100 u
b10011011100 t
b10001000 s
b1001100000000000000000000000 ."
b10101100100 ("
b1001100000000000000000000000 ~
0H
0/"
1L
1:"
0I
0;"
b0 6
b0 K"
b0 z"
b0 O"
b1 *"
b1 )"
b10011001100 M
b10011001100 r
b10101100100 +"
b10011000 N
b10011000 q
09"
1V"
0<"
0\"
b100 :
b100 I"
b100 T"
b1 4
b1 L"
b1 {"
b1 R"
b1 7
b1 J"
b1 S"
b0 E
b0 F"
b0 f"
b0 D
b0 G"
b0 e"
b100000000000000000000 ^"
b100000000000 a"
b100000000000 c"
b1 _"
b1 b"
b10100100 9
0n
b0 o
b0 |"
b0 m
b0 }"
b1100 ^
1P
1Q
b1 R
b1 p
b1 2"
15"
b11000 W
b11000 3"
b10011100 Y
b10011000 X
b10011001100 T
b100000000000010010011 `
b100000000000010010011 C"
b10011100 a
b10100000 b
b10100100 8
b10100000 -
b10100000 c
0A
1%
#100
b100000000000100010011 '
1A
0%
#101
b0 ~
b1 J
b1 v
b1 &"
b1 #"
b1111111111111111111111111111111 -"
b0 {
b1 '"
b1 $"
b1 ""
b11111 !"
b11 >
b11 t"
b11 y"
b0 ."
b1 ("
b1 u
b1 t
b0 s
b1 ,"
b1111111111111111 w"
b11 x"
b10101100100 2
b10101000 9
b10 7
b10 J"
b10 S"
b10 c"
b10 _"
19"
b1 +"
b0 N
b0 q
b1 *"
b1 )"
b1 M
b1 r
b1 m"
b10101000 8
b10100100 -
b10100100 c
b100000000000100010011 `
b100000000000100010011 C"
b10100000 a
b10100100 b
1\
b1 ^
1O
0Q
b0 R
b0 p
b0 2"
05"
b100 W
b100 3"
b10100000 Y
b10011100 X
b1 T
b1100 k
b1 e
b10011100 g
b10101100100 d
0A
1%
#102
b1000001000011100110011 '
1A
0%
