hdl/cpu/cpu_log.vcd
$date
	Sat Jun  4 11:26:46 2022
$end
$version
	Icarus Verilog
$end
$timescale
	1s
$end
$scope module cpu_tb $end
$scope module DUT $end
$var wire 1 ! clk_ce $end
$var wire 1 " csr_clr $end
$var wire 1 # csr_rd $end
$var wire 1 $ csr_set $end
$var wire 1 % csr_wr $end
$var wire 1 & csr_wr_en $end
$var wire 1 ' hz_dat_rsa $end
$var wire 1 ( hz_dat_rsb $end
$var wire 1 ) hz_data $end
$var wire 1 * i_clk $end
$var wire 32 + i_data_in_d [31:0] $end
$var wire 32 , i_data_in_i [31:0] $end
$var wire 1 - i_rst $end
$var wire 1 . i_valid_d $end
$var wire 1 / i_valid_i $end
$var wire 1 0 ma_rd_en $end
$var wire 4 1 ma_wr_en [3:0] $end
$var wire 32 2 o_addr_i [31:0] $end
$var wire 1 3 o_rd_d $end
$var wire 4 4 o_we_d [3:0] $end
$var wire 2 5 wb_mux [1:0] $end
$var wire 1 6 wb_en $end
$var wire 32 7 wb_dat_mux [31:0] $end
$var wire 1 8 system $end
$var wire 32 9 rsb_d [31:0] $end
$var wire 5 : rsb [4:0] $end
$var wire 32 ; rsa_d [31:0] $end
$var wire 5 < rsa [4:0] $end
$var wire 5 = rd [4:0] $end
$var wire 32 > pc_next [31:0] $end
$var wire 32 ? pc_mux [31:0] $end
$var wire 5 @ opcode [4:0] $end
$var wire 32 A o_data_out_d [31:0] $end
$var wire 32 B o_addr_d [31:0] $end
$var wire 32 C ma_wr_dat [31:0] $end
$var wire 4 D ma_we [3:0] $end
$var wire 32 E ma_res_dat [31:0] $end
$var wire 32 F ma_rd_dat [31:0] $end
$var wire 32 G immediate [31:0] $end
$var wire 1 H i_clk_n $end
$var wire 1 I hz_rsb $end
$var wire 1 J hz_rsa $end
$var wire 7 K funct7 [6:0] $end
$var wire 3 L funct3 [2:0] $end
$var wire 1 M d_wr $end
$var wire 1 N d_rd $end
$var wire 32 O csr_wr_data [31:0] $end
$var wire 32 P csr_rd_data [31:0] $end
$var wire 1 Q branch_en $end
$var wire 1 R alu_pc $end
$var wire 32 S alu_out [31:0] $end
$var wire 1 T alu_imm $end
$var wire 1 U alu_en $end
$var wire 32 V alu_b_mux [31:0] $end
$var wire 32 W alu_a_mux [31:0] $end
$var reg 1 X ex_alu_en $end
$var reg 1 Y ex_alu_imm $end
$var reg 1 Z ex_alu_pc $end
$var reg 3 [ ex_funct3 [2:0] $end
$var reg 1 \ ex_funct7_5 $end
$var reg 32 ] ex_imm [31:0] $end
$var reg 1 ^ ex_ma_rd $end
$var reg 1 _ ex_ma_wr $end
$var reg 5 ` ex_opcode [4:0] $end
$var reg 32 a ex_pc [31:0] $end
$var reg 32 b ex_ret [31:0] $end
$var reg 5 c ex_rsa [4:0] $end
$var reg 32 d ex_rsa_d [31:0] $end
$var reg 32 e ex_rsb_d [31:0] $end
$var reg 1 f ex_system $end
$var reg 1 g ex_wb_en $end
$var reg 2 h ex_wb_mux [1:0] $end
$var reg 5 i ex_wb_reg [4:0] $end
$var reg 1 j hz_branch $end
$var reg 32 k id_ir [31:0] $end
$var reg 32 l id_pc [31:0] $end
$var reg 32 m id_ret [31:0] $end
$var reg 32 n if_pc [31:0] $end
$var reg 3 o ma_funct3 [2:0] $end
$var reg 1 p ma_rd $end
$var reg 32 q ma_res [31:0] $end
$var reg 32 r ma_ret [31:0] $end
$var reg 32 s ma_rsb_d [31:0] $end
$var reg 1 t ma_wb_en $end
$var reg 2 u ma_wb_mux [1:0] $end
$var reg 5 v ma_wb_reg [4:0] $end
$var reg 1 w ma_wr $end
$var reg 32 x wb_wb_d [31:0] $end
$var reg 1 y wb_wb_en $end
$var reg 5 z wb_wb_reg [4:0] $end
$scope module alu_i $end
$var wire 1 X i_alu_en $end
$var wire 1 Y i_alu_imm $end
$var wire 3 { i_funct3 [2:0] $end
$var wire 1 \ i_funct7_5 $end
$var wire 32 | i_in_a [31:0] $end
$var wire 32 } i_in_b [31:0] $end
$var wire 32 ~ logic_and [31:0] $end
$var wire 32 !" logic_or [31:0] $end
$var wire 32 "" logic_xor [31:0] $end
$var wire 32 #" o_alu_out [31:0] $end
$var wire 1 $" op_sll $end
$var wire 1 %" op_sra $end
$var wire 1 &" op_srl $end
$var wire 1 '" op_subtract $end
$var wire 32 (" shift_sll [31:0] $end
$var wire 32 )" shift_sra [31:0] $end
$var wire 32 *" shift_srl [31:0] $end
$var wire 32 +" shift_combined [31:0] $end
$var wire 5 ," shift_amount [4:0] $end
$var wire 32 -" mux_67 [31:0] $end
$var wire 32 ." mux_47 [31:0] $end
$var wire 32 /" mux_45 [31:0] $end
$var wire 32 0" mux_23 [31:0] $end
$var wire 32 1" mux_07 [31:0] $end
$var wire 32 2" mux_03 [31:0] $end
$var wire 32 3" mux_01 [31:0] $end
$var wire 32 4" comp_unsigned [31:0] $end
$var wire 32 5" comp_signed [31:0] $end
$var wire 32 6" adder_out [31:0] $end
$var wire 32 7" adder_in_b [31:0] $end
$var reg 32 8" shift_mask [31:0] $end
$var reg 32 9" shift_out [31:0] $end
$upscope $end
$scope module branch_i $end
$var wire 1 :" branch_enable $end
$var wire 32 ;" i_dat_a [31:0] $end
$var wire 32 <" i_dat_b [31:0] $end
$var wire 3 =" i_funct3 [2:0] $end
$var wire 5 >" i_opcode [4:0] $end
$var wire 1 Q o_branch_en $end
$var wire 1 ?" op_jump $end
$var wire 1 @" op_branch $end
$var wire 1 A" lower_u $end
$var wire 1 B" lower $end
$var wire 1 C" equal $end
$var reg 1 D" condition $end
$upscope $end
$scope module csr_i $end
$var wire 32 E" clr_data [31:0] $end
$var wire 12 F" i_adr [11:0] $end
$var wire 1 * i_clk $end
$var wire 1 " i_clr $end
$var wire 1 # i_rd $end
$var wire 1 $ i_set $end
$var wire 1 % i_wr $end
$var wire 32 G" i_wr_data [31:0] $end
$var wire 32 H" o_rd_data [31:0] $end
$var wire 32 I" set_data [31:0] $end
$var wire 1 J" write_enable $end
$var wire 32 K" write_data [31:0] $end
$var reg 32 L" read_data [31:0] $end
$var reg 32 M" reg_200 [31:0] $end
$var reg 32 N" reg_800 [31:0] $end
$var reg 32 O" reg_F00 [31:0] $end
$upscope $end
$scope module decoder_i $end
$var wire 1 P" alu_en $end
$var wire 1 Q" alu_pc $end
$var wire 1 R" format_b $end
$var wire 1 S" format_i $end
$var wire 1 T" format_j $end
$var wire 1 U" format_r $end
$var wire 1 V" format_s $end
$var wire 1 W" format_u $end
$var wire 1 X" hz_rsb $end
$var wire 32 Y" i_opcode_in [31:0] $end
$var wire 1 Z" ma_rd $end
$var wire 1 [" ma_wr $end
$var wire 1 U o_alu_en $end
$var wire 1 T o_alu_imm $end
$var wire 1 R o_alu_pc $end
$var wire 3 \" o_funct3 [2:0] $end
$var wire 7 ]" o_funct7 [6:0] $end
$var wire 1 J o_hz_rsa $end
$var wire 1 I o_hz_rsb $end
$var wire 32 ^" o_immediate [31:0] $end
$var wire 1 N o_ma_rd $end
$var wire 1 M o_ma_wr $end
$var wire 5 _" o_opcode [4:0] $end
$var wire 5 `" o_rd [4:0] $end
$var wire 5 a" o_rsa [4:0] $end
$var wire 5 b" o_rsb [4:0] $end
$var wire 1 8 o_system $end
$var wire 1 6 o_wb_en $end
$var wire 2 c" o_wb_mux [1:0] $end
$var wire 1 d" opcode_valid $end
$var wire 5 e" rsa [4:0] $end
$var wire 1 f" wb_en $end
$var wire 2 g" wb_mux [1:0] $end
$var wire 5 h" rsb [4:0] $end
$var wire 5 i" rd [4:0] $end
$var wire 5 j" opcode [4:0] $end
$var wire 1 k" op_system $end
$var wire 1 l" op_store $end
$var wire 1 m" op_op_imm $end
$var wire 1 n" op_op $end
$var wire 1 o" op_lui $end
$var wire 1 p" op_load $end
$var wire 1 q" op_jalr $end
$var wire 1 r" op_jal $end
$var wire 1 s" op_branch $end
$var wire 1 t" op_auipc $end
$var wire 32 u" immediate_u [31:0] $end
$var wire 32 v" immediate_s [31:0] $end
$var wire 32 w" immediate_mux [31:0] $end
$var wire 32 x" immediate_j [31:0] $end
$var wire 32 y" immediate_i [31:0] $end
$var wire 32 z" immediate_b [31:0] $end
$var wire 1 {" hz_rsa $end
$var wire 7 |" funct7 [6:0] $end
$var wire 3 }" funct3 [2:0] $end
$var wire 1 ~" alu_imm $end
$upscope $end
$scope module memory_i $end
$var wire 32 !# data_rd_short [31:0] $end
$var wire 32 "# data_rd_signed [31:0] $end
$var wire 32 ## data_wr_s [31:0] $end
$var wire 32 $# i_data_rd [31:0] $end
$var wire 32 %# i_data_wr [31:0] $end
$var wire 2 &# i_length [1:0] $end
$var wire 2 '# i_shift [1:0] $end
$var wire 1 (# i_signed_rd $end
$var wire 32 )# o_data_rd [31:0] $end
$var wire 32 *# o_data_wr [31:0] $end
$var wire 32 +# sign_extension [31:0] $end
$var wire 1 ,# sign_bit $end
$var wire 4 -# o_we [3:0] $end
$var reg 32 .# data_rd_shift [31:0] $end
$var reg 32 /# data_wr_shift [31:0] $end
$var reg 32 0# length_mask [31:0] $end
$var reg 4 1# we_lenght [3:0] $end
$var reg 4 2# we_shifted [3:0] $end
$upscope $end
$scope module regs_i $end
$var wire 5 3# i_addr_rd_a [4:0] $end
$var wire 5 4# i_addr_rd_b [4:0] $end
$var wire 5 5# i_addr_wr [4:0] $end
$var wire 1 H i_clk $end
$var wire 32 6# i_dat_wr [31:0] $end
$var wire 1 y i_we $end
$var wire 32 7# o_dat_rd_a [31:0] $end
$var wire 32 8# o_dat_rd_b [31:0] $end
$var reg 32 9# dat_rd_a [31:0] $end
$var reg 32 :# dat_rd_b [31:0] $end
$scope begin $ivl_for_loop0 $end
$var integer 32 ;# i [31:0] $end
$upscope $end
$upscope $end
$upscope $end
$upscope $end
$enddefinitions $end
#0
$dumpvars
b100000 ;#
bx :#
bx 9#
bx 8#
bx 7#
bx 6#
bx 5#
bx 4#
bx 3#
bx 2#
bx 1#
bx 0#
bx /#
b0 .#
bx -#
0,#
b0 +#
bx *#
b0 )#
x(#
bx '#
bx &#
bx %#
b0 $#
bx ##
b0 "#
b0 !#
x~"
bx }"
bx |"
x{"
bx0 z"
bx y"
bx0 x"
bx w"
bx v"
bx000000000000 u"
xt"
xs"
xr"
xq"
xp"
xo"
xn"
xm"
xl"
xk"
bx j"
bx i"
bx h"
bx g"
xf"
bx e"
xd"
bx c"
bx b"
bx a"
bx `"
bx _"
bx ^"
bx ]"
bx \"
x["
xZ"
bx Y"
xX"
xW"
xV"
xU"
xT"
xS"
xR"
xQ"
xP"
b0 O"
b0 N"
b0 M"
b0 L"
bx K"
xJ"
bx I"
b0 H"
bx G"
bx F"
b0 E"
xD"
xC"
xB"
xA"
x@"
x?"
bx >"
bx ="
bx <"
bx ;"
x:"
bx 9"
bx 8"
bx 7"
bx 6"
b0x 5"
b0x 4"
bx 3"
bx 2"
bx 1"
b0x 0"
bx /"
bx ."
bx -"
bx ,"
bx +"
bx *"
bx )"
bx ("
x'"
x&"
x%"
x$"
bx #"
bx ""
bx !"
bx ~
bx }
bx |
bx {
bx z
xy
bx x
xw
bx v
bx u
xt
bx s
bx r
bx q
xp
bx o
bx n
bx m
bx l
bx k
xj
bx i
bx h
xg
xf
bx e
bx d
bx c
bx b
bx a
bx `
x_
x^
bx ]
x\
bx [
xZ
xY
xX
bx W
bx V
xU
xT
bx S
xR
xQ
b0 P
bx O
xN
xM
bx L
bx K
xJ
xI
1H
bx G
b0 F
bx E
bx D
bx C
bx B
bx A
bx @
bx ?
bx >
bx =
bx <
bx ;
bx :
bx 9
x8
bx 7
x6
bx 5
bx 4
x3
bx 2
bx 1
x0
1/
1.
1-
bx ,
b0 +
0*
x)
x(
x'
x&
x%
x$
x#
x"
1!
$end
#1
b0 G
b0 ^"
b0 w"
0)
b0 E
1S"
0'
b0 S
b0 #"
b0 1"
0J"
b0 )"
1J
1{"
0(
06
0f"
b0 2"
b0 ."
b0 K"
b0 +"
b0 8"
b100 ?
b0 *"
b0 ("
b1 D
b1 -#
b1 2#
b0 A
0N
0Z"
0M
0["
0I
0X"
0U
0P"
0W"
0R
0Q"
b0 <
b0 a"
b0 3#
b0 e"
0d"
b0 3"
b0 /"
b0 -"
0%
0$
0"
b0 ,"
0Q
0:"
b0 6"
b0 7"
b0 0"
b0 ""
b0 !"
b0 ~
b0 9"
b0 I"
b0 4
b0 1
b1 1#
b11111111 0#
b0 C
b0 *#
b0 /#
b1 5
b1 c"
b1 g"
1p"
0m"
0t"
0V"
0l"
1T
1~"
0U"
0n"
0o"
0R"
0s"
0q"
0T"
0r"
08
0k"
b0 @
b0 _"
b0 j"
b0 :
b0 b"
b0 4#
b0 h"
b0 =
b0 `"
b0 i"
b0 L
b0 \"
b0 }"
b0 K
b0 ]"
b0 |"
b0 u"
b0 x"
b0 z"
b0 v"
b0 y"
0&
0#
0'"
0%"
0&"
0$"
0?"
b0 F"
b0 5"
b0 4"
b0 V
b0 }
1D"
b0 W
b0 |
b0 O
b0 G"
03
00
b0 &#
1(#
b0 7
b0 '#
b0 B
b0 ##
0j
b100 >
b0 2
b0 n
b0 k
b0 Y"
b0 l
b0 m
b0 c
0f
0g
b0 h
b0 i
0^
0_
0X
0Y
0Z
0\
b0 [
b0 {
b0 ="
0@"
b0 `
b0 >"
b0 b
b0 a
b0 ]
1C"
0B"
0A"
b0 e
b0 <"
b0 d
b0 ;"
0t
b0 u
b0 v
0p
0w
b0 o
b0 r
b0 q
b0 s
b0 %#
0y
b0 z
b0 5#
b0 x
b0 6#
0H
1*
#2
b0 9
b0 8#
b0 :#
b0 ;
b0 7#
b0 9#
b10000000000000001101111 ,
1H
0*
#3
0H
1*
#4
1H
0*
#5
0H
1*
#6
1H
0*
#7
0H
1*
#8
1H
0*
#9
0H
1*
#10
1H
0*
0-
#11
0S"
1R
1Q"
b100 G
b100 ^"
b100 w"
16
1f"
0J
0{"
1d"
b10 5
b10 c"
b10 g"
0p"
1T"
1r"
b11011 @
b11011 _"
b11011 j"
b100 :
b100 b"
b100 4#
b100 h"
b10000000000000000000000 u"
b100 x"
b100 y"
b1000 ?
b1 h
1Y
b10000000000000001101111 k
b10000000000000001101111 Y"
b100 m
b1000 >
b100 2
b100 n
0H
1*
#12
b10010011 ,
1H
0*
#13
16
1f"
1d"
b100 E
b100 S
b100 #"
b100 1"
1S"
b100 ."
b100 2"
b1111111111111111111111111111 8"
0R
0Q"
b0 G
b0 ^"
b0 w"
b100 /"
b100 -"
b100 3"
b11100 ,"
1U
1P"
1J
1{"
b0 5
b0 c"
b0 g"
1Q
1:"
b100 ""
b100 !"
b100 6"
b100 7"
b1 0"
b100 ?
1m"
0T"
0r"
b100 @
b100 _"
b100 j"
b0 :
b0 b"
b0 4#
b0 h"
b1 =
b1 `"
b1 i"
b0 u"
b0 x"
b100000000000 z"
b1 v"
b0 y"
1?"
b1 5"
b1 4"
b100 V
b100 }
b100 F"
b1100 >
b1000 2
b1000 n
b10010011 k
b10010011 Y"
b100 l
b1000 m
1g
b10 h
1Z
b11011 `
b11011 >"
b100 b
b100 ]
b1 u
0H
1*
#14
b100010011 ,
1H
0*
#15
b0 E
b0 S
b0 #"
b0 1"
b0 ."
b0 2"
b0 8"
b1000 ?
b0 /"
b0 -"
b0 3"
b0 ,"
06
0f"
0Q
0:"
b0 ""
b0 !"
b0 6"
b0 7"
b0 0"
0U
0P"
0d"
b100 7
0?"
b0 5"
b0 4"
b0 V
b0 }
b0 F"
b1 5
b1 c"
b1 g"
1p"
0m"
b0 @
b0 _"
b0 j"
b0 =
b0 `"
b0 i"
b0 z"
b0 v"
1t
b10 u
b100 r
b100 q
0g
b0 h
0Y
0Z
b0 `
b0 >"
b0 b
b0 ]
b0 k
b0 Y"
b1000 l
b1100 m
1j
b1000 >
b100 2
b100 n
0H
1*
#16
b10010011 ,
1H
0*
#17
16
1f"
1U
1P"
1d"
b1100 ?
b0 5
b0 c"
b0 g"
0p"
1m"
b100 @
b100 _"
b100 j"
b1 =
b1 `"
b1 i"
b100000000000 z"
b1 v"
b0 7
b1100 >
b1000 2
b1000 n
0j
b10010011 k
b10010011 Y"
b100 l
b1000 m
0t
b0 u
b0 r
b0 q
1y
b100 x
b100 6#
0H
1*
#18
b100010011 ,
1H
0*
#19
b10 =
b10 `"
b10 i"
b10 z"
b10 v"
b10000 ?
0y
b0 x
b0 6#
1g
b1 i
1X
1Y
b100 `
b100 >"
b1000 b
b100 a
b100010011 k
b100010011 Y"
b1000 l
b1100 m
b10000 >
b1100 2
b1100 n
0H
1*
#20
b110010011 ,
1H
0*
#21
b10100 ?
b11 =
b11 `"
b11 i"
b100000000010 z"
b11 v"
b10100 >
b10000 2
b10000 n
b110010011 k
b110010011 Y"
b1100 l
b10000 m
b10 i
b1100 b
b1000 a
1t
b1 v
b1000 r
0H
1*
#22
b1000010011 ,
1H
0*
#23
b100 =
b100 `"
b100 i"
b100 z"
b100 v"
b11000 ?
1y
b1 z
b1 5#
b10 v
b1100 r
b11 i
b10000 b
b1100 a
b1000010011 k
b1000010011 Y"
b10000 l
b10100 m
b11000 >
b10100 2
b10100 n
0H
1*
#24
b1010010011 ,
1H
0*
#25
b11100 ?
b101 =
b101 `"
b101 i"
b100000000100 z"
b101 v"
b11100 >
b11000 2
b11000 n
b1010010011 k
b1010010011 Y"
b10100 l
b11000 m
b100 i
b10100 b
b10000 a
b11 v
b10000 r
b10 z
b10 5#
0H
1*
#26
b1100010011 ,
1H
0*
#27
b110 =
b110 `"
b110 i"
b110 z"
b110 v"
b100000 ?
b11 z
b11 5#
b100 v
b10100 r
b101 i
b11000 b
b10100 a
b1100010011 k
b1100010011 Y"
b11000 l
b11100 m
b100000 >
b11100 2
b11100 n
0H
1*
#28
b1110010011 ,
1H
0*
#29
b100100 ?
b111 =
b111 `"
b111 i"
b100000000110 z"
b111 v"
b100100 >
b100000 2
b100000 n
b1110010011 k
b1110010011 Y"
b11100 l
b100000 m
b110 i
b11100 b
b11000 a
b101 v
b11000 r
b100 z
b100 5#
0H
1*
#30
b10000010011 ,
1H
0*
#31
b1000 =
b1000 `"
b1000 i"
b1000 z"
b1000 v"
b101000 ?
b101 z
b101 5#
b110 v
b11100 r
b111 i
b100000 b
b11100 a
b10000010011 k
b10000010011 Y"
b100000 l
b100100 m
b101000 >
b100100 2
b100100 n
0H
1*
#32
b10010010011 ,
1H
0*
#33
b101100 ?
b1001 =
b1001 `"
b1001 i"
b100000001000 z"
b1001 v"
b101100 >
b101000 2
b101000 n
b10010010011 k
b10010010011 Y"
b100100 l
b101000 m
b1000 i
b100100 b
b100000 a
b111 v
b100000 r
b110 z
b110 5#
0H
1*
#34
b10100010011 ,
1H
0*
#35
b1010 =
b1010 `"
b1010 i"
b1010 z"
b1010 v"
b110000 ?
b111 z
b111 5#
b1000 v
b100100 r
b1001 i
b101000 b
b100100 a
b10100010011 k
b10100010011 Y"
b101000 l
b101100 m
b110000 >
b101100 2
b101100 n
0H
1*
#36
b10110010011 ,
1H
0*
#37
b110100 ?
b1011 =
b1011 `"
b1011 i"
b100000001010 z"
b1011 v"
b110100 >
b110000 2
b110000 n
b10110010011 k
b10110010011 Y"
b101100 l
b110000 m
b1010 i
b101100 b
b101000 a
b1001 v
b101000 r
b1000 z
b1000 5#
0H
1*
#38
b11000010011 ,
1H
0*
#39
b1100 =
b1100 `"
b1100 i"
b1100 z"
b1100 v"
b111000 ?
b1001 z
b1001 5#
b1010 v
b101100 r
b1011 i
b110000 b
b101100 a
b11000010011 k
b11000010011 Y"
b110000 l
b110100 m
b111000 >
b110100 2
b110100 n
0H
1*
#40
b11010010011 ,
1H
0*
#41
b111100 ?
b1101 =
b1101 `"
b1101 i"
b100000001100 z"
b1101 v"
b111100 >
b111000 2
b111000 n
b11010010011 k
b11010010011 Y"
b110100 l
b111000 m
b1100 i
b110100 b
b110000 a
b1011 v
b110000 r
b1010 z
b1010 5#
0H
1*
#42
b11100010011 ,
1H
0*
#43
b1110 =
b1110 `"
b1110 i"
b1110 z"
b1110 v"
b1000000 ?
b1011 z
b1011 5#
b1100 v
b110100 r
b1101 i
b111000 b
b110100 a
b11100010011 k
b11100010011 Y"
b111000 l
b111100 m
b1000000 >
b111100 2
b111100 n
0H
1*
#44
b11110010011 ,
1H
0*
#45
b1000100 ?
b1111 =
b1111 `"
b1111 i"
b100000001110 z"
b1111 v"
b1000100 >
b1000000 2
b1000000 n
b11110010011 k
b11110010011 Y"
b111100 l
b1000000 m
b1110 i
b111100 b
b111000 a
b1101 v
b111000 r
b1100 z
b1100 5#
0H
1*
#46
b100000010011 ,
1H
0*
#47
b10000 =
b10000 `"
b10000 i"
b10000 z"
b10000 v"
b1001000 ?
b1101 z
b1101 5#
b1110 v
b111100 r
b1111 i
b1000000 b
b111100 a
b100000010011 k
b100000010011 Y"
b1000000 l
b1000100 m
b1001000 >
b1000100 2
b1000100 n
0H
1*
#48
b100010010011 ,
1H
0*
#49
b1001100 ?
b10001 =
b10001 `"
b10001 i"
b100000010000 z"
b10001 v"
b1001100 >
b1001000 2
b1001000 n
b100010010011 k
b100010010011 Y"
b1000100 l
b1001000 m
b10000 i
b1000100 b
b1000000 a
b1111 v
b1000000 r
b1110 z
b1110 5#
0H
1*
#50
b100100010011 ,
1H
0*
#51
b10010 =
b10010 `"
b10010 i"
b10010 z"
b10010 v"
b1010000 ?
b1111 z
b1111 5#
b10000 v
b1000100 r
b10001 i
b1001000 b
b1000100 a
b100100010011 k
b100100010011 Y"
b1001000 l
b1001100 m
b1010000 >
b1001100 2
b1001100 n
0H
1*
#52
b100110010011 ,
1H
0*
#53
b1010100 ?
b10011 =
b10011 `"
b10011 i"
b100000010010 z"
b10011 v"
b1010100 >
b1010000 2
b1010000 n
b100110010011 k
b100110010011 Y"
b1001100 l
b1010000 m
b10010 i
b1001100 b
b1001000 a
b10001 v
b1001000 r
b10000 z
b10000 5#
0H
1*
#54
b101000010011 ,
1H
0*
#55
b10100 =
b10100 `"
b10100 i"
b10100 z"
b10100 v"
b1011000 ?
b10001 z
b10001 5#
b10010 v
b1001100 r
b10011 i
b1010000 b
b1001100 a
b101000010011 k
b101000010011 Y"
b1010000 l
b1010100 m
b1011000 >
b1010100 2
b1010100 n
0H
1*
#56
b101010010011 ,
1H
0*
#57
b1011100 ?
b10101 =
b10101 `"
b10101 i"
b100000010100 z"
b10101 v"
b1011100 >
b1011000 2
b1011000 n
b101010010011 k
b101010010011 Y"
b1010100 l
b1011000 m
b10100 i
b1010100 b
b1010000 a
b10011 v
b1010000 r
b10010 z
b10010 5#
0H
1*
#58
b101100010011 ,
1H
0*
#59
b10110 =
b10110 `"
b10110 i"
b10110 z"
b10110 v"
b1100000 ?
b10011 z
b10011 5#
b10100 v
b1010100 r
b10101 i
b1011000 b
b1010100 a
b101100010011 k
b101100010011 Y"
b1011000 l
b1011100 m
b1100000 >
b1011100 2
b1011100 n
0H
1*
#60
b101110010011 ,
1H
0*
#61
b1100100 ?
b10111 =
b10111 `"
b10111 i"
b100000010110 z"
b10111 v"
b1100100 >
b1100000 2
b1100000 n
b101110010011 k
b101110010011 Y"
b1011100 l
b1100000 m
b10110 i
b1011100 b
b1011000 a
b10101 v
b1011000 r
b10100 z
b10100 5#
0H
1*
#62
b110000010011 ,
1H
0*
#63
b11000 =
b11000 `"
b11000 i"
b11000 z"
b11000 v"
b1101000 ?
b10101 z
b10101 5#
b10110 v
b1011100 r
b10111 i
b1100000 b
b1011100 a
b110000010011 k
b110000010011 Y"
b1100000 l
b1100100 m
b1101000 >
b1100100 2
b1100100 n
0H
1*
#64
b110010010011 ,
1H
0*
#65
b1101100 ?
b11001 =
b11001 `"
b11001 i"
b100000011000 z"
b11001 v"
b1101100 >
b1101000 2
b1101000 n
b110010010011 k
b110010010011 Y"
b1100100 l
b1101000 m
b11000 i
b1100100 b
b1100000 a
b10111 v
b1100000 r
b10110 z
b10110 5#
0H
1*
#66
b110100010011 ,
1H
0*
#67
b11010 =
b11010 `"
b11010 i"
b11010 z"
b11010 v"
b1110000 ?
b10111 z
b10111 5#
b11000 v
b1100100 r
b11001 i
b1101000 b
b1100100 a
b110100010011 k
b110100010011 Y"
b1101000 l
b1101100 m
b1110000 >
b1101100 2
b1101100 n
0H
1*
#68
b110110010011 ,
1H
0*
#69
b1110100 ?
b11011 =
b11011 `"
b11011 i"
b100000011010 z"
b11011 v"
b1110100 >
b1110000 2
b1110000 n
b110110010011 k
b110110010011 Y"
b1101100 l
b1110000 m
b11010 i
b1101100 b
b1101000 a
b11001 v
b1101000 r
b11000 z
b11000 5#
0H
1*
#70
b111000010011 ,
1H
0*
#71
b11100 =
b11100 `"
b11100 i"
b11100 z"
b11100 v"
b1111000 ?
b11001 z
b11001 5#
b11010 v
b1101100 r
b11011 i
b1110000 b
b1101100 a
b111000010011 k
b111000010011 Y"
b1110000 l
b1110100 m
b1111000 >
b1110100 2
b1110100 n
0H
1*
#72
b111010010011 ,
1H
0*
#73
b1111100 ?
b11101 =
b11101 `"
b11101 i"
b100000011100 z"
b11101 v"
b1111100 >
b1111000 2
b1111000 n
b111010010011 k
b111010010011 Y"
b1110100 l
b1111000 m
b11100 i
b1110100 b
b1110000 a
b11011 v
b1110000 r
b11010 z
b11010 5#
0H
1*
#74
b111100010011 ,
1H
0*
#75
b11110 =
b11110 `"
b11110 i"
b11110 z"
b11110 v"
b10000000 ?
b11011 z
b11011 5#
b11100 v
b1110100 r
b11101 i
b1111000 b
b1110100 a
b111100010011 k
b111100010011 Y"
b1111000 l
b1111100 m
b10000000 >
b1111100 2
b1111100 n
0H
1*
#76
b111110010011 ,
1H
0*
#77
b10000100 ?
b11111 =
b11111 `"
b11111 i"
b100000011110 z"
b11111 v"
b10000100 >
b10000000 2
b10000000 n
b111110010011 k
b111110010011 Y"
b1111100 l
b10000000 m
b11110 i
b1111100 b
b1111000 a
b11101 v
b1111000 r
b11100 z
b11100 5#
0H
1*
#78
b10011 ,
1H
0*
#79
b0 =
b0 `"
b0 i"
b0 z"
b0 v"
b10001000 ?
b11101 z
b11101 5#
b11110 v
b1111100 r
b11111 i
b10000000 b
b1111100 a
b10011 k
b10011 Y"
b10000000 l
b10000100 m
b10001000 >
b10000100 2
b10000100 n
0H
1*
#80
1H
0*
#81
b10001100 ?
b10001100 >
b10001000 2
b10001000 n
b10000100 l
b10001000 m
b0 i
b10000100 b
b10000000 a
b11111 v
b10000000 r
b11110 z
b11110 5#
0H
1*
#82
b111111110001000010110111 ,
1H
0*
#83
0S"
0J
0{"
b111111110001000000000000 G
b111111110001000000000000 ^"
b111111110001000000000000 w"
0U
0P"
1W"
0m"
1o"
b1101 @
b1101 _"
b1101 j"
b1111 :
b1111 b"
b1111 4#
b1111 h"
b1 =
b1 `"
b1 i"
b1 L
b1 \"
b1 }"
b111111110001000000000000 u"
b11110001100000001110 x"
b100000000000 z"
b1 v"
b1111 y"
b10010000 ?
b11111 z
b11111 5#
b0 v
b10000100 r
b10001000 b
b10000100 a
b111111110001000010110111 k
b111111110001000010110111 Y"
b10001000 l
b10001100 m
b10010000 >
b10001100 2
b10001100 n
0H
1*
#84
b11110000000000001000000010010011 ,
1H
0*
#85
1)
b111111110001000000000000 E
1'
b111111110001000000000000 S
b111111110001000000000000 #"
b111111110001000000000000 1"
1S"
b111111110001000000000000 ."
b111111110001000000000000 2"
1J
1{"
b111111110001000000000000 /"
b111111110001000000000000 -"
b111111110001000000000000 3"
1U
1P"
0W"
b1 <
b1 a"
b1 3#
b1 e"
b11111111111111111111111100000000 G
b11111111111111111111111100000000 ^"
b11111111111111111111111100000000 w"
b111111110001000000000000 ""
b111111110001000000000000 !"
b111111110001000000000000 6"
b111111110001000000000000 7"
b1 0"
b10010100 ?
1m"
0o"
b100 @
b100 _"
b100 j"
b0 :
b0 b"
b0 4#
b0 h"
b0 L
b0 \"
b0 }"
b1111000 K
b1111000 ]"
b1111000 |"
b11110000000000001000000000000000 u"
b11111111111100001000011100000000 x"
b11111111111111111111111100000000 z"
b11111111111111111111111100000001 v"
b11111111111111111111111100000000 y"
0D"
b1 5"
b1 4"
b111111110001000000000000 V
b111111110001000000000000 }
b10010100 >
b10010000 2
b10010000 n
b11110000000000001000000010010011 k
b11110000000000001000000010010011 Y"
b10001100 l
b10010000 m
b1 i
0X
b1 [
b1 {
b1 ="
b1101 `
b1101 >"
b10001100 b
b10001000 a
b111111110001000000000000 ]
b10001000 r
b0 z
b0 5#
0H
1*
#86
b11110000111100001100011100010011 ,
1H
0*
#87
b0 E
b0 S
b0 #"
b0 1"
b0 ."
b0 2"
b11 D
b11 -#
b11 2#
b0 /"
b0 -"
b0 3"
b1111111111111111 0#
b11 1#
b111111110001000000000000 7
b0 ""
b0 !"
b0 6"
b0 7"
b0 0"
b1 &#
1D"
b0 5"
b0 4"
b0 V
b0 }
b1 v
b1 o
b10001100 r
b111111110001000000000000 q
0g
b0 i
0Y
b0 [
b0 {
b0 ="
b0 `
b0 >"
b0 b
b0 a
b0 ]
0H
1*
#88
1H
0*
#89
b1 D
b1 -#
b1 2#
b1 1#
b11111111 0#
b0 7
b0 &#
0t
b0 v
b0 o
b0 r
b0 q
b1 z
b1 5#
b111111110001000000000000 x
b111111110001000000000000 6#
0H
1*
#90
1H
0*
#91
0)
0'
0y
b0 z
b0 5#
b0 x
b0 6#
0H
1*
#92
b111111110001000000000000 ;
b111111110001000000000000 7#
b111111110001000000000000 9#
1H
0*
