hdl/cpu/cpu_log.vcd
$date
	Sun Jun 19 18:10:24 2022
$end
$version
	Icarus Verilog
$end
$timescale
	1s
$end
$scope module cpu_tb $end
$scope module DUT $end
$var wire 1 ! clk_ce $end
$var wire 1 " csr_clr $end
$var wire 1 # csr_rd $end
$var wire 1 $ csr_set $end
$var wire 1 % csr_wr $end
$var wire 1 & csr_wr_en $end
$var wire 1 ' hz_dat_rsa $end
$var wire 1 ( hz_dat_rsb $end
$var wire 1 ) hz_data $end
$var wire 1 * i_clk $end
$var wire 32 + i_data_in_d [31:0] $end
$var wire 32 , i_data_in_i [31:0] $end
$var wire 1 - i_rst $end
$var wire 1 . i_valid_d $end
$var wire 1 / i_valid_i $end
$var wire 1 0 ma_rd_en $end
$var wire 4 1 ma_wr_en [3:0] $end
$var wire 32 2 o_addr_i [31:0] $end
$var wire 1 3 o_rd_d $end
$var wire 4 4 o_we_d [3:0] $end
$var wire 2 5 wb_mux [1:0] $end
$var wire 1 6 wb_en $end
$var wire 32 7 wb_dat_mux [31:0] $end
$var wire 1 8 system $end
$var wire 32 9 rsb_d [31:0] $end
$var wire 5 : rsb [4:0] $end
$var wire 32 ; rsa_d [31:0] $end
$var wire 5 < rsa [4:0] $end
$var wire 5 = rd [4:0] $end
$var wire 32 > pc_next [31:0] $end
$var wire 32 ? pc_mux [31:0] $end
$var wire 5 @ opcode [4:0] $end
$var wire 32 A o_data_out_d [31:0] $end
$var wire 32 B o_addr_d [31:0] $end
$var wire 32 C ma_wr_dat [31:0] $end
$var wire 4 D ma_we [3:0] $end
$var wire 32 E ma_res_dat [31:0] $end
$var wire 32 F ma_rd_dat [31:0] $end
$var wire 32 G immediate [31:0] $end
$var wire 1 H hz_rsb $end
$var wire 1 I hz_rsa $end
$var wire 7 J funct7 [6:0] $end
$var wire 3 K funct3 [2:0] $end
$var wire 1 L d_wr $end
$var wire 1 M d_rd $end
$var wire 32 N csr_wr_data [31:0] $end
$var wire 32 O csr_rd_data [31:0] $end
$var wire 1 P clk_n $end
$var wire 1 Q branch_en $end
$var wire 1 R alu_pc $end
$var wire 32 S alu_out [31:0] $end
$var wire 1 T alu_imm $end
$var wire 1 U alu_en $end
$var wire 1 V alu_busy $end
$var wire 32 W alu_b_mux [31:0] $end
$var wire 32 X alu_a_mux [31:0] $end
$var reg 1 Y ex_alu_en $end
$var reg 1 Z ex_alu_imm $end
$var reg 1 [ ex_alu_pc $end
$var reg 3 \ ex_funct3 [2:0] $end
$var reg 7 ] ex_funct7 [6:0] $end
$var reg 32 ^ ex_imm [31:0] $end
$var reg 1 _ ex_ma_rd $end
$var reg 1 ` ex_ma_wr $end
$var reg 5 a ex_opcode [4:0] $end
$var reg 32 b ex_pc [31:0] $end
$var reg 32 c ex_ret [31:0] $end
$var reg 5 d ex_rsa [4:0] $end
$var reg 32 e ex_rsa_d [31:0] $end
$var reg 32 f ex_rsb_d [31:0] $end
$var reg 1 g ex_system $end
$var reg 1 h ex_wb_en $end
$var reg 2 i ex_wb_mux [1:0] $end
$var reg 5 j ex_wb_reg [4:0] $end
$var reg 1 k hz_branch $end
$var reg 32 l id_ir [31:0] $end
$var reg 32 m id_pc [31:0] $end
$var reg 32 n id_ret [31:0] $end
$var reg 32 o if_pc [31:0] $end
$var reg 3 p ma_funct3 [2:0] $end
$var reg 1 0 ma_rd $end
$var reg 32 q ma_res [31:0] $end
$var reg 32 r ma_ret [31:0] $end
$var reg 32 s ma_rsb_d [31:0] $end
$var reg 1 t ma_wb_en $end
$var reg 2 u ma_wb_mux [1:0] $end
$var reg 5 v ma_wb_reg [4:0] $end
$var reg 1 w ma_wr $end
$var reg 32 x wb_wb_d [31:0] $end
$var reg 1 y wb_wb_en $end
$var reg 5 z wb_wb_reg [4:0] $end
$scope module alu_i $end
$var wire 1 Y i_alu_en $end
$var wire 1 Z i_alu_imm $end
$var wire 1 P i_clk_n $end
$var wire 3 { i_funct3 [2:0] $end
$var wire 7 | i_funct7 [6:0] $end
$var wire 32 } i_in_a [31:0] $end
$var wire 32 ~ i_in_b [31:0] $end
$var wire 32 !" logic_and [31:0] $end
$var wire 32 "" logic_or [31:0] $end
$var wire 32 #" logic_xor [31:0] $end
$var wire 1 $" md_busy $end
$var wire 1 %" md_d_a_signed $end
$var wire 1 &" md_d_b_signed $end
$var wire 1 '" md_d_en $end
$var wire 1 (" md_div_sign $end
$var wire 1 )" md_enable $end
$var wire 1 *" md_m_a_signed $end
$var wire 1 +" md_m_en $end
$var wire 1 ," md_m_sign $end
$var wire 1 -" md_rem_sign $end
$var wire 1 ." md_sign_a $end
$var wire 1 /" md_sign_b $end
$var wire 1 V o_busy $end
$var wire 1 0" op_sll $end
$var wire 1 1" op_sra $end
$var wire 1 2" op_srl $end
$var wire 1 3" op_subtract $end
$var wire 1 4" shift_busy $end
$var wire 32 5" shift_mask [31:0] $end
$var wire 32 6" shift_out [31:0] $end
$var wire 32 7" shift_sll [31:0] $end
$var wire 32 8" shift_sra [31:0] $end
$var wire 32 9" shift_srl [31:0] $end
$var wire 32 :" shift_result [31:0] $end
$var wire 5 ;" shift_amount [4:0] $end
$var wire 32 <" o_alu_out [31:0] $end
$var wire 32 =" mux_67 [31:0] $end
$var wire 32 >" mux_47 [31:0] $end
$var wire 32 ?" mux_45 [31:0] $end
$var wire 32 @" mux_23 [31:0] $end
$var wire 32 A" mux_07 [31:0] $end
$var wire 32 B" mux_03 [31:0] $end
$var wire 32 C" mux_01 [31:0] $end
$var wire 32 D" md_result [31:0] $end
$var wire 32 E" md_mul [31:0] $end
$var wire 64 F" md_m_q [63:0] $end
$var wire 1 G" md_m_busy $end
$var wire 1 H" md_m_b_signed $end
$var wire 32 I" md_in_b [31:0] $end
$var wire 32 J" md_in_a [31:0] $end
$var wire 32 K" md_div [31:0] $end
$var wire 32 L" md_d_sub [31:0] $end
$var wire 1 M" md_d_sign $end
$var wire 32 N" md_d_res [31:0] $end
$var wire 32 O" md_d_rem [31:0] $end
$var wire 32 P" md_d_div [31:0] $end
$var wire 1 Q" md_d_busy $end
$var wire 32 R" md_b [31:0] $end
$var wire 32 S" md_a [31:0] $end
$var wire 32 T" in_b_n [31:0] $end
$var wire 32 U" in_a_n [31:0] $end
$var wire 1 V" funct7_5 $end
$var wire 1 W" funct7_0 $end
$var wire 1 X" div_cmp $end
$var wire 32 Y" comp_u [31:0] $end
$var wire 32 Z" comp [31:0] $end
$var wire 32 [" adder_out [31:0] $end
$var wire 32 \" adder_in_b [31:0] $end
$var reg 64 ]" md_d_a [63:0] $end
$var reg 32 ^" md_d_b [31:0] $end
$var reg 6 _" md_d_cnt [5:0] $end
$var reg 32 `" md_d_q [31:0] $end
$var reg 64 a" md_m_a_reg [63:0] $end
$var reg 32 b" md_m_b_reg [31:0] $end
$var reg 64 c" md_m_mul [63:0] $end
$scope begin genblk1[0] $end
$upscope $end
$scope begin genblk1[1] $end
$upscope $end
$scope begin genblk1[2] $end
$upscope $end
$scope begin genblk1[3] $end
$upscope $end
$scope begin genblk1[4] $end
$upscope $end
$scope begin genblk1[5] $end
$upscope $end
$scope begin genblk1[6] $end
$upscope $end
$scope begin genblk1[7] $end
$upscope $end
$scope begin genblk1[8] $end
$upscope $end
$scope begin genblk1[9] $end
$upscope $end
$scope begin genblk1[10] $end
$upscope $end
$scope begin genblk1[11] $end
$upscope $end
$scope begin genblk1[12] $end
$upscope $end
$scope begin genblk1[13] $end
$upscope $end
$scope begin genblk1[14] $end
$upscope $end
$scope begin genblk1[15] $end
$upscope $end
$scope begin genblk1[16] $end
$upscope $end
$scope begin genblk1[17] $end
$upscope $end
$scope begin genblk1[18] $end
$upscope $end
$scope begin genblk1[19] $end
$upscope $end
$scope begin genblk1[20] $end
$upscope $end
$scope begin genblk1[21] $end
$upscope $end
$scope begin genblk1[22] $end
$upscope $end
$scope begin genblk1[23] $end
$upscope $end
$scope begin genblk1[24] $end
$upscope $end
$scope begin genblk1[25] $end
$upscope $end
$scope begin genblk1[26] $end
$upscope $end
$scope begin genblk1[27] $end
$upscope $end
$scope begin genblk1[28] $end
$upscope $end
$scope begin genblk1[29] $end
$upscope $end
$scope begin genblk1[30] $end
$upscope $end
$scope begin genblk2[0] $end
$upscope $end
$scope begin genblk2[1] $end
$upscope $end
$scope begin genblk2[2] $end
$upscope $end
$scope begin genblk2[3] $end
$upscope $end
$scope begin genblk2[4] $end
$upscope $end
$scope begin genblk2[5] $end
$upscope $end
$scope begin genblk2[6] $end
$upscope $end
$scope begin genblk2[7] $end
$upscope $end
$scope begin genblk2[8] $end
$upscope $end
$scope begin genblk2[9] $end
$upscope $end
$scope begin genblk2[10] $end
$upscope $end
$scope begin genblk2[11] $end
$upscope $end
$scope begin genblk2[12] $end
$upscope $end
$scope begin genblk2[13] $end
$upscope $end
$scope begin genblk2[14] $end
$upscope $end
$scope begin genblk2[15] $end
$upscope $end
$scope begin genblk2[16] $end
$upscope $end
$scope begin genblk2[17] $end
$upscope $end
$scope begin genblk2[18] $end
$upscope $end
$scope begin genblk2[19] $end
$upscope $end
$scope begin genblk2[20] $end
$upscope $end
$scope begin genblk2[21] $end
$upscope $end
$scope begin genblk2[22] $end
$upscope $end
$scope begin genblk2[23] $end
$upscope $end
$scope begin genblk2[24] $end
$upscope $end
$scope begin genblk2[25] $end
$upscope $end
$scope begin genblk2[26] $end
$upscope $end
$scope begin genblk2[27] $end
$upscope $end
$scope begin genblk2[28] $end
$upscope $end
$scope begin genblk2[29] $end
$upscope $end
$scope begin genblk2[30] $end
$upscope $end
$scope begin genblk2[31] $end
$upscope $end
$upscope $end
$scope module branch_i $end
$var wire 1 d" branch_enable $end
$var wire 32 e" i_dat_a [31:0] $end
$var wire 32 f" i_dat_b [31:0] $end
$var wire 3 g" i_funct3 [2:0] $end
$var wire 5 h" i_opcode [4:0] $end
$var wire 1 Q o_branch_en $end
$var wire 1 i" op_jump $end
$var wire 1 j" op_branch $end
$var wire 1 k" lower_u $end
$var wire 1 l" lower $end
$var wire 1 m" equal $end
$var reg 1 n" condition $end
$upscope $end
$scope module csr_i $end
$var wire 32 o" clr_data [31:0] $end
$var wire 12 p" i_adr [11:0] $end
$var wire 1 * i_clk $end
$var wire 1 " i_clr $end
$var wire 1 # i_rd $end
$var wire 1 $ i_set $end
$var wire 1 % i_wr $end
$var wire 32 q" i_wr_data [31:0] $end
$var wire 32 r" o_rd_data [31:0] $end
$var wire 32 s" set_data [31:0] $end
$var wire 1 t" write_enable $end
$var wire 32 u" write_data [31:0] $end
$var reg 32 v" read_data [31:0] $end
$var reg 32 w" reg_200 [31:0] $end
$var reg 32 x" reg_800 [31:0] $end
$var reg 32 y" reg_F00 [31:0] $end
$upscope $end
$scope module decoder_i $end
$var wire 1 z" alu_en $end
$var wire 1 {" alu_pc $end
$var wire 1 |" format_b $end
$var wire 1 }" format_i $end
$var wire 1 ~" format_j $end
$var wire 1 !# format_r $end
$var wire 1 "# format_s $end
$var wire 1 ## format_u $end
$var wire 1 $# hz_rsb $end
$var wire 32 %# i_opcode_in [31:0] $end
$var wire 1 &# ma_rd $end
$var wire 1 '# ma_wr $end
$var wire 1 U o_alu_en $end
$var wire 1 T o_alu_imm $end
$var wire 1 R o_alu_pc $end
$var wire 3 (# o_funct3 [2:0] $end
$var wire 7 )# o_funct7 [6:0] $end
$var wire 1 I o_hz_rsa $end
$var wire 1 H o_hz_rsb $end
$var wire 32 *# o_immediate [31:0] $end
$var wire 1 M o_ma_rd $end
$var wire 1 L o_ma_wr $end
$var wire 5 +# o_opcode [4:0] $end
$var wire 5 ,# o_rd [4:0] $end
$var wire 5 -# o_rsa [4:0] $end
$var wire 5 .# o_rsb [4:0] $end
$var wire 1 8 o_system $end
$var wire 1 6 o_wb_en $end
$var wire 2 /# o_wb_mux [1:0] $end
$var wire 1 0# opcode_valid $end
$var wire 5 1# rsa [4:0] $end
$var wire 1 2# wb_en $end
$var wire 2 3# wb_mux [1:0] $end
$var wire 5 4# rsb [4:0] $end
$var wire 5 5# rd [4:0] $end
$var wire 5 6# opcode [4:0] $end
$var wire 1 7# op_system $end
$var wire 1 8# op_store $end
$var wire 1 9# op_op_imm $end
$var wire 1 :# op_op $end
$var wire 1 ;# op_lui $end
$var wire 1 <# op_load $end
$var wire 1 =# op_jalr $end
$var wire 1 ># op_jal $end
$var wire 1 ?# op_branch $end
$var wire 1 @# op_auipc $end
$var wire 32 A# immediate_u [31:0] $end
$var wire 32 B# immediate_s [31:0] $end
$var wire 32 C# immediate_mux [31:0] $end
$var wire 32 D# immediate_j [31:0] $end
$var wire 32 E# immediate_i [31:0] $end
$var wire 32 F# immediate_b [31:0] $end
$var wire 1 G# hz_rsa $end
$var wire 7 H# funct7 [6:0] $end
$var wire 3 I# funct3 [2:0] $end
$var wire 1 J# alu_imm $end
$upscope $end
$scope module memory_i $end
$var wire 32 K# data_rd_short [31:0] $end
$var wire 32 L# data_rd_signed [31:0] $end
$var wire 32 M# data_wr_s [31:0] $end
$var wire 32 N# i_data_rd [31:0] $end
$var wire 32 O# i_data_wr [31:0] $end
$var wire 2 P# i_length [1:0] $end
$var wire 2 Q# i_shift [1:0] $end
$var wire 1 R# i_signed_rd $end
$var wire 32 S# o_data_rd [31:0] $end
$var wire 32 T# o_data_wr [31:0] $end
$var wire 32 U# sign_extension [31:0] $end
$var wire 1 V# sign_bit $end
$var wire 4 W# o_we [3:0] $end
$var reg 32 X# data_rd_shift [31:0] $end
$var reg 32 Y# data_wr_shift [31:0] $end
$var reg 32 Z# length_mask [31:0] $end
$var reg 4 [# we_lenght [3:0] $end
$var reg 4 \# we_shifted [3:0] $end
$upscope $end
$scope module regs_i $end
$var wire 5 ]# i_addr_rd_a [4:0] $end
$var wire 5 ^# i_addr_rd_b [4:0] $end
$var wire 5 _# i_addr_wr [4:0] $end
$var wire 1 ! i_ce $end
$var wire 1 P i_clk $end
$var wire 32 `# i_dat_wr [31:0] $end
$var wire 1 y i_we $end
$var wire 32 a# o_dat_rd_a [31:0] $end
$var wire 32 b# o_dat_rd_b [31:0] $end
$var reg 32 c# dat_rd_a [31:0] $end
$var reg 32 d# dat_rd_b [31:0] $end
$scope begin $ivl_for_loop0 $end
$var integer 32 e# i [31:0] $end
$upscope $end
$upscope $end
$upscope $end
$upscope $end
$enddefinitions $end
#0
$dumpvars
b100000 e#
bx d#
bx c#
bx b#
bx a#
bx `#
bx _#
bx ^#
bx ]#
bx \#
bx [#
bx Z#
bx Y#
b0 X#
bx W#
0V#
b0 U#
bx T#
b0 S#
xR#
bx Q#
bx P#
bx O#
b0 N#
bx M#
b0 L#
b0 K#
xJ#
bx I#
bx H#
xG#
bx0 F#
bx E#
bx0 D#
bx C#
bx B#
bx000000000000 A#
x@#
x?#
x>#
x=#
x<#
x;#
x:#
x9#
x8#
x7#
bx 6#
bx 5#
bx 4#
bx 3#
x2#
bx 1#
x0#
bx /#
bx .#
bx -#
bx ,#
bx +#
bx *#
bx )#
bx (#
x'#
x&#
bx %#
x$#
x##
x"#
x!#
x~"
x}"
x|"
x{"
xz"
b0 y"
b0 x"
b0 w"
b0 v"
bx u"
xt"
bx s"
b0 r"
bx q"
bx p"
b0 o"
xn"
xm"
xl"
xk"
xj"
xi"
bx h"
bx g"
bx f"
bx e"
xd"
b0 c"
b0 b"
b0 a"
b0 `"
b100000 _"
b0 ^"
b0 ]"
bx \"
bx ["
b0x Z"
b0x Y"
1X"
xW"
xV"
bx U"
bx T"
bx S"
bx R"
0Q"
b0 P"
b0 O"
b0 N"
xM"
b0 L"
b0 K"
bx J"
bx I"
xH"
0G"
b0 F"
b0 E"
b0 D"
bx C"
bx B"
bx A"
b0x @"
bx ?"
bx >"
bx ="
bx <"
bx ;"
bx :"
bx 9"
bx 8"
bx 7"
bx 6"
bx 5"
04"
x3"
x2"
x1"
x0"
x/"
x."
x-"
x,"
x+"
x*"
x)"
x("
x'"
x&"
x%"
0$"
bx #"
bx ""
bx !"
bx ~
bx }
bx |
bx {
bx z
xy
bx x
xw
bx v
bx u
xt
bx s
bx r
bx q
bx p
bx o
bx n
bx m
bx l
xk
bx j
bx i
xh
xg
bx f
bx e
bx d
bx c
bx b
bx a
x`
x_
bx ^
bx ]
bx \
x[
xZ
xY
bx X
bx W
0V
xU
xT
bx S
xR
xQ
1P
b0 O
bx N
xM
xL
bx K
bx J
xI
xH
bx G
b0 F
bx E
bx D
bx C
bx B
bx A
bx @
bx ?
bx >
bx =
bx <
bx ;
bx :
bx 9
x8
bx 7
x6
bx 5
bx 4
x3
bx 2
bx 1
x0
1/
1.
1-
bx ,
b0 +
0*
x)
x(
x'
x&
x%
x$
x#
x"
1!
$end
#1
b0 G
b0 *#
b0 C#
b0 E
0)
b0 S
b0 <"
1}"
0'
b0 A"
0t"
0M"
b0 8"
1I
1G#
0(
06
02#
b0 B"
b0 >"
b0 u"
b0 :"
b0 7"
b0 9"
0,"
0("
b100 ?
b0 S"
0-"
b1 D
b1 W#
b1 \#
0M
0&#
0L
0'#
0H
0$#
0U
0z"
0##
0R
0{"
b0 <
b0 -#
b0 ]#
b0 1#
00#
b0 C"
b0 ?"
b0 ="
0%
0$
0"
b0 5"
b0 6"
b0 ;"
0+"
0'"
0."
0Q
0d"
b0 ["
b0 \"
b0 @"
b0 I"
b0 R"
b0 #"
b0 ""
b0 !"
b0 J"
b0 s"
b0 A
b1 [#
b11111111 Z#
b0 C
b0 T#
b0 Y#
b1 5
b1 /#
b1 3#
1<#
09#
0@#
0"#
08#
1T
1J#
0!#
0:#
0;#
0|"
0?#
0=#
0~"
0>#
08
07#
b0 @
b0 +#
b0 6#
b0 :
b0 .#
b0 ^#
b0 4#
b0 =
b0 ,#
b0 5#
b0 K
b0 (#
b0 I#
b0 J
b0 )#
b0 H#
b0 A#
b0 D#
b0 F#
b0 B#
b0 E#
0&
0#
0)"
02"
01"
03"
00"
0*"
0/"
0%"
0&"
0i"
b0 p"
b0 Z"
b0 Y"
b0 T"
b0 W
b0 ~
1n"
b0 U"
b0 X
b0 }
b0 N
b0 q"
b0 4
b0 1
b0 P#
1R#
b0 7
b0 Q#
b0 B
b0 M#
0k
b100 >
b0 2
b0 o
b0 l
b0 %#
b0 m
b0 n
b0 d
0g
0h
b0 i
b0 j
0_
0`
0Y
0Z
0[
0V"
0W"
b0 ]
b0 |
0H"
b0 \
b0 {
b0 g"
0j"
b0 a
b0 h"
b0 c
b0 b
b0 ^
1m"
0l"
0k"
b0 f
b0 f"
b0 e
b0 e"
0t
b0 u
b0 v
03
00
0w
b0 p
b0 r
b0 q
b0 s
b0 O#
0y
b0 z
b0 _#
b0 x
b0 `#
0P
1*
#2
b0 9
b0 b#
b0 d#
b0 ;
b0 a#
b0 c#
b10000000000000001101111 ,
1P
0*
#3
0P
1*
#4
1P
0*
#5
0P
1*
#6
1P
0*
#7
0P
1*
#8
1P
0*
#9
0P
1*
#10
1P
0*
0-
#11
0}"
1R
1{"
b100 G
b100 *#
b100 C#
16
12#
0I
0G#
10#
b10 5
b10 /#
b10 3#
0<#
1~"
1>#
b11011 @
b11011 +#
b11011 6#
b100 :
b100 .#
b100 ^#
b100 4#
b10000000000000000000000 A#
b100 D#
b100 E#
b1000 ?
b1 i
1Z
b10000000000000001101111 l
b10000000000000001101111 %#
b100 n
b1000 >
b100 2
b100 o
0P
1*
#12
b10010011 ,
1P
0*
#13
16
12#
10#
b100 E
b100 S
b100 <"
b100 A"
1}"
b100 >"
b100 B"
0R
0{"
b0 G
b0 *#
b0 C#
b100 ?"
b100 ="
b100 C"
b1111111111111111111111111111 5"
b11100 ;"
1U
1z"
1I
1G#
b0 5
b0 /#
b0 3#
1Q
1d"
b100 #"
b100 ""
b100 ["
b100 \"
b1 @"
b100 I"
b100 R"
b100 ?
19#
0~"
0>#
b100 @
b100 +#
b100 6#
b0 :
b0 .#
b0 ^#
b0 4#
b1 =
b1 ,#
b1 5#
b0 A#
b0 D#
b100000000000 F#
b1 B#
b0 E#
1i"
b1 Z"
b1 Y"
b11111111111111111111111111111100 T"
b100 W
b100 ~
b100 p"
b1100 >
b1000 2
b1000 o
b10010011 l
b10010011 %#
b100 m
b1000 n
1h
b10 i
1[
b11011 a
b11011 h"
b100 c
b100 ^
b1 u
0P
1*
#14
b100010011 ,
1P
0*
#15
b0 E
b0 S
b0 <"
b0 A"
b0 >"
b0 B"
b1000 ?
b0 ?"
b0 ="
b0 C"
b0 5"
b0 ;"
06
02#
0Q
0d"
b0 #"
b0 ""
b0 ["
b0 \"
b0 @"
b0 I"
b0 R"
0U
0z"
00#
b100 7
0i"
b0 Z"
b0 Y"
b0 T"
b0 W
b0 ~
b0 p"
b1 5
b1 /#
b1 3#
1<#
09#
b0 @
b0 +#
b0 6#
b0 =
b0 ,#
b0 5#
b0 F#
b0 B#
1t
b10 u
b100 r
b100 q
0h
b0 i
0Z
0[
b0 a
b0 h"
b0 c
b0 ^
b0 l
b0 %#
b1000 m
b1100 n
1k
b1000 >
b100 2
b100 o
0P
1*
#16
b10010011 ,
1P
0*
#17
16
12#
1U
1z"
10#
b1100 ?
b0 5
b0 /#
b0 3#
0<#
19#
b100 @
b100 +#
b100 6#
b1 =
b1 ,#
b1 5#
b100000000000 F#
b1 B#
b0 7
b1100 >
b1000 2
b1000 o
0k
b10010011 l
b10010011 %#
b100 m
b1000 n
0t
b0 u
b0 r
b0 q
1y
b100 x
b100 `#
0P
1*
#18
b100010011 ,
1P
0*
#19
b10 =
b10 ,#
b10 5#
b10 F#
b10 B#
b10000 ?
0y
b0 x
b0 `#
1h
b1 j
1Y
1Z
b100 a
b100 h"
b1000 c
b100 b
b100010011 l
b100010011 %#
b1000 m
b1100 n
b10000 >
b1100 2
b1100 o
0P
1*
#20
b110010011 ,
1P
0*
#21
b10100 ?
b11 =
b11 ,#
b11 5#
b100000000010 F#
b11 B#
b10100 >
b10000 2
b10000 o
b110010011 l
b110010011 %#
b1100 m
b10000 n
b10 j
b1100 c
b1000 b
1t
b1 v
b1000 r
0P
1*
#22
b1000010011 ,
1P
0*
#23
b100 =
b100 ,#
b100 5#
b100 F#
b100 B#
b11000 ?
1y
b1 z
b1 _#
b10 v
b1100 r
b11 j
b10000 c
b1100 b
b1000010011 l
b1000010011 %#
b10000 m
b10100 n
b11000 >
b10100 2
b10100 o
0P
1*
#24
b1010010011 ,
1P
0*
#25
b11100 ?
b101 =
b101 ,#
b101 5#
b100000000100 F#
b101 B#
b11100 >
b11000 2
b11000 o
b1010010011 l
b1010010011 %#
b10100 m
b11000 n
b100 j
b10100 c
b10000 b
b11 v
b10000 r
b10 z
b10 _#
0P
1*
#26
b1100010011 ,
1P
0*
#27
b110 =
b110 ,#
b110 5#
b110 F#
b110 B#
b100000 ?
b11 z
b11 _#
b100 v
b10100 r
b101 j
b11000 c
b10100 b
b1100010011 l
b1100010011 %#
b11000 m
b11100 n
b100000 >
b11100 2
b11100 o
0P
1*
#28
b1110010011 ,
1P
0*
#29
b100100 ?
b111 =
b111 ,#
b111 5#
b100000000110 F#
b111 B#
b100100 >
b100000 2
b100000 o
b1110010011 l
b1110010011 %#
b11100 m
b100000 n
b110 j
b11100 c
b11000 b
b101 v
b11000 r
b100 z
b100 _#
0P
1*
#30
b10000010011 ,
1P
0*
#31
b1000 =
b1000 ,#
b1000 5#
b1000 F#
b1000 B#
b101000 ?
b101 z
b101 _#
b110 v
b11100 r
b111 j
b100000 c
b11100 b
b10000010011 l
b10000010011 %#
b100000 m
b100100 n
b101000 >
b100100 2
b100100 o
0P
1*
#32
b10010010011 ,
1P
0*
#33
b101100 ?
b1001 =
b1001 ,#
b1001 5#
b100000001000 F#
b1001 B#
b101100 >
b101000 2
b101000 o
b10010010011 l
b10010010011 %#
b100100 m
b101000 n
b1000 j
b100100 c
b100000 b
b111 v
b100000 r
b110 z
b110 _#
0P
1*
#34
b10100010011 ,
1P
0*
#35
b1010 =
b1010 ,#
b1010 5#
b1010 F#
b1010 B#
b110000 ?
b111 z
b111 _#
b1000 v
b100100 r
b1001 j
b101000 c
b100100 b
b10100010011 l
b10100010011 %#
b101000 m
b101100 n
b110000 >
b101100 2
b101100 o
0P
1*
#36
b10110010011 ,
1P
0*
#37
b110100 ?
b1011 =
b1011 ,#
b1011 5#
b100000001010 F#
b1011 B#
b110100 >
b110000 2
b110000 o
b10110010011 l
b10110010011 %#
b101100 m
b110000 n
b1010 j
b101100 c
b101000 b
b1001 v
b101000 r
b1000 z
b1000 _#
0P
1*
#38
b11000010011 ,
1P
0*
#39
b1100 =
b1100 ,#
b1100 5#
b1100 F#
b1100 B#
b111000 ?
b1001 z
b1001 _#
b1010 v
b101100 r
b1011 j
b110000 c
b101100 b
b11000010011 l
b11000010011 %#
b110000 m
b110100 n
b111000 >
b110100 2
b110100 o
0P
1*
#40
b11010010011 ,
1P
0*
#41
b111100 ?
b1101 =
b1101 ,#
b1101 5#
b100000001100 F#
b1101 B#
b111100 >
b111000 2
b111000 o
b11010010011 l
b11010010011 %#
b110100 m
b111000 n
b1100 j
b110100 c
b110000 b
b1011 v
b110000 r
b1010 z
b1010 _#
0P
1*
#42
b11100010011 ,
1P
0*
#43
b1110 =
b1110 ,#
b1110 5#
b1110 F#
b1110 B#
b1000000 ?
b1011 z
b1011 _#
b1100 v
b110100 r
b1101 j
b111000 c
b110100 b
b11100010011 l
b11100010011 %#
b111000 m
b111100 n
b1000000 >
b111100 2
b111100 o
0P
1*
#44
b11110010011 ,
1P
0*
#45
b1000100 ?
b1111 =
b1111 ,#
b1111 5#
b100000001110 F#
b1111 B#
b1000100 >
b1000000 2
b1000000 o
b11110010011 l
b11110010011 %#
b111100 m
b1000000 n
b1110 j
b111100 c
b111000 b
b1101 v
b111000 r
b1100 z
b1100 _#
0P
1*
#46
b100000010011 ,
1P
0*
#47
b10000 =
b10000 ,#
b10000 5#
b10000 F#
b10000 B#
b1001000 ?
b1101 z
b1101 _#
b1110 v
b111100 r
b1111 j
b1000000 c
b111100 b
b100000010011 l
b100000010011 %#
b1000000 m
b1000100 n
b1001000 >
b1000100 2
b1000100 o
0P
1*
#48
b100010010011 ,
1P
0*
#49
b1001100 ?
b10001 =
b10001 ,#
b10001 5#
b100000010000 F#
b10001 B#
b1001100 >
b1001000 2
b1001000 o
b100010010011 l
b100010010011 %#
b1000100 m
b1001000 n
b10000 j
b1000100 c
b1000000 b
b1111 v
b1000000 r
b1110 z
b1110 _#
0P
1*
#50
b100100010011 ,
1P
0*
#51
b10010 =
b10010 ,#
b10010 5#
b10010 F#
b10010 B#
b1010000 ?
b1111 z
b1111 _#
b10000 v
b1000100 r
b10001 j
b1001000 c
b1000100 b
b100100010011 l
b100100010011 %#
b1001000 m
b1001100 n
b1010000 >
b1001100 2
b1001100 o
0P
1*
#52
b100110010011 ,
1P
0*
#53
b1010100 ?
b10011 =
b10011 ,#
b10011 5#
b100000010010 F#
b10011 B#
b1010100 >
b1010000 2
b1010000 o
b100110010011 l
b100110010011 %#
b1001100 m
b1010000 n
b10010 j
b1001100 c
b1001000 b
b10001 v
b1001000 r
b10000 z
b10000 _#
0P
1*
#54
b101000010011 ,
1P
0*
#55
b10100 =
b10100 ,#
b10100 5#
b10100 F#
b10100 B#
b1011000 ?
b10001 z
b10001 _#
b10010 v
b1001100 r
b10011 j
b1010000 c
b1001100 b
b101000010011 l
b101000010011 %#
b1010000 m
b1010100 n
b1011000 >
b1010100 2
b1010100 o
0P
1*
#56
b101010010011 ,
1P
0*
#57
b1011100 ?
b10101 =
b10101 ,#
b10101 5#
b100000010100 F#
b10101 B#
b1011100 >
b1011000 2
b1011000 o
b101010010011 l
b101010010011 %#
b1010100 m
b1011000 n
b10100 j
b1010100 c
b1010000 b
b10011 v
b1010000 r
b10010 z
b10010 _#
0P
1*
#58
b101100010011 ,
1P
0*
#59
b10110 =
b10110 ,#
b10110 5#
b10110 F#
b10110 B#
b1100000 ?
b10011 z
b10011 _#
b10100 v
b1010100 r
b10101 j
b1011000 c
b1010100 b
b101100010011 l
b101100010011 %#
b1011000 m
b1011100 n
b1100000 >
b1011100 2
b1011100 o
0P
1*
#60
b101110010011 ,
1P
0*
#61
b1100100 ?
b10111 =
b10111 ,#
b10111 5#
b100000010110 F#
b10111 B#
b1100100 >
b1100000 2
b1100000 o
b101110010011 l
b101110010011 %#
b1011100 m
b1100000 n
b10110 j
b1011100 c
b1011000 b
b10101 v
b1011000 r
b10100 z
b10100 _#
0P
1*
#62
b110000010011 ,
1P
0*
#63
b11000 =
b11000 ,#
b11000 5#
b11000 F#
b11000 B#
b1101000 ?
b10101 z
b10101 _#
b10110 v
b1011100 r
b10111 j
b1100000 c
b1011100 b
b110000010011 l
b110000010011 %#
b1100000 m
b1100100 n
b1101000 >
b1100100 2
b1100100 o
0P
1*
#64
b110010010011 ,
1P
0*
#65
b1101100 ?
b11001 =
b11001 ,#
b11001 5#
b100000011000 F#
b11001 B#
b1101100 >
b1101000 2
b1101000 o
b110010010011 l
b110010010011 %#
b1100100 m
b1101000 n
b11000 j
b1100100 c
b1100000 b
b10111 v
b1100000 r
b10110 z
b10110 _#
0P
1*
#66
b110100010011 ,
1P
0*
#67
b11010 =
b11010 ,#
b11010 5#
b11010 F#
b11010 B#
b1110000 ?
b10111 z
b10111 _#
b11000 v
b1100100 r
b11001 j
b1101000 c
b1100100 b
b110100010011 l
b110100010011 %#
b1101000 m
b1101100 n
b1110000 >
b1101100 2
b1101100 o
0P
1*
#68
b110110010011 ,
1P
0*
